41,69955; Task changed; B ;Fixed;
45,56617; Grabbed; 3 Book; 0,3985564; Goal Book;
45,85047; Average force at grab start; 52,74433; 0,3; 
51,80988; Released; 3 Book; 0,1934279; Goal Book; 6,24371;
; Full force reached duration; 0,0223892; 98; 
; either pinky or ring attached duration5,139623; 
; maximal force reached during grab; 98,35; 
; grasp quality score; 2,5; 6,261131; 
\debugText{didn't start with an initially low force (52,74433)
could reach full force
weaker/secondary fingers were attached for more than 60% of the time (82,08777%)
}
53,40862; Grabbed; 3 Book; 0,3617671; Goal Book;
53,72096; Average force at grab start; 75,9; 0,3; 
58,69718; Released; 3 Book; 0,03376642; Goal Book; 5,288567;
; Full force reached duration; 4,865699; 98; 
; either pinky or ring attached duration0; 
; maximal force reached during grab; 100; 
; grasp quality score; 4,5; 5,295219; 
\debugText{didn't start with an initially low force (75,9)
could reach full force
could reach full force for more than 300ms (exactly 0,04865699ms)
more than 10% of the time full force was reached (91,88853%)
}
59,65528; Successful Placement; 3 Book; 0,01265686; 17,61798; 59,15461; 2; 11,53228; 0; 11,53228; 47,16491; 47,62233; 3,5;
61,65195; Grabbed; 1 Book; 0,5007766; Goal Book;
61,93721; Average force at grab start; 92,85714; 0,3; 
67,31908; Released; 1 Book; 0,01829634; Goal Book; 5,66713;
; Full force reached duration; 5,666528; 98; 
; either pinky or ring attached duration5,677639; 
; maximal force reached during grab; 100; 
; grasp quality score; 5; 5,682823; 
\debugText{didn't start with an initially low force (92,85714)
could reach full force
could reach full force for more than 300ms (exactly 0,05666528ms)
more than 10% of the time full force was reached (99,71326%)
weaker/secondary fingers were attached for more than 60% of the time (99,90878%)
}
67,89307; Successful Placement; 1 Book; 0,001649443; 7,749692; 7,737091; 1; 5,66713; 0; 5,66713; 61,65195; 2,069962; 5;
72,896; Grabbed; 12 Soup; 0,5679189; Goal Soup (B);
73,18633; Average force at grab start; 56,80209; 0,3; 
75,07419; Released; 12 Soup; 0,5464572; Goal Soup (B); 2,178192;
; Full force reached duration; 0,8224739; 98; 
; either pinky or ring attached duration1,977544; 
; maximal force reached during grab; 100; 
; grasp quality score; 5; 2,193764; 
\debugText{didn't start with an initially low force (56,80209)
could reach full force
could reach full force for more than 300ms (exactly 0,00822474ms)
more than 10% of the time full force was reached (37,49146%)
weaker/secondary fingers were attached for more than 60% of the time (90,14391%)
}
76,99162; Grabbed; 12 Soup; 0,5348169; Goal Soup (B);
77,30372; Average force at grab start; 88,69001; 0,3; 
78,01612; Released; 12 Soup; 0,5151945; Goal Soup (B); 1,024498;
; Full force reached duration; 0,6847834; 98; 
; either pinky or ring attached duration1,035704; 
; maximal force reached during grab; 100; 
; grasp quality score; 5; 1,036034; 
\debugText{didn't start with an initially low force (88,69001)
could reach full force
could reach full force for more than 300ms (exactly 0,006847834ms)
more than 10% of the time full force was reached (66,09664%)
weaker/secondary fingers were attached for more than 60% of the time (99,96823%)
}
79,52933; Grabbed; 12 Soup; 0,5173946; Goal Soup (B);
79,81859; Average force at grab start; 73,62858; 0,3; 
83,35221; Released; 12 Soup; 0,002686579; Goal Soup (B); 3,822884;
; Full force reached duration; 0,3122418; 98; 
; either pinky or ring attached duration3,833141; 
; maximal force reached during grab; 99,15; 
; grasp quality score; 4; 3,83886; 
\debugText{didn't start with an initially low force (73,62858)
could reach full force
could reach full force for more than 300ms (exactly 0,003122418ms)
weaker/secondary fingers were attached for more than 60% of the time (99,85104%)
}
83,92904; Successful Placement; 12 Soup; 0,001967477; 2,052058; 15,53524; 3; 7,025574; 0; 7,025574; 76,32664; 8,509666; 4,666667;
85,32846; Grabbed; 9 Soup; 0,4906093; Goal Soup (B);
85,61964; Average force at grab start; 1,020238; 0,3; 
88,5738; Released; 9 Soup; 0,01460045; Goal Soup (B); 3,245338;
; Full force reached duration; 0; 98; 
; either pinky or ring attached duration1,888784; 
; maximal force reached during grab; 70,2; 
; grasp quality score; 0; 3,260147; 
\debugText{}
89,17493; Successful Placement; 9 Soup; 0,01731819; 11,21455; 4,74527; 1; 3,245338; 0; 3,245338; 85,32846; 1,499931; 0;
94,61736; Grabbed; 4 Book; 0,4394947; Goal Book;
94,90619; Average force at grab start; 92,85714; 0,3; 
95,86274; Released; 4 Book; 0,4401085; Goal Book; 1,245384;
; Full force reached duration; 1,244079; 98; 
; either pinky or ring attached duration1,25519; 
; maximal force reached during grab; 100; 
; grasp quality score; 5; 1,260231; 
\debugText{didn't start with an initially low force (92,85714)
could reach full force
could reach full force for more than 300ms (exactly 0,01244079ms)
more than 10% of the time full force was reached (98,7183%)
weaker/secondary fingers were attached for more than 60% of the time (99,59998%)
}
99,50594; Grabbed; 4 Book; 0,4278072; Goal Book;
99,79722; Average force at grab start; 100; 0,3; 
100,4395; Released; 4 Book; 0,4148034; Goal Book; 0,9335556;
; Full force reached duration; 0,9447641; 98; 
; either pinky or ring attached duration0,9447641; 
; maximal force reached during grab; 100; 
; grasp quality score; 5; 0,9485397; 
\debugText{didn't start with an initially low force (100)
could reach full force
could reach full force for more than 300ms (exactly 0,009447642ms)
more than 10% of the time full force was reached (99,60196%)
weaker/secondary fingers were attached for more than 60% of the time (99,60196%)
}
102,1055; Grabbed; 4 Book; 0,4175327; Goal Book;
102,4144; Average force at grab start; 100; 0,3; 
104,7955; Released; 4 Book; 0,01543283; Goal Book; 2,69001;
; Full force reached duration; 2,699823; 98; 
; either pinky or ring attached duration2,699823; 
; maximal force reached during grab; 100; 
; grasp quality score; 5; 2,704185; 
\debugText{didn't start with an initially low force (100)
could reach full force
could reach full force for more than 300ms (exactly 0,02699823ms)
more than 10% of the time full force was reached (99,83869%)
weaker/secondary fingers were attached for more than 60% of the time (99,83869%)
}
105,3311; Successful Placement; 4 Book; 0,005843404; 2,381166; 15,65557; 3; 4,86895; 0; 4,86895; 99,92658; 10,78662; 5;
108,0839; Grabbed; 11 Soup; 0,5165473; Goal Soup (B);
108,3747; Average force at grab start; 92,85714; 0,3; 
110,4621; Released; 11 Soup; 0,3495236; Goal Soup (B); 2,37822;
; Full force reached duration; 1,955677; 98; 
; either pinky or ring attached duration2,333119; 
; maximal force reached during grab; 100; 
; grasp quality score; 5; 2,392792; 
\debugText{didn't start with an initially low force (92,85714)
could reach full force
could reach full force for more than 300ms (exactly 0,01955677ms)
more than 10% of the time full force was reached (81,73203%)
weaker/secondary fingers were attached for more than 60% of the time (97,50615%)
}
111,9505; Grabbed; 11 Soup; 0,3251364; Goal Soup (B);
112,2592; Average force at grab start; 100; 0,3; 
113,3062; Released; 11 Soup; 0,406247; Goal Soup (B); 1,355705;
; Full force reached duration; 1,366463; 98; 
; either pinky or ring attached duration0,1835253; 
; maximal force reached during grab; 100; 
; grasp quality score; 4,5; 1,370224; 
\debugText{didn't start with an initially low force (100)
could reach full force
could reach full force for more than 300ms (exactly 0,01366463ms)
more than 10% of the time full force was reached (99,72552%)
}
114,8612; Grabbed; 11 Soup; 0,404643; Goal Soup (B);
115,1511; Average force at grab start; 97,14286; 0,3; 
116,8391; Released; 11 Soup; 0,004426751; Goal Soup (B); 1,977905;
; Full force reached duration; 1,717802; 98; 
; either pinky or ring attached duration1,933841; 
; maximal force reached during grab; 100; 
; grasp quality score; 5; 1,992355; 
\debugText{didn't start with an initially low force (97,14286)
could reach full force
could reach full force for more than 300ms (exactly 0,01717802ms)
more than 10% of the time full force was reached (86,21966%)
weaker/secondary fingers were attached for more than 60% of the time (97,06304%)
}
121,5505; Grabbed; 11 Soup; 0,007821945; Goal Soup (B);
121,8585; Average force at grab start; 100; 0,3; 
122,9508; Released; 11 Soup; 0,02993478; Goal Soup (B); 1,400276;
; Full force reached duration; 1,411043; 98; 
; either pinky or ring attached duration1,377001; 
; maximal force reached during grab; 100; 
; grasp quality score; 5; 1,414864; 
\debugText{didn't start with an initially low force (100)
could reach full force
could reach full force for more than 300ms (exactly 0,01411043ms)
more than 10% of the time full force was reached (99,73%)
weaker/secondary fingers were attached for more than 60% of the time (97,32396%)
}
123,7042; Successful Placement; 11 Soup; 0,0448661; 2,672068; 17,8724; 4; 7,112106; 0; 7,112106; 115,8387; 10,76029; 4,875;
125,5719; Grabbed; 6 Milk ; 0,5191132; Goal Milk;
125,863; Average force at grab start; 84,46845; 0,3; 
127,75; Released; 6 Milk ; 0,5424979; Goal Milk; 2,178101;
; Full force reached duration; 1,906219; 98; 
; either pinky or ring attached duration2,100169; 
; maximal force reached during grab; 100; 
; grasp quality score; 5; 2,192078; 
\debugText{didn't start with an initially low force (84,46845)
could reach full force
could reach full force for more than 300ms (exactly 0,01906219ms)
more than 10% of the time full force was reached (86,95947%)
weaker/secondary fingers were attached for more than 60% of the time (95,80724%)
}
129,0613; Grabbed; 6 Milk ; 0,5126679; Goal Milk;
129,3709; Average force at grab start; 80,86333; 0,3; 
130,2613; Released; 6 Milk ; 0,4742981; Goal Milk; 1,199921;
; Full force reached duration; 0; 98; 
; either pinky or ring attached duration0; 
; maximal force reached during grab; 93,75; 
; grasp quality score; 1; 1,214279; 
\debugText{didn't start with an initially low force (80,86333)
}
131,3287; Grabbed; 6 Milk ; 0,4819442; Goal Milk;
131,6391; Average force at grab start; 79,79333; 0,3; 
133,4831; Released; 6 Milk ; 0,01880792; Goal Milk; 2,154327;
; Full force reached duration; 2,002009; 98; 
; either pinky or ring attached duration2,006418; 
; maximal force reached during grab; 100; 
; grasp quality score; 5; 2,158546; 
\debugText{didn't start with an initially low force (79,79333)
could reach full force
could reach full force for more than 300ms (exactly 0,02002009ms)
more than 10% of the time full force was reached (92,748%)
weaker/secondary fingers were attached for more than 60% of the time (92,95225%)
}
134,105; Successful Placement; 6 Milk ; 0,009777627; 5,717245; 9,90023; 3; 5,532349; 0; 5,532349; 127,9507; 4,367882; 3,666667;
135,6383; Grabbed; 5 Milk; 0,5547158; Goal Milk;
135,9329; Average force at grab start; 50,32619; 0,3; 
138,4164; Released; 5 Milk; 0,008388883; Goal Milk; 2,778107;
; Full force reached duration; 0; 98; 
; either pinky or ring attached duration2,532778; 
; maximal force reached during grab; 86; 
; grasp quality score; 1,5; 2,792068; 
\debugText{didn't start with an initially low force (50,32619)
weaker/secondary fingers were attached for more than 60% of the time (90,7133%)
}
139,014; Successful Placement; 5 Milk; 0,008864291; 10,54331; 4,408173; 1; 2,778107; 0; 2,778107; 135,6383; 1,630066; 1,5;
140,4397; Grabbed; 7 Milk ; 0,4477207; Goal Milk;
140,7475; Average force at grab start; 66,02509; 0,3; 
142,8164; Released; 7 Milk ; 0,4022093; Goal Milk; 2,376678;
; Full force reached duration; 0; 98; 
; either pinky or ring attached duration0; 
; maximal force reached during grab; 85,35; 
; grasp quality score; 1; 2,38089; 
\debugText{didn't start with an initially low force (66,02509)
}
144,2606; Grabbed; 7 Milk ; 0,4165323; Goal Milk;
144,5518; Average force at grab start; 52,79642; 0,3; 
146,2609; Released; 7 Milk ; 0,01203717; Goal Milk; 2,000275;
; Full force reached duration; 0; 98; 
; either pinky or ring attached duration0; 
; maximal force reached during grab; 69,25; 
; grasp quality score; 1; 2,014084; 
\debugText{didn't start with an initially low force (52,79642)
}
147,5731; Grabbed; 7 Milk ; 0,02313695; Goal Milk;
147,8856; Average force at grab start; 56,39667; 0,3; 
149,3721; Released; 7 Milk ; 0,03242027; Goal Milk; 1,798996;
; Full force reached duration; 0; 98; 
; either pinky or ring attached duration1,717025; 
; maximal force reached during grab; 73,45; 
; grasp quality score; 1,5; 1,802994; 
\debugText{didn't start with an initially low force (56,39667)
weaker/secondary fingers were attached for more than 60% of the time (95,23188%)
}
150,7732; Grabbed; 7 Milk ; 0,03835582; Goal Milk;
151,0813; Average force at grab start; 78,34; 0,3; 
153,0381; Released; 7 Milk ; 0,01722534; Goal Milk; 2,264893;
; Full force reached duration; 2,018101; 98; 
; either pinky or ring attached duration2,172739; 
; maximal force reached during grab; 100; 
; grasp quality score; 5; 2,269073; 
\debugText{didn't start with an initially low force (78,34)
could reach full force
could reach full force for more than 300ms (exactly 0,02018101ms)
more than 10% of the time full force was reached (88,93943%)
weaker/secondary fingers were attached for more than 60% of the time (95,75445%)
}
153,7034; Successful Placement; 7 Milk ; 0,007807974; 1,843921; 14,18877; 4; 8,440842; 0; 8,440842; 144,5972; 5,747925; 2,125;
157,8153; Grabbed; 2 Book; 0,3702887; Goal Book;
158,124; Average force at grab start; 91,43278; 0,3; 
159,3937; Released; 2 Book; 0,3460603; Goal Book; 1,578354;
; Full force reached duration; 0,833712; 98; 
; either pinky or ring attached duration1,589329; 
; maximal force reached during grab; 100; 
; grasp quality score; 5; 1,591293; 
\debugText{didn't start with an initially low force (91,43278)
could reach full force
could reach full force for more than 300ms (exactly 0,00833712ms)
more than 10% of the time full force was reached (52,3921%)
weaker/secondary fingers were attached for more than 60% of the time (99,87658%)
}
160,8609; Grabbed; 2 Book; 0,4563205; Goal Book;
161,1726; Average force at grab start; 80,31667; 0,3; 
163,1268; Released; 2 Book; 0,02769905; Goal Book; 2,26593;
; Full force reached duration; 2,088034; 98; 
; either pinky or ring attached duration2,278445; 
; maximal force reached during grab; 100; 
; grasp quality score; 5; 2,268784; 
\debugText{didn't start with an initially low force (80,31667)
could reach full force
could reach full force for more than 300ms (exactly 0,02088034ms)
more than 10% of the time full force was reached (92,0332%)
weaker/secondary fingers were attached for more than 60% of the time (100,4258%)
}
163,6794; Successful Placement; 2 Book; 0,01183991; 3,296828; 9,475464; 2; 3,844284; 0; 3,844284; 159,2825; 5,63118; 5;
165,4605; Grabbed; 8 Milk ; 0,4811836; Goal Milk;
165,7689; Average force at grab start; 55,7; 0,3; 
167,4597; Released; 8 Milk ; 0,02338936; Goal Milk; 1,99913;
; Full force reached duration; 0; 98; 
; either pinky or ring attached duration0,617131; 
; maximal force reached during grab; 85,1; 
; grasp quality score; 1; 2,013092; 
\debugText{didn't start with an initially low force (55,7)
}
168,08; Successful Placement; 8 Milk ; 0,0246281; 4,149428; 3,899673; 1; 1,99913; 0; 1,99913; 165,4605; 1,900543; 1;
170,0598; Grabbed; 10 Soup; 0,7020755; Goal Soup (B);
170,3685; Average force at grab start; 86,96019; 0,3; 
171,2369; Released; 10 Soup; 0,5156982; Goal Soup (B); 1,177094;
; Full force reached duration; 1,022977; 98; 
; either pinky or ring attached duration1,108749; 
; maximal force reached during grab; 100; 
; grasp quality score; 5; 1,189529; 
\debugText{didn't start with an initially low force (86,96019)
could reach full force
could reach full force for more than 300ms (exactly 0,01022977ms)
more than 10% of the time full force was reached (85,99843%)
weaker/secondary fingers were attached for more than 60% of the time (93,20903%)
}
173,2745; Grabbed; 10 Soup; 0,5047651; Goal Soup (B);
173,5793; Average force at grab start; 96,29474; 0,3; 
176,1595; Released; 10 Soup; 0,02108938; Goal Soup (B); 2,88504;
; Full force reached duration; 1,600615; 98; 
; either pinky or ring attached duration2,888914; 
; maximal force reached during grab; 99,3; 
; grasp quality score; 5; 2,890503; 
\debugText{didn't start with an initially low force (96,29474)
could reach full force
could reach full force for more than 300ms (exactly 0,01600615ms)
more than 10% of the time full force was reached (55,37497%)
weaker/secondary fingers were attached for more than 60% of the time (99,94503%)
}
176,7582; Successful Placement; 10 Soup; 0,02112787; 17,26544; 8,177582; 2; 4,062134; 0; 4,062134; 172,0974; 4,115448; 5;
176,7591;Task finishedB ;Fixed;
176,7596; Task changed; A ;Fixed;
180,7367; Grabbed; 13 Soup; 
181,0455; Average force at grab start; 61,93473; 0,3; 
185,6715; Released; 13 Soup;  4,934784;
; Full force reached duration; 0; 98; 
; either pinky or ring attached duration4,912749; 
; maximal force reached during grab; 89,15; 
; grasp quality score; 1,5; 4,94664; 
\debugText{didn't start with an initially low force (61,93473)
weaker/secondary fingers were attached for more than 60% of the time (99,31487%)
}
186,3618; Successful Placement; 13 Soup; 0,009739226; 13,86265; 9,102798; 1; 4,934784; 0; 4,934784; 180,7367; 4,168015; 1,5;
189,6728; Grabbed; 14 Soup; 
189,9813; Average force at grab start; 65,58752; 0,3; 
193,3369; Released; 14 Soup;  3,664185;
; Full force reached duration; 0,2004941; 98; 
; either pinky or ring attached duration3,678447; 
; maximal force reached during grab; 98,45; 
; grasp quality score; 2,5; 3,667984; 
\debugText{didn't start with an initially low force (65,58752)
could reach full force
weaker/secondary fingers were attached for more than 60% of the time (100,2852%)
}
194,0223; Successful Placement; 14 Soup; 0,01358106; 3,841623; 7,159698; 1; 3,664185; 0; 3,664185; 189,6728; 3,495514; 2,5;
196,1589; Grabbed; 15 Soup; 
196,4691; Average force at grab start; 62,005; 0,3; 
199,3823; Released; 15 Soup;  3,22345;
; Full force reached duration; 2,492933; 98; 
; either pinky or ring attached duration3,233211; 
; maximal force reached during grab; 100; 
; grasp quality score; 5; 3,235275; 
\debugText{didn't start with an initially low force (62,005)
could reach full force
could reach full force for more than 300ms (exactly 0,02492933ms)
more than 10% of the time full force was reached (77,05473%)
weaker/secondary fingers were attached for more than 60% of the time (99,93619%)
}
199,9379; Successful Placement; 15 Soup; 0,004092964; 4,682351; 5,414764; 1; 3,22345; 0; 3,22345; 196,1589; 2,191315; 5;
201,9585; Grabbed; 16 Soup; 
202,267; Average force at grab start; 90,65139; 0,3; 
204,8703; Released; 16 Soup;  2,911804;
; Full force reached duration; 1,830925; 98; 
; either pinky or ring attached duration2,922; 
; maximal force reached during grab; 100; 
; grasp quality score; 5; 2,923553; 
\debugText{didn't start with an initially low force (90,65139)
could reach full force
could reach full force for more than 300ms (exactly 0,01830925ms)
more than 10% of the time full force was reached (62,62671%)
weaker/secondary fingers were attached for more than 60% of the time (99,94687%)
}
205,7117; Successful Placement; 16 Soup; 0,003855552; 16,55575; 5,273285; 1; 2,911804; 0; 2,911804; 201,9585; 2,361481; 5;
207,537; Grabbed; 17 Soup; 
207,8269; Average force at grab start; 91,18392; 0,3; 
209,6484; Released; 17 Soup;  2,111359;
; Full force reached duration; 1,554654; 98; 
; either pinky or ring attached duration2,0883; 
; maximal force reached during grab; 100; 
; grasp quality score; 5; 2,123444; 
\debugText{didn't start with an initially low force (91,18392)
could reach full force
could reach full force for more than 300ms (exactly 0,01554654ms)
more than 10% of the time full force was reached (73,21381%)
weaker/secondary fingers were attached for more than 60% of the time (98,34499%)
}
212,8678; Grabbed; 17 Soup; 
213,165; Average force at grab start; 68,3075; 0,3; 
219,0475; Released; 17 Soup;  6,179779;
; Full force reached duration; 0,01111111; 98; 
; either pinky or ring attached duration6,156936; 
; maximal force reached during grab; 98,75; 
; grasp quality score; 2,5; 6,18985; 
\debugText{didn't start with an initially low force (68,3075)
could reach full force
weaker/secondary fingers were attached for more than 60% of the time (99,46826%)
}
220,1137; Grabbed; 17 Soup; 
220,4049; Average force at grab start; 79,28929; 0,3; 
221,5287; Released; 17 Soup;  1,414993;
; Full force reached duration; 0; 98; 
; either pinky or ring attached duration1,257768; 
; maximal force reached during grab; 90,15; 
; grasp quality score; 1,5; 1,436844; 
\debugText{didn't start with an initially low force (79,28929)
weaker/secondary fingers were attached for more than 60% of the time (87,53688%)
}
223,4426; Grabbed; 17 Soup; 
223,7547; Average force at grab start; 81,4375; 0,3; 
228,6917; Released; 17 Soup;  5,249115;
; Full force reached duration; 4,29393; 98; 
; either pinky or ring attached duration5,251606; 
; maximal force reached during grab; 100; 
; grasp quality score; 5; 5,255859; 
\debugText{didn't start with an initially low force (81,4375)
could reach full force
could reach full force for more than 300ms (exactly 0,0429393ms)
more than 10% of the time full force was reached (81,69796%)
weaker/secondary fingers were attached for more than 60% of the time (99,91907%)
}
230,0041; Grabbed; 17 Soup; 
230,3113; Average force at grab start; 51,71; 0,3; 
231,4921; Released; 17 Soup;  1,488037;
; Full force reached duration; 0,01111111; 98; 
; either pinky or ring attached duration0; 
; maximal force reached during grab; 100; 
; grasp quality score; 2; 1,489456; 
\debugText{didn't start with an initially low force (51,71)
could reach full force
}
233,3588; Grabbed; 17 Soup; 
233,6681; Average force at grab start; 77,35667; 0,3; 
234,9805; Released; 17 Soup;  1,621719;
; Full force reached duration; 0,044709; 98; 
; either pinky or ring attached duration1,622009; 
; maximal force reached during grab; 98,15; 
; grasp quality score; 2,5; 1,633774; 
\debugText{didn't start with an initially low force (77,35667)
could reach full force
weaker/secondary fingers were attached for more than 60% of the time (99,27988%)
}
235,6896; Successful Placement; 17 Soup; 0,005573135; 11,57676; 29,4771; 6; 18,065; 0; 18,065; 216,9155; 11,41209; 3,083333;
237,8481; Grabbed; 18 Soup; 
238,1636; Average force at grab start; 79,39555; 0,3; 
240,9809; Released; 18 Soup;  3,132721;
; Full force reached duration; 2,288038; 98; 
; either pinky or ring attached duration3,144141; 
; maximal force reached during grab; 100; 
; grasp quality score; 5; 3,14447; 
\debugText{didn't start with an initially low force (79,39555)
could reach full force
could reach full force for more than 300ms (exactly 0,02288038ms)
more than 10% of the time full force was reached (72,76386%)
weaker/secondary fingers were attached for more than 60% of the time (99,98954%)
}
243,1807; Successful Placement; 18 Soup; 0,005894044; 18,65185; 6,990524; 1; 3,132721; 0; 3,132721; 237,8481; 3,857803; 5;
243,1814;Task finishedA ;Fixed;
1315,064; Task changed; B ;Binary;
