QuestionType;Question;QuestionID;Answer_Participant_p1_condition_A_Then_B_True_bin_Then_fix_True_ThisCond_Bin;Answer_Participant_p1_condition_A_Then_B_True_bin_Then_fix_True_ThisCond_Fix;Answer_Participant_p2_condition_A_Then_B_False_bin_Then_fix_False_ThisCond_Fix;Answer_Participant_p2_condition_A_Then_B_False_bin_Then_fix_False_ThisCond_Bin;Answer_Participant_p3_condition_A_Then_B_False_bin_Then_fix_True_ThisCond_Bin;Answer_Participant_p3_condition_A_Then_B_False_bin_Then_fix_True_ThisCond_Fix;Answer_Participant_p4_condition_A_Then_B_True_bin_Then_fix_False_ThisCond_Fix;Answer_Participant_p4_condition_A_Then_B_True_bin_Then_fix_False_ThisCond_Bin;Answer_Participant_p5_condition_A_Then_B_True_bin_Then_fix_True_ThisCond_Bin;Answer_Participant_p5_condition_A_Then_B_True_bin_Then_fix_True_ThisCond_Fix;Answer_Participant_p6_condition_A_Then_B_False_bin_Then_fix_False_ThisCond_Fix;Answer_Participant_p6_condition_A_Then_B_False_bin_Then_fix_False_ThisCond_Bin;Answer_Participant_p7_condition_A_Then_B_False_bin_Then_fix_True_ThisCond_Bin;Answer_Participant_p7_condition_A_Then_B_False_bin_Then_fix_True_ThisCond_Fix;Answer_Participant_p8_condition_A_Then_B_True_bin_Then_fix_False_ThisCond_Fix;Answer_Participant_p8_condition_A_Then_B_True_bin_Then_fix_False_ThisCond_Bin;Answer_Participant_p9_condition_A_Then_B_True_bin_Then_fix_True_ThisCond_Bin;Answer_Participant_p9_condition_A_Then_B_True_bin_Then_fix_True_ThisCond_Fix;Answer_Participant_p10_condition_A_Then_B_False_bin_Then_fix_False_ThisCond_Fix;Answer_Participant_p10_condition_A_Then_B_False_bin_Then_fix_False_ThisCond_Bin;Answer_Participant_p11_condition_A_Then_B_False_bin_Then_fix_True_ThisCond_Bin;Answer_Participant_p11_condition_A_Then_B_False_bin_Then_fix_True_ThisCond_Fix;Answer_Participant_p12_condition_A_Then_B_True_bin_Then_fix_False_ThisCond_Fix;Answer_Participant_p12_condition_A_Then_B_True_bin_Then_fix_False_ThisCond_Bin;Answer_Participant_p13_condition_A_Then_B_True_bin_Then_fix_True_ThisCond_Bin;Answer_Participant_p13_condition_A_Then_B_True_bin_Then_fix_True_ThisCond_Fix;Answer_Participant_p14_condition_A_Then_B_False_bin_Then_fix_False_ThisCond_Fix;Answer_Participant_p14_condition_A_Then_B_False_bin_Then_fix_False_ThisCond_Bin;Answer_Participant_p15_condition_A_Then_B_False_bin_Then_fix_True_ThisCond_Bin;Answer_Participant_p15_condition_A_Then_B_False_bin_Then_fix_True_ThisCond_Fix;Answer_Participant_p16_condition_A_Then_B_True_bin_Then_fix_False_ThisCond_Fix;Answer_Participant_p16_condition_A_Then_B_True_bin_Then_fix_False_ThisCond_Bin;Answer_Participant_p17_condition_A_Then_B_True_bin_Then_fix_True_ThisCond_Bin;Answer_Participant_p17_condition_A_Then_B_True_bin_Then_fix_True_ThisCond_Fix;Answer_Participant_p18_condition_A_Then_B_False_bin_Then_fix_False_ThisCond_Fix;Answer_Participant_p18_condition_A_Then_B_False_bin_Then_fix_False_ThisCond_Bin;Answer_Participant_p19_condition_A_Then_B_False_bin_Then_fix_True_ThisCond_Bin;Answer_Participant_p19_condition_A_Then_B_False_bin_Then_fix_True_ThisCond_Fix;Answer_Participant_p20_condition_A_Then_B_True_bin_Then_fix_False_ThisCond_Fix;Answer_Participant_p20_condition_A_Then_B_True_bin_Then_fix_False_ThisCond_Bin;Answer_Participant_p21_condition_A_Then_B_True_bin_Then_fix_True_ThisCond_Bin;Answer_Participant_p21_condition_A_Then_B_True_bin_Then_fix_True_ThisCond_Fix;Answer_Participant_p22_condition_A_Then_B_True_bin_Then_fix_False_ThisCond_Fix;Answer_Participant_p22_condition_A_Then_B_True_bin_Then_fix_False_ThisCond_Bin;Answer_Participant_p23_condition_A_Then_B_False_bin_Then_fix_True_ThisCond_Bin;Answer_Participant_p23_condition_A_Then_B_False_bin_Then_fix_True_ThisCond_Fix
radio;1. How much were you able to control events?;q1;5;6;5;4;4;5;4;3;4;5;6;6;5;6;5;6;5;5;5;5;5;5;5;5;7;7;5;2;6;6;5;5;5;5;6;4;2;5;7;3;5;5;6;6;4;3
radio;2. How responsive was the environment to actions that you initiated (or performed)?;q2;5;7;5;3;4;5;5;6;6;4;6;6;5;5;5;6;3;5;6;6;4;5;4;5;5;6;4;2;7;6;5;6;5;5;5;4;4;6;4;6;5;6;5;6;4;2
radio;3. How natural did your interactions with the environment seem?;q3;3;5;4;3;3;4;4;3;4;5;4;5;6;6;6;6;2;3;5;5;4;4;3;3;6;6;2;1;6;6;3;5;4;3;4;3;4;2;3;2;4;3;3;2;3;3
radio;4. How completely were all of your senses engaged?;q4;5;5;4;5;3;3;5;5;3;3;4;4;6;3;5;5;2;3;4;5;4;4;2;5;4;4;2;3;6;5;5;5;1;1;5;3;2;4;6;6;3;3;5;2;4;4
radio;5. How much did the visual aspects of the environment involve you?;q5;6;5;6;6;5;4;4;7;5;5;6;6;6;7;4;5;5;4;5;6;6;5;5;4;6;6;5;6;7;6;6;6;7;6;3;5;7;6;7;6;6;6;4;6;4;4
radio;6. How natural was the mechanism which controlled movement through the environment?;q6;4;7;5;5;3;4;7;7;3;6;3;4;6;5;6;5;2;4;6;4;3;4;4;4;6;6;3;5;6;5;3;6;6;3;6;5;6;1;5;3;3;4;7;5;2;2
radio;7. How aware were you of events occurring in the real world around you?;q7;2;3;1;3;2;3;1;3;4;4;2;2;2;2;2;4;1;2;1;1;2;2;2;2;1;1;2;3;1;1;2;2;4;3;2;2;2;6;4;1;5;4;2;1;2;2
radio;8. How aware were you of your display and control devices?;q8;7;7;4;4;5;6;4;5;6;6;5;5;6;6;6;6;5;5;3;3;5;3;7;4;1;2;5;5;3;3;3;4;7;6;2;2;7;6;7;6;6;6;6;5;5;5
radio;9. How compelling was your sense of objects moving through space?;q9;6;7;5;3;4;3;4;4;3;5;7;4;6;6;5;5;2;4;6;6;5;5;4;5;6;6;3;3;6;5;3;6;5;5;7;6;4;4;7;4;3;4;7;5;3;4
radio;10. How inconsistent or disconnected was the information coming from your various senses?;q10;5;3;3;5;4;3;3;5;3;3;3;4;4;5;5;4;3;4;3;3;3;3;5;5;1;2;5;5;5;5;2;2;5;2;7;3;7;6;5;2;2;4;3;3;4;5
radio;11. How much did your experiences in the virtual environment seem consistent with your real-world experiences?;q11;3;3;5;4;3;3;3;4;3;5;5;3;5;5;4;4;3;2;6;5;5;5;2;3;6;6;2;2;6;5;5;4;2;3;6;5;3;2;6;7;3;3;5;3;3;3
radio;12. Were you able to anticipate what would happen next in response to the actions that you performed?;q12;6;7;5;5;4;4;4;4;4;6;6;6;6;6;6;6;5;5;6;6;5;5;5;5;6;6;5;3;6;5;6;5;5;5;7;6;3;2;7;7;6;6;5;6;5;4
radio;13. How completely were you able to actively survey or search the environment using vision?;q13;6;7;5;7;3;3;7;7;4;5;6;6;7;7;6;6;7;6;7;7;7;6;6;6;7;6;6;6;5;6;2;6;6;5;7;6;7;6;7;7;5;5;6;6;5;6
radio;14. How well could you actively survey or search the virtual environment using touch?;q14;3;5;4;5;3;3;4;3;4;5;3;3;5;5;5;6;3;4;5;6;5;5;3;4;6;6;5;5;5;6;4;5;5;5;2;3;1;2;7;7;3;5;4;1;4;4
radio;15. How compelling was your sense of moving around inside the virtual environment?;q15;4;7;5;3;3;4;7;7;3;5;7;7;7;7;6;6;3;4;7;7;7;6;5;5;6;6;6;6;5;5;6;6;5;6;7;6;7;6;7;7;4;5;7;6;5;6
radio;16. How closely were you able to examine objects?;q16;5;6;6;6;4;4;6;5;4;5;5;6;6;6;5;6;5;5;7;6;5;5;5;5;6;6;6;5;5;6;6;6;5;3;7;5;6;6;6;6;6;6;6;6;6;3
radio;17. How well could you examine objects from multiple viewpoints?;q17;7;7;5;6;3;4;5;3;5;4;7;7;7;6;6;6;6;6;7;6;6;5;5;6;6;6;5;5;6;5;6;6;5;3;7;6;6;6;6;6;6;6;7;6;5;2
radio;18. How well could you move or manipulate objects in the virtual environment?;q18;7;7;5;5;3;5;3;3;6;6;5;6;5;6;6;6;5;5;6;6;4;5;4;5;5;7;4;3;6;5;6;5;6;5;6;6;3;5;2;2;3;3;6;6;4;3
radio;19. To what degree did you feel confused or disoriented at the beginning of breaks or at the end of the experimental session?;q19;1;2;3;2;3;2;1;1;3;4;1;1;1;3;4;4;4;2;2;1;2;2;2;2;1;1;5;4;4;4;2;2;2;2;1;2;1;1;1;1;2;2;1;3;2;4
radio;20. How involved were you in the virtual environment experience?;q20;7;7;5;6;5;5;6;6;5;6;6;7;6;6;5;6;6;4;7;7;6;5;5;6;6;6;5;5;7;6;6;6;6;6;7;6;7;7;6;7;6;4;5;5;5;4
radio;21. How distracting was the control mechanism?;q21;2;2;2;3;5;2;5;5;4;3;4;5;3;3;3;2;4;3;4;5;2;2;5;6;6;1;5;4;3;3;2;3;5;5;1;2;6;1;3;5;2;3;2;1;3;5
radio;22. How much delay did you experience between your actions and expected outcomes?;q22;2;2;2;2;5;5;1;1;4;5;2;1;2;3;2;2;2;2;2;2;2;2;2;2;1;3;3;5;4;2;2;2;4;4;7;2;1;1;1;1;2;1;1;2;3;4
radio;23. How quickly did you adjust to the virtual environment experience?;q23;7;6;6;5;6;6;6;7;6;5;6;7;5;5;5;6;4;5;7;7;6;6;5;6;6;6;6;6;5;5;6;6;6;5;6;5;6;6;7;6;6;6;7;6;5;4
radio;24. How proficient in moving and interacting with the virtual environment did you feel at the end of the experience?;q24;5;7;6;5;5;6;5;4;6;6;6;5;6;6;5;6;5;6;7;6;6;5;6;5;7;6;5;2;4;5;6;6;6;5;7;6;1;5;7;6;5;5;6;6;4;3
radio;25. How much did the visual display quality interfere or distract you from performing assigned tasks or required activities?;q25;2;2;3;2;5;5;1;1;2;3;2;1;3;4;2;2;3;4;2;1;2;2;1;1;2;1;3;2;2;2;1;4;2;5;1;1;1;1;1;1;1;2;4;5;5;4
radio;26. How much did the control devices interfere with the performance of assigned tasks or with other activities?;q26;3;6;5;4;4;6;3;3;3;4;5;4;5;5;6;2;2;4;2;5;2;2;5;5;2;5;3;3;3;3;2;2;5;5;1;1;1;4;4;5;2;4;2;2;4;5
radio;27. How well could you concentrate on the assigned tasks or required activities rather than on the mechanisms used to perform those tasks or activities?;q27;7;6;5;5;4;6;3;2;4;4;5;4;6;6;6;6;4;5;6;6;6;6;3;3;6;7;6;3;5;6;6;6;4;5;7;6;7;7;7;7;5;6;6;7;6;3
radio;28. Did you learn new techniques that enabled you to improve your performance?;q28;6;5;4;5;5;6;5;5;5;4;3;5;6;6;6;6;6;6;6;6;5;5;5;3;6;6;6;7;6;5;5;6;6;6;5;4;2;4;7;6;5;2;3;2;5;3
radio;29. Were you involved in the experimental task to the extent that you lost track of time?;q29;2;2;2;3;5;5;4;4;2;2;5;5;6;5;2;2;3;2;7;7;3;6;1;1;2;1;1;1;6;5;6;6;5;5;6;5;1;1;4;7;4;4;2;2;5;3

