QuestionType;Question;QuestionID;Answer
radio;Compared to the real world, how PRECISELY could you place objects in the demanded location and orientation?;c1;6
radio;Compared to the real world, how FAST could you place objects in the demanded location and orientation?;c2;3
radio;I was aware of how tight I was gripping the items.;c3;5
radio;I could develop a sense on how tight I was gripping the items.;c4;6
radio;I could move and rotate the items as I expected.;c5;6

