QuestionType;Question;QuestionID;Answer
linearGrid;Mental Demand:				How mentally demanding was the task?;g1;7
linearGrid;Physical Demand:				How physically demanding was the task?;g2;12
linearGrid;Temporal Demand:		How hurried or rushed was the pace of the task?;g3;10
linearGrid;Performance:  How succesfull were you in accomplishing what you were asked to do?;g4;14
linearGrid;Effort:  How hard did you have to work to accomplish your level of performance?;g5;9
linearGrid;Frustration:  How insecure, discouraged, irritated, stressed, and annoyed were you?;g6;3

