QuestionType;Question;QuestionID;Answer
radio;1. How much were you able to control events?;q1;5
radio;2. How responsive was the environment to actions that you initiated (or performed)?;q2;4
radio;3. How natural did your interactions with the environment seem?;q3;4
radio;4. How completely were all of your senses engaged?;q4;4
radio;5. How much did the visual aspects of the environment involve you?;q5;6
radio;6. How natural was the mechanism which controlled movement through the environment?;q6;3
radio;7. How aware were you of events occurring in the real world around you?;q7;2
radio;8. How aware were you of your display and control devices?;q8;5
radio;9. How compelling was your sense of objects moving through space?;q9;5
radio;10. How inconsistent or disconnected was the information coming from your various senses?;q10;3
radio;11. How much did your experiences in the virtual environment seem consistent with your real-world experiences?;q11;5
radio;12. Were you able to anticipate what would happen next in response to the actions that you performed?;q12;5
radio;13. How completely were you able to actively survey or search the environment using vision?;q13;7
radio;14. How well could you actively survey or search the virtual environment using touch?;q14;5
radio;15. How compelling was your sense of moving around inside the virtual environment?;q15;7
radio;16. How closely were you able to examine objects?;q16;5
radio;17. How well could you examine objects from multiple viewpoints?;q17;6
radio;18. How well could you move or manipulate objects in the virtual environment?;q18;4
radio;19. To what degree did you feel confused or disoriented at the beginning of breaks or at the end of the experimental session?;q19;2
radio;20. How involved were you in the virtual environment experience?;q20;6
radio;21. How distracting was the control mechanism?;q21;2
radio;22. How much delay did you experience between your actions and expected outcomes?;q22;2
radio;23. How quickly did you adjust to the virtual environment experience?;q23;6
radio;24. How proficient in moving and interacting with the virtual environment did you feel at the end of the experience?;q24;6
radio;25. How much did the visual display quality interfere or distract you from performing assigned tasks or required activities?;q25;2
radio;26. How much did the control devices interfere with the performance of assigned tasks or with other activities?;q26;2
radio;27. How well could you concentrate on the assigned tasks or required activities rather than on the mechanisms used to perform those tasks or activities?;q27;6
radio;28. Did you learn new techniques that enabled you to improve your performance?;q28;5
radio;29. Were you involved in the experimental task to the extent that you lost track of time?;q29;3

