87,72791; Grabbed; Soup (5); 0,6293154; Goal Soup (B);
88,03369; Average force at grab start; 46,85333; 0,3; 
114,8149; Released; Soup (5); 0,4425929; Goal Soup (B); 27,08698;
; Full force reached duration; 10,22199; 98; 
; either pinky or ring attached duration26,09356; 
; maximal force reached during grab; 100; 
; grasp quality score; 5; 27,10052; 
\debugText{didn't start with an initially low force (46,85333)
could reach full force
could reach full force for more than 300ms (exactly 0,1022199ms)
more than 10% of the time full force was reached (37,7188%)
weaker/secondary fingers were attached for more than 60% of the time (96,28432%)
}
120,1017; Grabbed; Soup (5); 0,5820336; Goal Soup (B);
120,4101; Average force at grab start; 27,85667; 0,3; 
121,7909; Released; Soup (5); 0,6505817; Goal Soup (B); 1,689171;
; Full force reached duration; 0,01111111; 98; 
; either pinky or ring attached duration1,382594; 
; maximal force reached during grab; 100; 
; grasp quality score; 1,5; 1,699997; 
\debugText{could reach full force
weaker/secondary fingers were attached for more than 60% of the time (81,32922%)
}
141,035; Grabbed; Book (5); 0,7901661; Goal Book;
141,3445; Average force at grab start; 23,27175; 0,3; 
145,7677; Released; Book (5); 0,9326358; Goal Book; 4,732712;
; Full force reached duration; 0; 98; 
; either pinky or ring attached duration4,722342; 
; maximal force reached during grab; 54,8; 
; grasp quality score; 0,5; 4,744019; 
\debugText{weaker/secondary fingers were attached for more than 60% of the time (99,54308%)
}
149,3011; Grabbed; Book (5); 0,9084796; Goal Book;
149,5898; Average force at grab start; 78,97143; 0,3; 
150,9684; Released; Book (5); 0,88392; Goal Book; 1,667328;
; Full force reached duration; 1,40013; 98; 
; either pinky or ring attached duration1,235409; 
; maximal force reached during grab; 100; 
; grasp quality score; 5; 1,689117; 
\debugText{didn't start with an initially low force (78,97143)
could reach full force
could reach full force for more than 300ms (exactly 0,0140013ms)
more than 10% of the time full force was reached (82,89122%)
weaker/secondary fingers were attached for more than 60% of the time (73,13933%)
}
157,5913; Grabbed; Milk (5); 0,8501998; Goal Milk;
157,9002; Average force at grab start; 22,64369; 0,3; 
161,3901; Released; Milk (5); 1,108868; Goal Milk; 3,798737;
; Full force reached duration; 0; 98; 
; either pinky or ring attached duration3,55039; 
; maximal force reached during grab; 56,05; 
; grasp quality score; 0,5; 3,81044; 
\debugText{weaker/secondary fingers were attached for more than 60% of the time (93,17533%)
}
164,8801; Grabbed; Milk (5); 1,103707; Goal Milk;
165,1887; Average force at grab start; 40,37; 0,3; 
197,833; Released; Milk (5); 0,01051022; Goal Milk; 32,95291;
; Full force reached duration; 0; 98; 
; either pinky or ring attached duration32,70494; 
; maximal force reached during grab; 76,45; 
; grasp quality score; 1,5; 32,96487; 
\debugText{didn't start with an initially low force (40,37)
weaker/secondary fingers were attached for more than 60% of the time (99,21147%)
}
198,3875; Successful Placement; Milk (5); 0,01005113; 1,043792; 197,8869; 6; 71,92784; 0; 71,92784; 125,9052; 125,9591; 2,333333;
210,388; Grabbed; Milk (4); 0,376712; Goal Milk;
210,6739; Average force at grab start; 3,097023; 0,3; 
249,9855; Released; Milk (4); 0,4760292; Goal Milk; 39,59746;
; Full force reached duration; 0; 98; 
; either pinky or ring attached duration39,48146; 
; maximal force reached during grab; 83,75; 
; grasp quality score; 0,5; 39,61728; 
\debugText{weaker/secondary fingers were attached for more than 60% of the time (99,65717%)
}
252,1431; Grabbed; Milk (4); 0,4740654; Goal Milk;
252,4538; Average force at grab start; 23,00333; 0,3; 
287,4306; Released; Milk (4); 0,4070353; Goal Milk; 35,28751;
; Full force reached duration; 6,312452; 98; 
; either pinky or ring attached duration35,15833; 
; maximal force reached during grab; 99,4; 
; grasp quality score; 4; 35,29558; 
\debugText{could reach full force
could reach full force for more than 300ms (exactly 0,06312452ms)
more than 10% of the time full force was reached (17,88454%)
weaker/secondary fingers were attached for more than 60% of the time (99,61115%)
}
291,0977; Grabbed; Milk (4); 0,5155753; Goal Milk;
291,4071; Average force at grab start; 28,89333; 0,3; 
292,9868; Released; Milk (4); 0,4928347; Goal Milk; 1,88916;
; Full force reached duration; 0; 98; 
; either pinky or ring attached duration1,784505; 
; maximal force reached during grab; 50,85; 
; grasp quality score; 0,5; 1,89621; 
\debugText{weaker/secondary fingers were attached for more than 60% of the time (94,10904%)
}
294,631; Grabbed; Milk (4); 0,4987821; Goal Milk;
294,9392; Average force at grab start; 31,73667; 0,3; 
299,8301; Released; Milk (4); 0,5070615; Goal Milk; 5,199158;
; Full force reached duration; 0; 98; 
; either pinky or ring attached duration5,154929; 
; maximal force reached during grab; 47,25; 
; grasp quality score; 1,5; 5,206482; 
\debugText{didn't start with an initially low force (31,73667)
weaker/secondary fingers were attached for more than 60% of the time (99,00983%)
}
301,409; Grabbed; Milk (4); 0,521391; Goal Milk;
301,7151; Average force at grab start; 10,33; 0,3; 
303,6296; Released; Milk (4); 0,4892169; Goal Milk; 2,220612;
; Full force reached duration; 0; 98; 
; either pinky or ring attached duration0,01111111; 
; maximal force reached during grab; 44,1; 
; grasp quality score; 0; 2,228333; 
\debugText{}
305,2963; Grabbed; Milk (4); 0,5080656; Goal Milk;
305,5865; Average force at grab start; 34,84643; 0,3; 
307,1851; Released; Milk (4); 0,6066858; Goal Milk; 1,888824;
; Full force reached duration; 0; 98; 
; either pinky or ring attached duration0,01111111; 
; maximal force reached during grab; 69,75; 
; grasp quality score; 1; 1,905975; 
\debugText{didn't start with an initially low force (34,84643)
}
308,1181; Grabbed; Milk (4); 0,6116519; Goal Milk;
308,4263; Average force at grab start; 11,92667; 0,3; 
310,2719; Released; Milk (4); 0,6247339; Goal Milk; 2,153778;
; Full force reached duration; 0; 98; 
; either pinky or ring attached duration1,970605; 
; maximal force reached during grab; 30,95; 
; grasp quality score; 0,5; 2,159302; 
\debugText{weaker/secondary fingers were attached for more than 60% of the time (91,26123%)
}
348,8742; Task changed; B ;Fixed;
359,4061; Grabbed; 7 Milk ; 0,4462713; Goal Milk;
359,7146; Average force at grab start; 14,22861; 0,3; 
363,8057; Released; 7 Milk ; 0,07184196; Goal Milk; 4,399628;
; Full force reached duration; 0; 98; 
; either pinky or ring attached duration4,057771; 
; maximal force reached during grab; 79,45; 
; grasp quality score; 0,5; 4,415222; 
\debugText{weaker/secondary fingers were attached for more than 60% of the time (91,90412%)
}
365,5626; Grabbed; 7 Milk ; 0,05569301; Goal Milk;
365,8743; Average force at grab start; 62,15334; 0,3; 
367,4278; Released; 7 Milk ; 0,008653388; Goal Milk; 1,865173;
; Full force reached duration; 0; 98; 
; either pinky or ring attached duration1,577073; 
; maximal force reached during grab; 87,95; 
; grasp quality score; 1,5; 1,870605; 
\debugText{didn't start with an initially low force (62,15334)
weaker/secondary fingers were attached for more than 60% of the time (84,30817%)
}
368,0264; Successful Placement; 7 Milk ; 0,007781253; 8,116122; 169,1379; 9; 94,5013; 46,31535; 48,18594; 272,9265; 74,63658; 1,111111;
373,6281; Grabbed; 1 Book; 0,5000151; Goal Book;
373,9406; Average force at grab start; 39,32995; 0,3; 
379,6719; Released; 1 Book; 0,006686313; Goal Book; 6,043793;
; Full force reached duration; 0; 98; 
; either pinky or ring attached duration5,766286; 
; maximal force reached during grab; 79,15; 
; grasp quality score; 1,5; 6,048126; 
\debugText{didn't start with an initially low force (39,32995)
weaker/secondary fingers were attached for more than 60% of the time (95,34005%)
}
380,269; Successful Placement; 1 Book; 0,01121055; 5,966419; 11,74191; 1; 6,043793; 0; 6,043793; 373,6281; 5,69812; 1,5;
384,4514; Grabbed; 12 Soup; 0,5770805; Goal Soup (B);
384,7589; Average force at grab start; 56,0626; 0,3; 
390,4271; Released; 12 Soup; 0,1953839; Goal Soup (B); 5,975739;
; Full force reached duration; 4,29074; 98; 
; either pinky or ring attached duration5,844337; 
; maximal force reached during grab; 100; 
; grasp quality score; 5; 5,980804; 
\debugText{didn't start with an initially low force (56,0626)
could reach full force
could reach full force for more than 300ms (exactly 0,04290741ms)
more than 10% of the time full force was reached (71,74186%)
weaker/secondary fingers were attached for more than 60% of the time (97,71825%)
}
392,8939; Grabbed; 12 Soup; 0,4510188; Goal Soup (B);
393,183; Average force at grab start; 71,64642; 0,3; 
394,2054; Released; 12 Soup; 0,4418905; Goal Soup (B); 1,311523;
; Full force reached duration; 0; 98; 
; either pinky or ring attached duration0,01111111; 
; maximal force reached during grab; 96,3; 
; grasp quality score; 1; 1,32605; 
\debugText{didn't start with an initially low force (71,64642)
}
396,8486; Grabbed; 12 Soup; 0,4420581; Goal Soup (B);
397,1398; Average force at grab start; 55,55715; 0,3; 
402,5375; Released; 12 Soup; 0,03484131; Goal Soup (B); 5,688965;
; Full force reached duration; 2,400331; 98; 
; either pinky or ring attached duration5,688867; 
; maximal force reached during grab; 100; 
; grasp quality score; 5; 5,702698; 
\debugText{didn't start with an initially low force (55,55715)
could reach full force
could reach full force for more than 300ms (exactly 0,02400332ms)
more than 10% of the time full force was reached (42,09116%)
weaker/secondary fingers were attached for more than 60% of the time (99,75746%)
}
403,6931; Grabbed; 12 Soup; 0,03260079; Goal Soup (B);
403,9811; Average force at grab start; 75,11786; 0,3; 
405,005; Released; 12 Soup; 0,02359819; Goal Soup (B); 1,311859;
; Full force reached duration; 0,8913817; 98; 
; either pinky or ring attached duration1,32327; 
; maximal force reached during grab; 100; 
; grasp quality score; 5; 1,325623; 
\debugText{didn't start with an initially low force (75,11786)
could reach full force
could reach full force for more than 300ms (exactly 0,008913818ms)
more than 10% of the time full force was reached (67,2425%)
weaker/secondary fingers were attached for more than 60% of the time (99,82251%)
}
406,3152; Grabbed; 12 Soup; 0,01895602; Goal Soup (B);
406,6057; Average force at grab start; 56,56072; 0,3; 
408,8496; Released; 12 Soup; 0,008897678; Goal Soup (B); 2,534393;
; Full force reached duration; 0,01111111; 98; 
; either pinky or ring attached duration2,544002; 
; maximal force reached during grab; 100; 
; grasp quality score; 2,5; 2,547974; 
\debugText{didn't start with an initially low force (56,56072)
could reach full force
weaker/secondary fingers were attached for more than 60% of the time (99,84414%)
}
409,7597; Grabbed; 12 Soup; 0,0125511; Goal Soup (B);
410,0508; Average force at grab start; 61,26786; 0,3; 
411,3375; Released; 12 Soup; 0,00275034; Goal Soup (B); 1,577759;
; Full force reached duration; 0; 98; 
; either pinky or ring attached duration1,588872; 
; maximal force reached during grab; 85,05; 
; grasp quality score; 1,5; 1,591797; 
\debugText{didn't start with an initially low force (61,26786)
weaker/secondary fingers were attached for more than 60% of the time (99,81628%)
}
413,516; Grabbed; 12 Soup; 0,005036385; Goal Soup (B);
413,8066; Average force at grab start; 84,70714; 0,3; 
415,7601; Released; 12 Soup; 0,006158965; Goal Soup (B); 2,244141;
; Full force reached duration; 0; 98; 
; either pinky or ring attached duration0,266562; 
; maximal force reached during grab; 94,05; 
; grasp quality score; 1; 2,258514; 
\debugText{didn't start with an initially low force (84,70714)
}
416,4503; Successful Placement; 12 Soup; 0,008966932; 2,388387; 35,68063; 7; 20,64438; 0; 20,64438; 395,1157; 15,03625; 3;
420,6482; Grabbed; 8 Milk ; 0,4872003; Goal Milk;
420,9568; Average force at grab start; 12,94806; 0,3; 
425,4479; Released; 8 Milk ; 0,004685604; Goal Milk; 4,799774;
; Full force reached duration; 0; 98; 
; either pinky or ring attached duration4,765795; 
; maximal force reached during grab; 76,2; 
; grasp quality score; 0,5; 4,813202; 
\debugText{weaker/secondary fingers were attached for more than 60% of the time (99,01507%)
}
426,049; Successful Placement; 8 Milk ; 0,002533695; 0,5609267; 9,0979; 1; 4,799774; 0; 4,799774; 420,6482; 4,298126; 0,5;
434,8704; Grabbed; 11 Soup; 0,534657; Goal Soup (B);
435,1606; Average force at grab start; 77,29166; 0,3; 
439,004; Released; 11 Soup; 0,00606254; Goal Soup (B); 4,133575;
; Full force reached duration; 3,977081; 98; 
; either pinky or ring attached duration4,144297; 
; maximal force reached during grab; 100; 
; grasp quality score; 5; 4,146729; 
\debugText{didn't start with an initially low force (77,29166)
could reach full force
could reach full force for more than 300ms (exactly 0,03977081ms)
more than 10% of the time full force was reached (95,90888%)
weaker/secondary fingers were attached for more than 60% of the time (99,94135%)
}
441,559; Grabbed; 11 Soup; 0,002549791; Goal Soup (B);
441,8484; Average force at grab start; 100; 0,3; 
444,293; Released; 11 Soup; 0,005986922; Goal Soup (B); 2,734009;
; Full force reached duration; 2,344516; 98; 
; either pinky or ring attached duration0,5087873; 
; maximal force reached during grab; 100; 
; grasp quality score; 4,5; 2,746399; 
\debugText{didn't start with an initially low force (100)
could reach full force
could reach full force for more than 300ms (exactly 0,02344516ms)
more than 10% of the time full force was reached (85,3669%)
}
444,8891; Successful Placement; 11 Soup; 0,007084243; 19,88202; 18,33948; 2; 6,867584; 0; 6,867584; 437,4254; 11,47189; 4,75;
456,5368; Grabbed; 4 Book; 0,4365499; Goal Book;
456,8265; Average force at grab start; 91,95177; 0,3; 
460,0033; Released; 4 Book; 0,4907344; Goal Book; 3,466492;
; Full force reached duration; 3,244559; 98; 
; either pinky or ring attached duration3,433384; 
; maximal force reached during grab; 100; 
; grasp quality score; 5; 3,479645; 
\debugText{didn't start with an initially low force (91,95177)
could reach full force
could reach full force for more than 300ms (exactly 0,03244559ms)
more than 10% of the time full force was reached (93,24396%)
weaker/secondary fingers were attached for more than 60% of the time (98,67053%)
}
463,847; Grabbed; 4 Book; 0,4933763; Goal Book;
464,1579; Average force at grab start; 100; 0,3; 
470,158; Released; 4 Book; 0,02169632; Goal Book; 6,311005;
; Full force reached duration; 6,32232; 98; 
; either pinky or ring attached duration0,01111111; 
; maximal force reached during grab; 100; 
; grasp quality score; 4,5; 6,323242; 
\debugText{didn't start with an initially low force (100)
could reach full force
could reach full force for more than 300ms (exactly 0,0632232ms)
more than 10% of the time full force was reached (99,98541%)
}
470,9826; Successful Placement; 4 Book; 0,04010001; 3,346552; 25,59293; 2; 9,777496; 0; 9,777496; 460,3805; 15,81543; 4,75;
476,5797; Grabbed; 9 Soup; 0,4909547; Goal Soup (B);
476,8711; Average force at grab start; 87,36102; 0,3; 
481,8687; Released; 9 Soup; 0,007343759; Goal Soup (B); 5,289001;
; Full force reached duration; 4,955093; 98; 
; either pinky or ring attached duration5,299856; 
; maximal force reached during grab; 100; 
; grasp quality score; 5; 5,300568; 
\debugText{didn't start with an initially low force (87,36102)
could reach full force
could reach full force for more than 300ms (exactly 0,04955093ms)
more than 10% of the time full force was reached (93,48231%)
weaker/secondary fingers were attached for more than 60% of the time (99,98658%)
}
482,8237; Successful Placement; 9 Soup; 0,02478608; 8,131551; 11,34048; 1; 5,289001; 0; 5,289001; 476,5797; 6,051483; 5;
489,7583; Grabbed; 6 Milk ; 0,5187882; Goal Milk;
490,0701; Average force at grab start; 52,20868; 0,3; 
496,7577; Released; 6 Milk ; 0,1648663; Goal Milk; 6,999451;
; Full force reached duration; 0; 98; 
; either pinky or ring attached duration6,966216; 
; maximal force reached during grab; 88,05; 
; grasp quality score; 1,5; 7,000549; 
\debugText{didn't start with an initially low force (52,20868)
weaker/secondary fingers were attached for more than 60% of the time (99,50957%)
}
499,2692; Grabbed; 6 Milk ; 0,166846; Goal Milk;
499,5811; Average force at grab start; 59,38333; 0,3; 
501,2683; Released; 6 Milk ; 0,2324349; Goal Milk; 1,999115;
; Full force reached duration; 0; 98; 
; either pinky or ring attached duration1,055019; 
; maximal force reached during grab; 83,75; 
; grasp quality score; 1; 2,000153; 
\debugText{didn't start with an initially low force (59,38333)
}
503,0699; Grabbed; 6 Milk ; 0,2282226; Goal Milk;
503,3788; Average force at grab start; 52,88667; 0,3; 
505,7977; Released; 6 Milk ; 0,003677436; Goal Milk; 2,727783;
; Full force reached duration; 0; 98; 
; either pinky or ring attached duration1,554591; 
; maximal force reached during grab; 88,65; 
; grasp quality score; 1; 2,740295; 
\debugText{didn't start with an initially low force (52,88667)
}
506,4224; Successful Placement; 6 Milk ; 0,006654372; 1,09788; 23,09796; 3; 11,72635; 0; 11,72635; 494,0713; 11,37161; 1,166667;
510,5794; Grabbed; 2 Book; 0,3747106; Goal Book;
510,8879; Average force at grab start; 82,02584; 0,3; 
513,3125; Released; 2 Book; 0,3822099; Goal Book; 2,733093;
; Full force reached duration; 1,403669; 98; 
; either pinky or ring attached duration0,01111111; 
; maximal force reached during grab; 99,65; 
; grasp quality score; 4,5; 2,744568; 
\debugText{didn't start with an initially low force (82,02584)
could reach full force
could reach full force for more than 300ms (exactly 0,01403669ms)
more than 10% of the time full force was reached (51,14354%)
}
516,6235; Grabbed; 2 Book; 0,4385875; Goal Book;
516,9113; Average force at grab start; 96,7; 0,3; 
522,8013; Released; 2 Book; 0,01325799; Goal Book; 6,177856;
; Full force reached duration; 6,081331; 98; 
; either pinky or ring attached duration0,01111111; 
; maximal force reached during grab; 100; 
; grasp quality score; 4,5; 6,199524; 
\debugText{didn't start with an initially low force (96,7)
could reach full force
could reach full force for more than 300ms (exactly 0,06081331ms)
more than 10% of the time full force was reached (98,09352%)
}
523,3539; Successful Placement; 2 Book; 0,003485868; 2,238851; 16,43094; 2; 8,91095; 0; 8,91095; 513,8904; 7,519989; 4,5;
528,1124; Grabbed; 3 Book; 0,391507; Goal Book;
528,4001; Average force at grab start; 43,49054; 0,3; 
533,0684; Released; 3 Book; 0,08182734; Goal Book; 4,955994;
; Full force reached duration; 0; 98; 
; either pinky or ring attached duration0; 
; maximal force reached during grab; 96,9; 
; grasp quality score; 1; 4,977295; 
\debugText{didn't start with an initially low force (43,49054)
}
533,8463; Successful Placement; 3 Book; 0,08898104; 3,076231; 9,991577; 1; 4,955994; 0; 4,955994; 528,1124; 5,035583; 1;
540,357; Grabbed; 5 Milk; 0,5534763; Goal Milk;
540,6644; Average force at grab start; 51,87194; 0,3; 
543,6227; Released; 5 Milk; 0,0115796; Goal Milk; 3,265686;
; Full force reached duration; 0; 98; 
; either pinky or ring attached duration3,116478; 
; maximal force reached during grab; 95,75; 
; grasp quality score; 1,5; 3,27655; 
\debugText{didn't start with an initially low force (51,87194)
weaker/secondary fingers were attached for more than 60% of the time (95,11462%)
}
544,2432; Successful Placement; 5 Milk; 0,01288585; 0,9022159; 9,896301; 1; 3,265686; 0; 3,265686; 540,357; 6,630615; 1,5;
548,6873; Grabbed; 10 Soup; 0,6907278; Goal Soup (B);
548,9708; Average force at grab start; 83,45589; 0,3; 
556,2111; Released; 10 Soup; 0,003854057; Goal Soup (B); 7,523804;
; Full force reached duration; 1,995326; 98; 
; either pinky or ring attached duration6,999391; 
; maximal force reached during grab; 100; 
; grasp quality score; 5; 7,542969; 
\debugText{didn't start with an initially low force (83,45589)
could reach full force
could reach full force for more than 300ms (exactly 0,01995326ms)
more than 10% of the time full force was reached (26,45279%)
weaker/secondary fingers were attached for more than 60% of the time (92,79358%)
}
556,879; Successful Placement; 10 Soup; 0,002065243; 9,22624; 12,13513; 1; 7,523804; 0; 7,523804; 548,6873; 4,611328; 5;
556,8797;Task finishedB ;Fixed;
556,8803; Task changed; A ;Fixed;
576,9435; Grabbed; 13 Soup; 
577,2343; Average force at grab start; 90,42892; 0,3; 
583,8994; Released; 13 Soup;  6,955872;
; Full force reached duration; 5,863666; 98; 
; either pinky or ring attached duration6,755696; 
; maximal force reached during grab; 100; 
; grasp quality score; 5; 6,975647; 
\debugText{didn't start with an initially low force (90,42892)
could reach full force
could reach full force for more than 300ms (exactly 0,05863666ms)
more than 10% of the time full force was reached (84,0591%)
weaker/secondary fingers were attached for more than 60% of the time (96,84688%)
}
584,6772; Successful Placement; 13 Soup; 0,004565342; 7,187153; 27,29755; 1; 6,955872; 0; 6,955872; 576,9435; 20,34167; 5;
588,9663; Grabbed; 14 Soup; 
589,2548; Average force at grab start; 92,85714; 0,3; 
594,0764; Released; 14 Soup;  5,110107;
; Full force reached duration; 5,089573; 98; 
; either pinky or ring attached duration4,758896; 
; maximal force reached during grab; 100; 
; grasp quality score; 5; 5,130493; 
\debugText{didn't start with an initially low force (92,85714)
could reach full force
could reach full force for more than 300ms (exactly 0,05089574ms)
more than 10% of the time full force was reached (99,20242%)
weaker/secondary fingers were attached for more than 60% of the time (92,75709%)
}
594,7636; Successful Placement; 14 Soup; 0,008727789; 19,52575; 9,585571; 1; 5,110107; 0; 5,110107; 588,9663; 4,475464; 5;
597,7878; Grabbed; 15 Soup; 
598,0738; Average force at grab start; 91,43361; 0,3; 
602,5883; Released; 15 Soup;  4,800476;
; Full force reached duration; 4,613579; 98; 
; either pinky or ring attached duration4,799815; 
; maximal force reached during grab; 100; 
; grasp quality score; 5; 4,81958; 
\debugText{didn't start with an initially low force (91,43361)
could reach full force
could reach full force for more than 300ms (exactly 0,04613579ms)
more than 10% of the time full force was reached (95,72575%)
weaker/secondary fingers were attached for more than 60% of the time (99,5899%)
}
603,2057; Grabbed; 15 Soup; 
603,5187; Average force at grab start; 60,88; 0,3; 
604,6321; Released; 15 Soup;  1,426331;
; Full force reached duration; 0; 98; 
; either pinky or ring attached duration1,415839; 
; maximal force reached during grab; 86,1; 
; grasp quality score; 1,5; 1,430481; 
\debugText{didn't start with an initially low force (60,88)
weaker/secondary fingers were attached for more than 60% of the time (98,97641%)
}
606,6537; Grabbed; 15 Soup; 
606,9421; Average force at grab start; 73,68929; 0,3; 
608,121; Released; 15 Soup;  1,467285;
; Full force reached duration; 0; 98; 
; either pinky or ring attached duration1,344238; 
; maximal force reached during grab; 85,45; 
; grasp quality score; 1,5; 1,486084; 
\debugText{didn't start with an initially low force (73,68929)
weaker/secondary fingers were attached for more than 60% of the time (90,45502%)
}
621,7869; Grabbed; 15 Soup; 
622,0764; Average force at grab start; 58,84286; 0,3; 
622,2744; Released; 15 Soup;  0,4875488;
; Full force reached duration; 0; 98; 
; either pinky or ring attached duration0,4979646; 
; maximal force reached during grab; 74; 
; grasp quality score; 1,5; 0,5058594; 
\debugText{didn't start with an initially low force (58,84286)
weaker/secondary fingers were attached for more than 60% of the time (98,43932%)
}
624,0977; Grabbed; 15 Soup; 
624,3868; Average force at grab start; 27,91786; 0,3; 
625,787; Released; 15 Soup;  1,689392;
; Full force reached duration; 0; 98; 
; either pinky or ring attached duration1,688496; 
; maximal force reached during grab; 74; 
; grasp quality score; 0,5; 1,707947; 
\debugText{weaker/secondary fingers were attached for more than 60% of the time (98,86117%)
}
626,3604; Grabbed; 15 Soup; 
626,4129; Successful Placement; 15 Soup; 0,02020441; 11,33823; 31,14868; 6; 9,871033; 0; 9,871033; 615,916; 21,27765; 2;
626,4147; Released; 15 Soup;  0,05432129;
; Full force reached duration; 0; 98; 
; either pinky or ring attached duration0; 
; maximal force reached during grab; 8,6; 
626,6589; Average force at grab start; 12,99286; 0,3; 
; grasp quality score; 0; 0,3119507; 
\debugText{}
630,0981; Grabbed; 16 Soup; 
630,3886; Average force at grab start; 84,47056; 0,3; 
634,9871; Released; 16 Soup;  4,888916;
; Full force reached duration; 4,222047; 98; 
; either pinky or ring attached duration4,899351; 
; maximal force reached during grab; 100; 
; grasp quality score; 5; 4,907593; 
\debugText{didn't start with an initially low force (84,47056)
could reach full force
could reach full force for more than 300ms (exactly 0,04222047ms)
more than 10% of the time full force was reached (86,03091%)
weaker/secondary fingers were attached for more than 60% of the time (99,83205%)
}
635,5389; Successful Placement; 16 Soup; 0,01958323; 8,281225; 8,625366; 1; 4,943237; 0; 4,943237; 630,0438; 3,682129; 2,5;
639,809; Grabbed; 17 Soup; 
640,0952; Average force at grab start; 69,16576; 0,3; 
647,1471; Released; 17 Soup;  7,338135;
; Full force reached duration; 4,88763; 98; 
; either pinky or ring attached duration0,9495851; 
; maximal force reached during grab; 100; 
; grasp quality score; 4,5; 7,356506; 
\debugText{didn't start with an initially low force (69,16576)
could reach full force
could reach full force for more than 300ms (exactly 0,0488763ms)
more than 10% of the time full force was reached (66,43955%)
}
647,7465; Successful Placement; 17 Soup; 0,002128621; 3,883979; 11,70697; 1; 7,338135; 0; 7,338135; 639,809; 4,368835; 4,5;
652,5197; Grabbed; 18 Soup; 
652,8099; Average force at grab start; 87,79867; 0,3; 
656,4748; Released; 18 Soup;  3,955139;
; Full force reached duration; 3,799754; 98; 
; either pinky or ring attached duration0; 
; maximal force reached during grab; 100; 
; grasp quality score; 4,5; 3,973267; 
\debugText{didn't start with an initially low force (87,79867)
could reach full force
could reach full force for more than 300ms (exactly 0,03799754ms)
more than 10% of the time full force was reached (95,63301%)
}
657,2995; Successful Placement; 18 Soup; 0,03278928; 17,3438; 9,052368; 1; 3,955139; 0; 3,955139; 652,5197; 5,097229; 4,5;
657,3003;Task finishedA ;Fixed;
2012,284; Task changed; B ;Binary;
2084,144; Grabbed; 7 Milk ; 0,4430793; Goal Milk;
2084,454; Average force at grab start; 58,45333; 0,3; 
2086,478; Released; 7 Milk ; 0,4706856; Goal Milk; 2,33374;
; Full force reached duration; 0,2219845; 98; 
; either pinky or ring attached duration1,157595; 
; maximal force reached during grab; 98,3; 
; grasp quality score; 2; 2,342285; 
\debugText{didn't start with an initially low force (58,45333)
could reach full force
}
2088,634; Grabbed; 7 Milk ; 0,4780028; Goal Milk;
2088,928; Average force at grab start; 56,74643; 0,3; 
2092,455; Released; 7 Milk ; 0,03417537; Goal Milk; 3,820801;
; Full force reached duration; 0; 98; 
; either pinky or ring attached duration3,69906; 
; maximal force reached during grab; 88,7; 
; grasp quality score; 1,5; 3,831055; 
\debugText{didn't start with an initially low force (56,74643)
weaker/secondary fingers were attached for more than 60% of the time (96,55461%)
}
2092,967; Grabbed; 7 Milk ; 0,04082594; Goal Milk;
2093,274; Average force at grab start; 36,09667; 0,3; 
2095,454; Released; 7 Milk ; 0,01280074; Goal Milk; 2,486816;
; Full force reached duration; 0; 98; 
; either pinky or ring attached duration2,45386; 
; maximal force reached during grab; 62,85; 
; grasp quality score; 1,5; 2,496582; 
\debugText{didn't start with an initially low force (36,09667)
weaker/secondary fingers were attached for more than 60% of the time (98,28878%)
}
2096,097; Successful Placement; 7 Milk ; 0,01178577; 4,254138; 1438,297; 3; 8,641357; 2,008789; 6,632568; 2086,812; 1429,656; 1,666667;
2104,3; Grabbed; 1 Book; 0,397513; Goal Book;
2104,61; Average force at grab start; 51,24; 0,3; 
2106,41; Released; 1 Book; 0,5272314; Goal Book; 2,11084;
; Full force reached duration; 0; 98; 
; either pinky or ring attached duration0; 
; maximal force reached during grab; 63,85; 
; grasp quality score; 1; 2,119629; 
\debugText{didn't start with an initially low force (51,24)
}
2107,898; Grabbed; 1 Book; 0,5054225; Goal Book;
2108,185; Average force at grab start; 67,68929; 0,3; 
2113,565; Released; 1 Book; 0,01354433; Goal Book; 5,66748;
; Full force reached duration; 5,066249; 98; 
; either pinky or ring attached duration5,632678; 
; maximal force reached during grab; 100; 
; grasp quality score; 5; 5,686035; 
\debugText{didn't start with an initially low force (67,68929)
could reach full force
could reach full force for more than 300ms (exactly 0,0506625ms)
more than 10% of the time full force was reached (89,09986%)
weaker/secondary fingers were attached for more than 60% of the time (99,06161%)
}
2114,145; Successful Placement; 1 Book; 0,01399164; 4,748596; 17,54614; 2; 7,77832; 5,314453; 2,463867; 2105,787; 9,767822; 3;
2118,919; Grabbed; 12 Soup; 0,5749578; Goal Soup (B);
2119,208; Average force at grab start; 82,05714; 0,3; 
2122,077; Released; 12 Soup; 0,4727585; Goal Soup (B); 3,157471;
; Full force reached duration; 2,98034; 98; 
; either pinky or ring attached duration3,169736; 
; maximal force reached during grab; 100; 
; grasp quality score; 5; 3,175049; 
\debugText{didn't start with an initially low force (82,05714)
could reach full force
could reach full force for more than 300ms (exactly 0,0298034ms)
more than 10% of the time full force was reached (93,86752%)
weaker/secondary fingers were attached for more than 60% of the time (99,83266%)
}
2123,526; Grabbed; 12 Soup; 0,4510121; Goal Soup (B);
2123,817; Average force at grab start; 78,82501; 0,3; 
2125,321; Released; 12 Soup; 0,4926171; Goal Soup (B); 1,795166;
; Full force reached duration; 0,5583524; 98; 
; either pinky or ring attached duration1,802258; 
; maximal force reached during grab; 99,85; 
; grasp quality score; 5; 1,807861; 
\debugText{didn't start with an initially low force (78,82501)
could reach full force
could reach full force for more than 300ms (exactly 0,005583524ms)
more than 10% of the time full force was reached (30,88469%)
weaker/secondary fingers were attached for more than 60% of the time (99,69008%)
}
2127,453; Grabbed; 12 Soup; 0,6661543; Goal Soup (B);
2127,744; Average force at grab start; 75,92857; 0,3; 
2128,676; Released; 12 Soup; 0,4034074; Goal Soup (B); 1,223145;
; Full force reached duration; 0,0222294; 98; 
; either pinky or ring attached duration0; 
; maximal force reached during grab; 98; 
; grasp quality score; 2; 1,240967; 
\debugText{didn't start with an initially low force (75,92857)
could reach full force
}
2132,233; Grabbed; 12 Soup; 0,4123215; Goal Soup (B);
2132,539; Average force at grab start; 52,66333; 0,3; 
2134,631; Released; 12 Soup; 0,3783256; Goal Soup (B); 2,398438;
; Full force reached duration; 1,782407; 98; 
; either pinky or ring attached duration2,41053; 
; maximal force reached during grab; 100; 
; grasp quality score; 5; 2,407227; 
\debugText{didn't start with an initially low force (52,66333)
could reach full force
could reach full force for more than 300ms (exactly 0,01782407ms)
more than 10% of the time full force was reached (74,04401%)
weaker/secondary fingers were attached for more than 60% of the time (100,1372%)
}
2135,809; Grabbed; 12 Soup; 0,38138; Goal Soup (B);
2136,095; Average force at grab start; 79,35357; 0,3; 
2136,806; Released; 12 Soup; 0,3634818; Goal Soup (B); 0,9973145;
; Full force reached duration; 0,7953553; 98; 
; either pinky or ring attached duration0,9297372; 
; maximal force reached during grab; 100; 
; grasp quality score; 5; 1,015137; 
\debugText{didn't start with an initially low force (79,35357)
could reach full force
could reach full force for more than 300ms (exactly 0,007953553ms)
more than 10% of the time full force was reached (78,34958%)
weaker/secondary fingers were attached for more than 60% of the time (91,58739%)
}
2139,297; Grabbed; 12 Soup; 0,3687877; Goal Soup (B);
2139,588; Average force at grab start; 89,40357; 0,3; 
2140,697; Released; 12 Soup; 0,423835; Goal Soup (B); 1,400391;
; Full force reached duration; 1,06189; 98; 
; either pinky or ring attached duration1,221391; 
; maximal force reached during grab; 100; 
; grasp quality score; 5; 1,418213; 
\debugText{didn't start with an initially low force (89,40357)
could reach full force
could reach full force for more than 300ms (exactly 0,0106189ms)
more than 10% of the time full force was reached (74,87523%)
weaker/secondary fingers were attached for more than 60% of the time (86,12183%)
}
2143,342; Grabbed; 12 Soup; 0,4100806; Goal Soup (B);
2143,627; Average force at grab start; 68,55714; 0,3; 
2146,321; Released; 12 Soup; 0,009817333; Goal Soup (B); 2,97876;
; Full force reached duration; 0; 98; 
; either pinky or ring attached duration2,977597; 
; maximal force reached during grab; 77,05; 
; grasp quality score; 1,5; 2,996338; 
\debugText{didn't start with an initially low force (68,55714)
weaker/secondary fingers were attached for more than 60% of the time (99,37453%)
}
2147,206; Successful Placement; 12 Soup; 0,01224092; 11,37434; 32,56079; 7; 13,95068; 4,460449; 9,490234; 2132,37; 18,61011; 4,071429;
2152,787; Grabbed; 8 Milk ; 0,4832484; Goal Milk;
2153,1; Average force at grab start; 75,39333; 0,3; 
2156,386; Released; 8 Milk ; 0,009576325; Goal Milk; 3,598633;
; Full force reached duration; 3,065943; 98; 
; either pinky or ring attached duration3,538651; 
; maximal force reached during grab; 100; 
; grasp quality score; 5; 3,606934; 
\debugText{didn't start with an initially low force (75,39333)
could reach full force
could reach full force for more than 300ms (exactly 0,03065943ms)
more than 10% of the time full force was reached (85,00137%)
weaker/secondary fingers were attached for more than 60% of the time (98,10691%)
}
2156,988; Successful Placement; 8 Milk ; 0,009254374; 0,5188864; 9,280762; 1; 3,598633; 3,264404; 0,3342285; 2152,787; 5,682129; 5;
2162,475; Grabbed; 11 Soup; 0,5085965; Goal Soup (B);
2162,786; Average force at grab start; 50; 0,3; 
2164,186; Released; 11 Soup; 0,4266517; Goal Soup (B); 1,710938;
; Full force reached duration; 0; 98; 
; either pinky or ring attached duration1,637873; 
; maximal force reached during grab; 50; 
; grasp quality score; 1,5; 1,717773; 
\debugText{didn't start with an initially low force (50)
weaker/secondary fingers were attached for more than 60% of the time (95,34858%)
}
2165,208; Grabbed; 11 Soup; 0,4258486; Goal Soup (B);
2165,495; Average force at grab start; 90; 0,3; 
2169,364; Released; 11 Soup; 0,00727149; Goal Soup (B); 4,155762;
; Full force reached duration; 4,057761; 98; 
; either pinky or ring attached duration4,167066; 
; maximal force reached during grab; 100; 
; grasp quality score; 5; 4,172852; 
\debugText{didn't start with an initially low force (90)
could reach full force
could reach full force for more than 300ms (exactly 0,04057761ms)
more than 10% of the time full force was reached (97,24191%)
weaker/secondary fingers were attached for more than 60% of the time (99,86135%)
}
2171,074; Grabbed; 11 Soup; 0,008520934; Goal Soup (B);
2171,363; Average force at grab start; 100; 0,3; 
2173,564; Released; 11 Soup; 0,004978701; Goal Soup (B); 2,489746;
; Full force reached duration; 2,499338; 98; 
; either pinky or ring attached duration2,454982; 
; maximal force reached during grab; 100; 
; grasp quality score; 5; 2,506592; 
\debugText{didn't start with an initially low force (100)
could reach full force
could reach full force for more than 300ms (exactly 0,02499338ms)
more than 10% of the time full force was reached (99,71062%)
weaker/secondary fingers were attached for more than 60% of the time (97,94103%)
}
2174,094; Successful Placement; 11 Soup; 0,004534747; 6,916613; 16,60547; 3; 8,356445; 0; 8,356445; 2165,207; 8,249023; 3,833333;
2178,206; Grabbed; 4 Book; 0,4260041; Goal Book;
2178,498; Average force at grab start; 100; 0,3; 
2180,941; Released; 4 Book; 0,4125265; Goal Book; 2,735352;
; Full force reached duration; 2,745857; 98; 
; either pinky or ring attached duration2,745857; 
; maximal force reached during grab; 100; 
; grasp quality score; 5; 2,750488; 
\debugText{didn't start with an initially low force (100)
could reach full force
could reach full force for more than 300ms (exactly 0,02745857ms)
more than 10% of the time full force was reached (99,83162%)
weaker/secondary fingers were attached for more than 60% of the time (99,83162%)
}
2182,54; Grabbed; 4 Book; 0,4080841; Goal Book;
2182,831; Average force at grab start; 73,21429; 0,3; 
2186,541; Released; 4 Book; 0,0630631; Goal Book; 4,000244;
; Full force reached duration; 0,3050028; 98; 
; either pinky or ring attached duration3,939339; 
; maximal force reached during grab; 100; 
; grasp quality score; 4; 4,016602; 
\debugText{didn't start with an initially low force (73,21429)
could reach full force
could reach full force for more than 300ms (exactly 0,003050028ms)
weaker/secondary fingers were attached for more than 60% of the time (98,07643%)
}
2190,674; Grabbed; 4 Book; 0,0571052; Goal Book;
2190,696; Released; 4 Book; 0,05682104; Goal Book; 0,02246094;
; Full force reached duration; 0,03348571; 98; 
; either pinky or ring attached duration0,03348571; 
; maximal force reached during grab; 100; 
2190,962; Average force at grab start; 98,42144; 0,3; 
; grasp quality score; 3; 0,3029785; 
\debugText{didn't start with an initially low force (98,42144)
could reach full force
more than 10% of the time full force was reached (11,05217%)
}
2191,005; Grabbed; 4 Book; 0,05698699; Goal Book;
2191,293; Average force at grab start; 99,39286; 0,3; 
2193,963; Released; 4 Book; 0,04378058; Goal Book; 2,958008;
; Full force reached duration; 2,968734; 98; 
; either pinky or ring attached duration2,968734; 
; maximal force reached during grab; 100; 
; grasp quality score; 5; 2,972168; 
\debugText{didn't start with an initially low force (99,39286)
could reach full force
could reach full force for more than 300ms (exactly 0,02968734ms)
more than 10% of the time full force was reached (99,88445%)
weaker/secondary fingers were attached for more than 60% of the time (99,88445%)
}
2194,519; Successful Placement; 4 Book; 0,01400362; 15,03771; 19,92383; 4; 9,716064; 0; 9,716064; 2184,247; 10,20776; 4,25;
2198,54; Grabbed; 9 Soup; 0,4893372; Goal Soup (B);
2198,826; Average force at grab start; 77,90715; 0,3; 
2201,985; Released; 9 Soup; 0,01051084; Goal Soup (B); 3,445068;
; Full force reached duration; 0; 98; 
; either pinky or ring attached duration3,422167; 
; maximal force reached during grab; 94,1; 
; grasp quality score; 1,5; 3,460693; 
\debugText{didn't start with an initially low force (77,90715)
weaker/secondary fingers were attached for more than 60% of the time (98,88674%)
}
2203,718; Grabbed; 9 Soup; 0,00845273; Goal Soup (B);
2204,004; Average force at grab start; 82,42857; 0,3; 
2206,585; Released; 9 Soup; 0,02674901; Goal Soup (B); 2,866699;
; Full force reached duration; 2,599132; 98; 
; either pinky or ring attached duration0; 
; maximal force reached during grab; 100; 
; grasp quality score; 4,5; 2,883057; 
\debugText{didn't start with an initially low force (82,42857)
could reach full force
could reach full force for more than 300ms (exactly 0,02599132ms)
more than 10% of the time full force was reached (90,15197%)
}
2207,362; Grabbed; 9 Soup; 0,02843831; Goal Soup (B);
2207,456; Successful Placement; 9 Soup; 0,02798489; 4,397293; 12,43677; 3; 6,311768; 3,326416; 2,985352; 2200,273; 6,125; 3;
2207,458; Released; 9 Soup; 0,02830943; Goal Soup (B); 0,09619141;
; Full force reached duration; 0; 98; 
; either pinky or ring attached duration0,01111111; 
; maximal force reached during grab; 74,9; 
2207,66; Average force at grab start; 62,78572; 0,3; 
; grasp quality score; 1; 0,310791; 
\debugText{didn't start with an initially low force (62,78572)
}
2211,052; Grabbed; 6 Milk ; 0,5204408; Goal Milk;
2211,337; Average force at grab start; 23,02857; 0,3; 
2212,806; Released; 6 Milk ; 0,4951493; Goal Milk; 1,754883;
; Full force reached duration; 0; 98; 
; either pinky or ring attached duration0,01111111; 
; maximal force reached during grab; 50; 
; grasp quality score; 0; 1,771484; 
\debugText{}
2213,694; Grabbed; 6 Milk ; 0,4958974; Goal Milk;
2214,004; Average force at grab start; 47,43667; 0,3; 
2217,052; Released; 6 Milk ; 0,5062171; Goal Milk; 3,357422;
; Full force reached duration; 0; 98; 
; either pinky or ring attached duration0,5523888; 
; maximal force reached during grab; 85; 
; grasp quality score; 1; 3,361328; 
\debugText{didn't start with an initially low force (47,43667)
}
2218,452; Grabbed; 6 Milk ; 0,512961; Goal Milk;
2218,767; Average force at grab start; 55,41; 0,3; 
2220,674; Released; 6 Milk ; 0,1500204; Goal Milk; 2,221436;
; Full force reached duration; 0; 98; 
; either pinky or ring attached duration0; 
; maximal force reached during grab; 93,95; 
; grasp quality score; 1; 2,227783; 
\debugText{didn't start with an initially low force (55,41)
}
2222,674; Grabbed; 6 Milk ; 0,1518412; Goal Milk;
2222,991; Average force at grab start; 70,53667; 0,3; 
2225,695; Released; 6 Milk ; 0,01017296; Goal Milk; 3,020752;
; Full force reached duration; 0,6935024; 98; 
; either pinky or ring attached duration0; 
; maximal force reached during grab; 98,8; 
; grasp quality score; 4,5; 3,026611; 
\debugText{didn't start with an initially low force (70,53667)
could reach full force
could reach full force for more than 300ms (exactly 0,006935024ms)
more than 10% of the time full force was reached (22,91349%)
}
2226,003; Grabbed; 6 Milk ; 0,01207; Goal Milk;
2226,178; Released; 6 Milk ; 0,01365409; Goal Milk; 0,175293;
; Full force reached duration; 0; 98; 
; either pinky or ring attached duration0,01111111; 
; maximal force reached during grab; 50,05; 
2226,293; Average force at grab start; 49,91785; 0,3; 
; grasp quality score; 1; 0,3005371; 
\debugText{didn't start with an initially low force (49,91785)
}
2226,313; Successful Placement; 6 Milk ; 0,01210724; 8,766764; 18,3562; 5; 10,62598; 6,456055; 4,169922; 2215,552; 7,730225; 1,416667;
2232,517; Grabbed; 2 Book; 0,3732297; Goal Book;
2232,808; Average force at grab start; 99,70715; 0,3; 
2235,606; Released; 2 Book; 0,3990397; Goal Book; 3,089355;
; Full force reached duration; 3,10078; 98; 
; either pinky or ring attached duration3,10078; 
; maximal force reached during grab; 100; 
; grasp quality score; 5; 3,104492; 
\debugText{didn't start with an initially low force (99,70715)
could reach full force
could reach full force for more than 300ms (exactly 0,0310078ms)
more than 10% of the time full force was reached (99,88043%)
weaker/secondary fingers were attached for more than 60% of the time (99,88043%)
}
2237,672; Grabbed; 2 Book; 0,40196; Goal Book;
2237,963; Average force at grab start; 100; 0,3; 
2241,94; Released; 2 Book; 0,009707855; Goal Book; 4,267822;
; Full force reached duration; 4,277476; 98; 
; either pinky or ring attached duration0,01111111; 
; maximal force reached during grab; 100; 
; grasp quality score; 4,5; 4,282715; 
\debugText{didn't start with an initially low force (100)
could reach full force
could reach full force for more than 300ms (exactly 0,04277476ms)
more than 10% of the time full force was reached (99,87767%)
}
2242,47; Successful Placement; 2 Book; 0,006397178; 1,778669; 15,65601; 2; 7,357178; 0; 7,357178; 2234,583; 8,298828; 4,75;
2247,429; Grabbed; 3 Book; 0,3997714; Goal Book;
2247,737; Average force at grab start; 58,55; 0,3; 
2252,213; Released; 3 Book; 0,05381766; Goal Book; 4,783691;
; Full force reached duration; 0; 98; 
; either pinky or ring attached duration0; 
; maximal force reached during grab; 93,5; 
; grasp quality score; 1; 4,78833; 
\debugText{didn't start with an initially low force (58,55)
}
2252,743; Successful Placement; 3 Book; 0,06978004; 14,54913; 9,772949; 1; 4,783691; 2,553711; 2,22998; 2247,429; 4,989258; 1;
2258,335; Grabbed; 5 Milk; 0,5589996; Goal Milk;
2258,639; Average force at grab start; 65,13077; 0,3; 
2261,426; Released; 5 Milk; 0,005693784; Goal Milk; 3,090332;
; Full force reached duration; 0; 98; 
; either pinky or ring attached duration2,541396; 
; maximal force reached during grab; 96,3; 
; grasp quality score; 1,5; 3,101074; 
\debugText{didn't start with an initially low force (65,13077)
weaker/secondary fingers were attached for more than 60% of the time (81,95212%)
}
2262,137; Successful Placement; 5 Milk; 0,00690217; 4,167501; 8,893555; 1; 3,090332; 2,725098; 0,3652344; 2258,335; 5,803223; 1,5;
2282,137; Grabbed; 10 Soup; 0,6990709; Goal Soup (B);
2282,446; Average force at grab start; 77,17333; 0,3; 
2285,027; Released; 10 Soup; 0,007341301; Goal Soup (B); 2,88916;
; Full force reached duration; 1,823226; 98; 
; either pinky or ring attached duration0,0891692; 
; maximal force reached during grab; 100; 
; grasp quality score; 4,5; 2,902832; 
\debugText{didn't start with an initially low force (77,17333)
could reach full force
could reach full force for more than 300ms (exactly 0,01823226ms)
more than 10% of the time full force was reached (62,80852%)
}
2285,629; Successful Placement; 10 Soup; 0,00368906; 17,42331; 22,99072; 1; 2,88916; 0; 2,88916; 2282,137; 20,10156; 4,5;
2285,629;Task finishedB ;Binary;
2285,63; Task changed; A ;Binary;
2291,071; Grabbed; 13 Soup; 
2291,379; Average force at grab start; 85,52332; 0,3; 
2295,982; Released; 13 Soup;  4,911133;
; Full force reached duration; 0; 98; 
; either pinky or ring attached duration4,910337; 
; maximal force reached during grab; 95,9; 
; grasp quality score; 1,5; 4,924561; 
\debugText{didn't start with an initially low force (85,52332)
weaker/secondary fingers were attached for more than 60% of the time (99,71118%)
}
2296,579; Successful Placement; 13 Soup; 0,02439508; 2,634603; 10,44995; 1; 4,911133; 0; 4,911133; 2291,071; 5,538818; 1,5;
2300,181; Grabbed; 14 Soup; 
2300,49; Average force at grab start; 92,78667; 0,3; 
2303,848; Released; 14 Soup;  3,666748;
; Full force reached duration; 0; 98; 
; either pinky or ring attached duration3,644087; 
; maximal force reached during grab; 97,25; 
; grasp quality score; 1,5; 3,680176; 
\debugText{didn't start with an initially low force (92,78667)
weaker/secondary fingers were attached for more than 60% of the time (99,01938%)
}
2304,45; Successful Placement; 14 Soup; 0,01460267; 9,207197; 7,370605; 1; 3,666748; 0; 3,666748; 2300,181; 3,703857; 1,5;
2307,493; Grabbed; 15 Soup; 
2307,783; Average force at grab start; 42,68572; 0,3; 
2310,893; Released; 15 Soup;  3,399902;
; Full force reached duration; 0; 98; 
; either pinky or ring attached duration3,411455; 
; maximal force reached during grab; 59,5; 
; grasp quality score; 1,5; 3,413086; 
\debugText{didn't start with an initially low force (42,68572)
weaker/secondary fingers were attached for more than 60% of the time (99,95222%)
}
2311,424; Grabbed; 15 Soup; 
2311,74; Average force at grab start; 75,98999; 0,3; 
2315,737; Released; 15 Soup;  4,313477;
; Full force reached duration; 3,293652; 98; 
; either pinky or ring attached duration4,325665; 
; maximal force reached during grab; 100; 
; grasp quality score; 5; 4,324463; 
\debugText{didn't start with an initially low force (75,98999)
could reach full force
could reach full force for more than 300ms (exactly 0,03293652ms)
more than 10% of the time full force was reached (76,16325%)
weaker/secondary fingers were attached for more than 60% of the time (100,0278%)
}
2318,225; Grabbed; 15 Soup; 
2318,535; Average force at grab start; 62,13333; 0,3; 
2319,221; Released; 15 Soup;  0,9960938;
; Full force reached duration; 0; 98; 
; either pinky or ring attached duration0,7778769; 
; maximal force reached during grab; 89,85; 
; grasp quality score; 1,5; 1,008301; 
\debugText{didn't start with an initially low force (62,13333)
weaker/secondary fingers were attached for more than 60% of the time (77,1473%)
}
2320,759; Grabbed; 15 Soup; 
2321,07; Average force at grab start; 41,98333; 0,3; 
2323,337; Released; 15 Soup;  2,578125;
; Full force reached duration; 0; 98; 
; either pinky or ring attached duration0; 
; maximal force reached during grab; 56,6; 
; grasp quality score; 1; 2,59082; 
\debugText{didn't start with an initially low force (41,98333)
}
2324,804; Grabbed; 15 Soup; 
2325,094; Average force at grab start; 70,29642; 0,3; 
2328,388; Released; 15 Soup;  3,58374;
; Full force reached duration; 0; 98; 
; either pinky or ring attached duration3,588802; 
; maximal force reached during grab; 91,3; 
; grasp quality score; 1,5; 3,59668; 
\debugText{didn't start with an initially low force (70,29642)
weaker/secondary fingers were attached for more than 60% of the time (99,78097%)
}
2328,978; Successful Placement; 15 Soup; 0,007368906; 12,68979; 24,02734; 5; 14,87134; 1,445068; 13,42627; 2313,516; 9,156006; 2,1;
2332,114; Grabbed; 16 Soup; 
2332,429; Average force at grab start; 88,12666; 0,3; 
2336,631; Released; 16 Soup;  4,51709;
; Full force reached duration; 4,193786; 98; 
; either pinky or ring attached duration4,488748; 
; maximal force reached during grab; 100; 
; grasp quality score; 5; 4,528564; 
\debugText{didn't start with an initially low force (88,12666)
could reach full force
could reach full force for more than 300ms (exactly 0,04193786ms)
more than 10% of the time full force was reached (92,6074%)
weaker/secondary fingers were attached for more than 60% of the time (99,12077%)
}
2337,309; Grabbed; 16 Soup; 
2337,6; Average force at grab start; 89,69643; 0,3; 
2338,535; Released; 16 Soup;  1,226318;
; Full force reached duration; 1,125276; 98; 
; either pinky or ring attached duration0,1484449; 
; maximal force reached during grab; 100; 
; grasp quality score; 4,5; 1,243896; 
\debugText{didn't start with an initially low force (89,69643)
could reach full force
could reach full force for more than 300ms (exactly 0,01125276ms)
more than 10% of the time full force was reached (90,46378%)
}
2339,198; Grabbed; 16 Soup; 
2339,491; Average force at grab start; 93,29285; 0,3; 
2340,491; Released; 16 Soup;  1,292969;
; Full force reached duration; 1,115621; 98; 
; either pinky or ring attached duration1,247234; 
; maximal force reached during grab; 100; 
; grasp quality score; 5; 1,311523; 
\debugText{didn't start with an initially low force (93,29285)
could reach full force
could reach full force for more than 300ms (exactly 0,01115621ms)
more than 10% of the time full force was reached (85,06297%)
weaker/secondary fingers were attached for more than 60% of the time (95,09813%)
}
2341,691; Grabbed; 16 Soup; 
2342,002; Average force at grab start; 58,32667; 0,3; 
2344,001; Released; 16 Soup;  2,310303;
; Full force reached duration; 0; 98; 
; either pinky or ring attached duration2,309617; 
; maximal force reached during grab; 77,65; 
; grasp quality score; 1,5; 2,321777; 
\debugText{didn't start with an initially low force (58,32667)
weaker/secondary fingers were attached for more than 60% of the time (99,47623%)
}
2344,778; Successful Placement; 16 Soup; 0,00553527; 6,75554; 15,29883; 4; 9,34668; 4,271484; 5,075195; 2334,655; 5,952148; 4;
2348,004; Grabbed; 17 Soup; 
2348,316; Average force at grab start; 56,52; 0,3; 
2352,232; Released; 17 Soup;  4,228027;
; Full force reached duration; 0; 98; 
; either pinky or ring attached duration4,188839; 
; maximal force reached during grab; 86; 
; grasp quality score; 1,5; 4,223145; 
\debugText{didn't start with an initially low force (56,52)
weaker/secondary fingers were attached for more than 60% of the time (99,18769%)
}
2352,888; Successful Placement; 17 Soup; 0,00553237; 14,64424; 7,609375; 1; 4,228027; 2,776123; 1,451904; 2348,004; 3,381348; 1,5;
2355,558; Grabbed; 18 Soup; 
2355,871; Average force at grab start; 79,98; 0,3; 
2359,225; Released; 18 Soup;  3,666748;
; Full force reached duration; 3,15963; 98; 
; either pinky or ring attached duration3,52457; 
; maximal force reached during grab; 100; 
; grasp quality score; 5; 3,667969; 
\debugText{didn't start with an initially low force (79,98)
could reach full force
could reach full force for more than 300ms (exactly 0,0315963ms)
more than 10% of the time full force was reached (86,14113%)
weaker/secondary fingers were attached for more than 60% of the time (96,09051%)
}
2359,937; Successful Placement; 18 Soup; 0,01383879; 7,061723; 6,548584; 1; 3,666748; 3,403809; 0,2629395; 2355,558; 2,881836; 5;
2359,938;Task finishedA ;Binary;
