193,6251; Grabbed; Soup (5); 0,6204864; Goal Soup (B);
193,9294; Average force at grab start; 41,42546; 0,3; 
199,7129; Released; Soup (5); 0,5294827; Goal Soup (B); 6,087814;
; Full force reached duration; 0; 98; 
; either pinky or ring attached duration6,100212; 
; maximal force reached during grab; 66,45; 
; grasp quality score; 1,5; 6,097992; 
\debugText{didn't start with an initially low force (41,42546)
weaker/secondary fingers were attached for more than 60% of the time (100,0364%)
}
200,8217; Grabbed; Soup (5); 0,5592809; Goal Soup (B);
201,132; Average force at grab start; 48,96001; 0,3; 
202,7541; Released; Soup (5); 0,6112497; Goal Soup (B); 1,932449;
; Full force reached duration; 0; 98; 
; either pinky or ring attached duration1,943445; 
; maximal force reached during grab; 52,6; 
; grasp quality score; 1,5; 1,941605; 
\debugText{didn't start with an initially low force (48,96001)
weaker/secondary fingers were attached for more than 60% of the time (100,0948%)
}
204,576; Grabbed; Soup (5); 0,5305966; Goal Soup (B);
204,8675; Average force at grab start; 65,99999; 0,3; 
205,7101; Released; Soup (5); 0,4956284; Goal Soup (B); 1,134094;
; Full force reached duration; 0; 98; 
; either pinky or ring attached duration1,144835; 
; maximal force reached during grab; 94,2; 
; grasp quality score; 1,5; 1,152939; 
\debugText{didn't start with an initially low force (65,99999)
weaker/secondary fingers were attached for more than 60% of the time (99,29713%)
}
207,11; Grabbed; Soup (5); 0,540262; Goal Soup (B);
207,3098; Released; Soup (5); 0,5411445; Goal Soup (B); 0,1997833;
; Full force reached duration; 0; 98; 
; either pinky or ring attached duration0,2113776; 
; maximal force reached during grab; 91,65; 
207,4227; Average force at grab start; 23,99; 0,3; 
; grasp quality score; 0,5; 0,3199005; 
\debugText{weaker/secondary fingers were attached for more than 60% of the time (66,07604%)
}
209,9539; Grabbed; Milk (5); 0,847824; Goal Milk;
210,2443; Average force at grab start; 2,692064; 0,3; 
212,7315; Released; Milk (5); 0,8734065; Goal Milk; 2,777527;
; Full force reached duration; 0; 98; 
; either pinky or ring attached duration2,790161; 
; maximal force reached during grab; 6,65; 
; grasp quality score; 0,5; 2,796844; 
\debugText{weaker/secondary fingers were attached for more than 60% of the time (99,76105%)
}
221,154; Grabbed; Book (5); 0,9138871; Goal Book;
221,4616; Average force at grab start; 8,467143; 0,3; 
224,4425; Released; Book (5); 0,8011687; Goal Book; 3,288498;
; Full force reached duration; 0; 98; 
; either pinky or ring attached duration0; 
; maximal force reached during grab; 50; 
; grasp quality score; 0; 3,296295; 
\debugText{}
248,3542; Grabbed; Milk (4); 0,373583; Goal Milk;
248,6615; Average force at grab start; 18,46357; 0,3; 
252,5096; Released; Milk (4); 0,4650776; Goal Milk; 4,155441;
; Full force reached duration; 0; 98; 
; either pinky or ring attached duration3,360228; 
; maximal force reached during grab; 39,9; 
; grasp quality score; 0,5; 4,163284; 
\debugText{weaker/secondary fingers were attached for more than 60% of the time (80,711%)
}
254,1758; Grabbed; Milk (4); 0,4634363; Goal Milk;
254,4855; Average force at grab start; 24,94; 0,3; 
255,4637; Released; Milk (4); 0,4844285; Goal Milk; 1,287918;
; Full force reached duration; 0; 98; 
; either pinky or ring attached duration1,299622; 
; maximal force reached during grab; 40,1; 
; grasp quality score; 0,5; 1,295624; 
\debugText{weaker/secondary fingers were attached for more than 60% of the time (100,3086%)
}
256,8862; Grabbed; Milk (4); 0,4879277; Goal Milk;
257,1944; Average force at grab start; 26,73334; 0,3; 
257,837; Released; Milk (4); 0,4725182; Goal Milk; 0,9507446;
; Full force reached duration; 0; 98; 
; either pinky or ring attached duration0,01111111; 
; maximal force reached during grab; 38,35; 
; grasp quality score; 0; 0,9575653; 
\debugText{}
258,6399; Grabbed; Milk (4); 0,4784539; Goal Milk;
258,9525; Average force at grab start; 12,88667; 0,3; 
261,2408; Released; Milk (4); 0,5066152; Goal Milk; 2,600891;
; Full force reached duration; 0; 98; 
; either pinky or ring attached duration2,613159; 
; maximal force reached during grab; 35,9; 
; grasp quality score; 0,5; 2,606125; 
\debugText{weaker/secondary fingers were attached for more than 60% of the time (100,2699%)
}
263,6414; Grabbed; Milk (4); 0,5052554; Goal Milk;
263,9496; Average force at grab start; 11,55667; 0,3; 
268,8638; Released; Milk (4); 0,4573344; Goal Milk; 5,222382;
; Full force reached duration; 0; 98; 
; either pinky or ring attached duration5,149781; 
; maximal force reached during grab; 66,9; 
; grasp quality score; 0,5; 5,228973; 
\debugText{weaker/secondary fingers were attached for more than 60% of the time (98,48551%)
}
270,0609; Grabbed; Milk (4); 0,4628733; Goal Milk;
270,3541; Average force at grab start; 6,257143; 0,3; 
274,3081; Released; Milk (4); 0,4302827; Goal Milk; 4,247192;
; Full force reached duration; 0; 98; 
; either pinky or ring attached duration4,223975; 
; maximal force reached during grab; 21,75; 
; grasp quality score; 0,5; 4,261353; 
\debugText{weaker/secondary fingers were attached for more than 60% of the time (99,12286%)
}
276,0407; Grabbed; Milk (4); 0,4257492; Goal Milk;
276,3275; Average force at grab start; 2,478571; 0,3; 
279,6421; Released; Milk (4); 0,3676556; Goal Milk; 3,601379;
; Full force reached duration; 0; 98; 
; either pinky or ring attached duration3,611502; 
; maximal force reached during grab; 27,55; 
; grasp quality score; 0,5; 3,617645; 
\debugText{weaker/secondary fingers were attached for more than 60% of the time (99,83018%)
}
282,9527; Grabbed; Soup (4); 0,7650552; Goal Soup (B);
283,2649; Average force at grab start; 35,33593; 0,3; 
287,6405; Released; Soup (4); 0,7257196; Goal Soup (B); 4,687775;
; Full force reached duration; 0,7124948; 98; 
; either pinky or ring attached duration4,699436; 
; maximal force reached during grab; 100; 
; grasp quality score; 5; 4,694641; 
\debugText{didn't start with an initially low force (35,33593)
could reach full force
could reach full force for more than 300ms (exactly 0,007124948ms)
more than 10% of the time full force was reached (15,17677%)
weaker/secondary fingers were attached for more than 60% of the time (100,1021%)
}
291,5959; Grabbed; Soup (4); 0,5542769; Goal Soup (B);
291,8832; Average force at grab start; 37,31072; 0,3; 
293,4404; Released; Soup (4); 0,7808371; Goal Soup (B); 1,844543;
; Full force reached duration; 0; 98; 
; either pinky or ring attached duration1,85582; 
; maximal force reached during grab; 65,5; 
; grasp quality score; 1,5; 1,860992; 
\debugText{didn't start with an initially low force (37,31072)
weaker/secondary fingers were attached for more than 60% of the time (99,72205%)
}
296,0184; Grabbed; Soup (4); 0,7812617; Goal Soup (B);
296,3274; Average force at grab start; 28,28333; 0,3; 
297,9734; Released; Soup (4); 0,9048067; Goal Soup (B); 1,954987;
; Full force reached duration; 0; 98; 
; either pinky or ring attached duration1,965821; 
; maximal force reached during grab; 45,45; 
; grasp quality score; 0,5; 1,960876; 
\debugText{weaker/secondary fingers were attached for more than 60% of the time (100,2522%)
}
302,2182; Grabbed; Book (4); 0,5441372; Goal Book;
302,5038; Average force at grab start; 89,59603; 0,3; 
309,2622; Released; Book (4); 0,5448849; Goal Book; 7,044006;
; Full force reached duration; 6,799516; 98; 
; either pinky or ring attached duration7,054893; 
; maximal force reached during grab; 100; 
; grasp quality score; 5; 7,06073; 
\debugText{didn't start with an initially low force (89,59603)
could reach full force
could reach full force for more than 300ms (exactly 0,06799516ms)
more than 10% of the time full force was reached (96,30047%)
weaker/secondary fingers were attached for more than 60% of the time (99,91734%)
}
314,973; Grabbed; Book (4); 0,5508229; Goal Book;
315,2601; Average force at grab start; 91,58214; 0,3; 
316,6835; Released; Book (4); 0,5513473; Goal Book; 1,71051;
; Full force reached duration; 1,598212; 98; 
; either pinky or ring attached duration1,722546; 
; maximal force reached during grab; 100; 
; grasp quality score; 5; 1,726624; 
\debugText{didn't start with an initially low force (91,58214)
could reach full force
could reach full force for more than 300ms (exactly 0,01598212ms)
more than 10% of the time full force was reached (92,56288%)
weaker/secondary fingers were attached for more than 60% of the time (99,76385%)
}
318,5958; Grabbed; Book (4); 0,5583646; Goal Book;
318,6837; Released; Book (4); 0,5582194; Goal Book; 0,08789063;
; Full force reached duration; 0,01111111; 98; 
; either pinky or ring attached duration0; 
; maximal force reached during grab; 100; 
318,8875; Average force at grab start; 46,2; 0,3; 
; grasp quality score; 2; 0,3066406; 
\debugText{didn't start with an initially low force (46,2)
could reach full force
}
319,0124; Grabbed; Book (4); 0,5580139; Goal Book;
319,3022; Average force at grab start; 81,61072; 0,3; 
319,5678; Released; Book (4); 0,554784; Goal Book; 0,5554199;
; Full force reached duration; 0,2352776; 98; 
; either pinky or ring attached duration0,5699682; 
; maximal force reached during grab; 100; 
; grasp quality score; 3,5; 0,5773621; 
\debugText{didn't start with an initially low force (81,61072)
could reach full force
more than 10% of the time full force was reached (40,75045%)
weaker/secondary fingers were attached for more than 60% of the time (98,71937%)
}
320,2794; Grabbed; Book (4); 0,555012; Goal Book;
320,5689; Average force at grab start; 14,85714; 0,3; 
322,0844; Released; Book (4); 0,549067; Goal Book; 1,805054;
; Full force reached duration; 0; 98; 
; either pinky or ring attached duration1,634009; 
; maximal force reached during grab; 50; 
; grasp quality score; 0,5; 1,827057; 
\debugText{weaker/secondary fingers were attached for more than 60% of the time (89,43395%)
}
323,5953; Grabbed; Book (4); 0,5496379; Goal Book;
323,8861; Average force at grab start; 47,03928; 0,3; 
324,1958; Released; Book (4); 0,5812654; Goal Book; 0,6005249;
; Full force reached duration; 0; 98; 
; either pinky or ring attached duration0; 
; maximal force reached during grab; 50; 
; grasp quality score; 1; 0,6161499; 
\debugText{didn't start with an initially low force (47,03928)
}
326,6168; Grabbed; Book (4); 0,5623991; Goal Book;
326,9076; Average force at grab start; 62,50357; 0,3; 
327,5283; Released; Book (4); 0,6261111; Goal Book; 0,911438;
; Full force reached duration; 0; 98; 
; either pinky or ring attached duration0,9218721; 
; maximal force reached during grab; 84,85; 
; grasp quality score; 1,5; 0,9268494; 
\debugText{didn't start with an initially low force (62,50357)
weaker/secondary fingers were attached for more than 60% of the time (99,46299%)
}
329,507; Grabbed; Book (4); 0,6229964; Goal Book;
329,8154; Average force at grab start; 34,08334; 0,3; 
331,017; Released; Book (4); 0,5395311; Goal Book; 1,51001;
; Full force reached duration; 0; 98; 
; either pinky or ring attached duration1,522677; 
; maximal force reached during grab; 80,45; 
; grasp quality score; 1,5; 1,515594; 
\debugText{didn't start with an initially low force (34,08334)
weaker/secondary fingers were attached for more than 60% of the time (100,4673%)
}
357,6949; Grabbed; Soup (5); 0,529894; Goal Soup (B);
358,0013; Average force at grab start; 19,78666; 0,3; 
358,7129; Released; Soup (5); 0,541696; Goal Soup (B); 1,018005;
; Full force reached duration; 0; 98; 
; either pinky or ring attached duration1,028975; 
; maximal force reached during grab; 60,25; 
; grasp quality score; 0,5; 1,033356; 
\debugText{weaker/secondary fingers were attached for more than 60% of the time (99,57612%)
}
360,5161; Grabbed; Milk (4); 0,3649797; Goal Milk;
360,806; Average force at grab start; 29,84286; 0,3; 
366,1827; Released; Milk (4); 0,2348918; Goal Milk; 5,666595;
; Full force reached duration; 0; 98; 
; either pinky or ring attached duration0; 
; maximal force reached during grab; 76,7; 
; grasp quality score; 0; 5,681061; 
\debugText{}
367,4721; Grabbed; Milk (4); 0,3628521; Goal Milk;
367,7808; Average force at grab start; 50,62334; 0,3; 
369,2492; Released; Milk (4); 0,3243086; Goal Milk; 1,7771;
; Full force reached duration; 0,3353382; 98; 
; either pinky or ring attached duration1,778101; 
; maximal force reached during grab; 98,5; 
; grasp quality score; 5; 1,781189; 
\debugText{didn't start with an initially low force (50,62334)
could reach full force
could reach full force for more than 300ms (exactly 0,003353382ms)
more than 10% of the time full force was reached (18,82665%)
weaker/secondary fingers were attached for more than 60% of the time (99,82666%)
}
370,4716; Grabbed; Milk (4); 0,3669472; Goal Milk;
370,7642; Average force at grab start; 26,80357; 0,3; 
371,7605; Released; Milk (4); 0,4151489; Goal Milk; 1,288879;
; Full force reached duration; 0; 98; 
; either pinky or ring attached duration0; 
; maximal force reached during grab; 65,7; 
; grasp quality score; 0; 1,303497; 
\debugText{}
375,0156; Grabbed; Milk (4); 0,4123981; Goal Milk;
375,3243; Average force at grab start; 27,95667; 0,3; 
380,0378; Released; Milk (4); 0,3876338; Goal Milk; 5,022186;
; Full force reached duration; 0; 98; 
; either pinky or ring attached duration5,001474; 
; maximal force reached during grab; 67,85; 
; grasp quality score; 0,5; 5,025299; 
\debugText{weaker/secondary fingers were attached for more than 60% of the time (99,52589%)
}
391,1491; Grabbed; Milk (4); 0,3907344; Goal Milk;
391,4603; Average force at grab start; 43,31666; 0,3; 
394,4373; Released; Milk (4); 0,0243241; Goal Milk; 3,288239;
; Full force reached duration; 0; 98; 
; either pinky or ring attached duration3,266623; 
; maximal force reached during grab; 64,5; 
; grasp quality score; 1,5; 3,291473; 
\debugText{didn't start with an initially low force (43,31666)
weaker/secondary fingers were attached for more than 60% of the time (99,245%)
}
395,1681; Successful Placement; Milk (4); 0,02273354; 16,82764; 394,6675; 30; 78,25928; 10,01944; 68,23984; 316,1781; 316,4083; 1,433333;
410,9937; Task changed; B ;Binary;
419,2376; Grabbed; 5 Milk; 0,5557511; Goal Milk;
419,5476; Average force at grab start; 37,03857; 0,3; 
424,1485; Released; 5 Milk; 0,07945561; Goal Milk; 4,910889;
; Full force reached duration; 0; 98; 
; either pinky or ring attached duration2,971566; 
; maximal force reached during grab; 63; 
; grasp quality score; 1,5; 4,912842; 
\debugText{didn't start with an initially low force (37,03857)
weaker/secondary fingers were attached for more than 60% of the time (60,48569%)
}
426,2585; Grabbed; 5 Milk; 0,1759015; Goal Milk;
426,5492; Average force at grab start; 28,32143; 0,3; 
429,0585; Released; 5 Milk; 0,0262665; Goal Milk; 2,799988;
; Full force reached duration; 0; 98; 
; either pinky or ring attached duration2,810396; 
; maximal force reached during grab; 50; 
; grasp quality score; 0,5; 2,8125; 
\debugText{weaker/secondary fingers were attached for more than 60% of the time (99,92521%)
}
431,5256; Grabbed; 5 Milk; 0,3905625; Goal Milk;
431,8326; Average force at grab start; 32,58333; 0,3; 
434,8589; Released; 5 Milk; 0,4178117; Goal Milk; 3,333374;
; Full force reached duration; 0; 98; 
; either pinky or ring attached duration2,927112; 
; maximal force reached during grab; 50; 
; grasp quality score; 1,5; 3,345642; 
\debugText{didn't start with an initially low force (32,58333)
weaker/secondary fingers were attached for more than 60% of the time (87,49028%)
}
436,1034; Grabbed; 5 Milk; 0,4218962; Goal Milk;
436,4151; Average force at grab start; 44,71666; 0,3; 
437,6804; Released; 5 Milk; 0,4175453; Goal Milk; 1,576996;
; Full force reached duration; 0; 98; 
; either pinky or ring attached duration0; 
; maximal force reached during grab; 83,5; 
; grasp quality score; 1; 1,579041; 
\debugText{didn't start with an initially low force (44,71666)
}
440,1686; Grabbed; 5 Milk; 0,4203536; Goal Milk;
440,4599; Average force at grab start; 27,1; 0,3; 
443,9469; Released; 5 Milk; 0,03852064; Goal Milk; 3,77832;
; Full force reached duration; 0; 98; 
; either pinky or ring attached duration0; 
; maximal force reached during grab; 91,75; 
; grasp quality score; 0; 3,789734; 
\debugText{}
446,9929; Successful Placement; 5 Milk; 0,02738257; 3,447937; 51,32413; 5; 16,39957; 1,354095; 15,04547; 427,5473; 34,92456; 0,9;
448,7255; Grabbed; 7 Milk ; 0,4464706; Goal Milk;
449,0328; Average force at grab start; 35,65392; 0,3; 
453,6136; Released; 7 Milk ; 0,105029; Goal Milk; 4,888092;
; Full force reached duration; 0; 98; 
; either pinky or ring attached duration4,155425; 
; maximal force reached during grab; 51,2; 
; grasp quality score; 1,5; 4,889282; 
\debugText{didn't start with an initially low force (35,65392)
weaker/secondary fingers were attached for more than 60% of the time (84,99049%)
}
454,1922; Grabbed; 7 Milk ; 0,07332465; Goal Milk;
454,4986; Average force at grab start; 10,19; 0,3; 
455,3456; Released; 7 Milk ; 0,187737; Goal Milk; 1,15332;
; Full force reached duration; 0; 98; 
; either pinky or ring attached duration0; 
; maximal force reached during grab; 36,5; 
; grasp quality score; 0; 1,155212; 
\debugText{}
457,5024; Grabbed; 7 Milk ; 0,1884707; Goal Milk;
457,8108; Average force at grab start; 11,88333; 0,3; 
464,1463; Released; 7 Milk ; 0,1595638; Goal Milk; 6,643921;
; Full force reached duration; 0; 98; 
; either pinky or ring attached duration6,529066; 
; maximal force reached during grab; 77,25; 
; grasp quality score; 0,5; 6,644928; 
\debugText{weaker/secondary fingers were attached for more than 60% of the time (98,25639%)
}
465,347; Grabbed; 7 Milk ; 0,1753375; Goal Milk;
465,6539; Average force at grab start; 40,17; 0,3; 
467,5021; Released; 7 Milk ; 0,04037152; Goal Milk; 2,155121;
; Full force reached duration; 0; 98; 
; either pinky or ring attached duration2,167282; 
; maximal force reached during grab; 69,8; 
; grasp quality score; 1,5; 2,16684; 
\debugText{didn't start with an initially low force (40,17)
weaker/secondary fingers were attached for more than 60% of the time (100,0204%)
}
471,324; Grabbed; 7 Milk ; 0,05112116; Goal Milk;
471,633; Average force at grab start; 22,52333; 0,3; 
474,3461; Released; 7 Milk ; 0,03141208; Goal Milk; 3,022125;
; Full force reached duration; 0; 98; 
; either pinky or ring attached duration0; 
; maximal force reached during grab; 94,7; 
; grasp quality score; 0; 3,033569; 
\debugText{}
475,5023; Grabbed; 7 Milk ; 0,03999417; Goal Milk;
475,8124; Average force at grab start; 55,36666; 0,3; 
478,1468; Released; 7 Milk ; 0,01819202; Goal Milk; 2,644531;
; Full force reached duration; 0; 98; 
; either pinky or ring attached duration2,52866; 
; maximal force reached during grab; 73,4; 
; grasp quality score; 1,5; 2,644989; 
\debugText{didn't start with an initially low force (55,36666)
weaker/secondary fingers were attached for more than 60% of the time (95,60189%)
}
479,6348; Grabbed; 7 Milk ; 0,06167658; Goal Milk;
479,924; Average force at grab start; 25,51071; 0,3; 
482,5462; Released; 7 Milk ; 0,4008749; Goal Milk; 2,911377;
; Full force reached duration; 0; 98; 
; either pinky or ring attached duration0; 
; maximal force reached during grab; 74,15; 
; grasp quality score; 0; 2,933289; 
\debugText{}
484,2795; Grabbed; 7 Milk ; 0,4014594; Goal Milk;
484,5869; Average force at grab start; 41,14; 0,3; 
487,8122; Released; 7 Milk ; 0,07979002; Goal Milk; 3,532623;
; Full force reached duration; 0; 98; 
; either pinky or ring attached duration3,25015; 
; maximal force reached during grab; 68,8; 
; grasp quality score; 1,5; 3,544067; 
\debugText{didn't start with an initially low force (41,14)
weaker/secondary fingers were attached for more than 60% of the time (91,70679%)
}
489,7464; Grabbed; 7 Milk ; 0,08838776; Goal Milk;
490,056; Average force at grab start; 32,30333; 0,3; 
492,6566; Released; 7 Milk ; 0,008184152; Goal Milk; 2,910217;
; Full force reached duration; 0; 98; 
; either pinky or ring attached duration2,81679; 
; maximal force reached during grab; 50; 
; grasp quality score; 1,5; 2,9104; 
\debugText{didn't start with an initially low force (32,30333)
weaker/secondary fingers were attached for more than 60% of the time (96,7836%)
}
498,5457; Grabbed; 7 Milk ; 0,009048707; Goal Milk;
498,8317; Average force at grab start; 13,65357; 0,3; 
503,8567; Released; 7 Milk ; 0,01940387; Goal Milk; 5,311005;
; Full force reached duration; 0; 98; 
; either pinky or ring attached duration5,311494; 
; maximal force reached during grab; 72,15; 
; grasp quality score; 0,5; 5,332733; 
\debugText{weaker/secondary fingers were attached for more than 60% of the time (99,60172%)
}
504,476; Successful Placement; 7 Milk ; 0,09114712; 87,40706; 56,98248; 10; 35,17233; 2,29306; 32,87927; 468,6843; 21,81015; 0,85;
507,3669; Grabbed; 6 Milk ; 0,5147557; Goal Milk;
507,6535; Average force at grab start; 46,42857; 0,3; 
509,3896; Released; 6 Milk ; 0,4235847; Goal Milk; 2,022705;
; Full force reached duration; 0; 98; 
; either pinky or ring attached duration2,032757; 
; maximal force reached during grab; 60,95; 
; grasp quality score; 1,5; 2,043823; 
\debugText{didn't start with an initially low force (46,42857)
weaker/secondary fingers were attached for more than 60% of the time (99,45856%)
}
511,0999; Grabbed; 6 Milk ; 0,4235333; Goal Milk;
511,3884; Average force at grab start; 9,764285; 0,3; 
513,0121; Released; 6 Milk ; 0,3926601; Goal Milk; 1,912231;
; Full force reached duration; 0; 98; 
; either pinky or ring attached duration0; 
; maximal force reached during grab; 55,6; 
; grasp quality score; 0; 1,932953; 
\debugText{}
515,3455; Grabbed; 6 Milk ; 0,4093874; Goal Milk;
515,6519; Average force at grab start; 45,75333; 0,3; 
516,8552; Released; 6 Milk ; 0,394662; Goal Milk; 1,509705;
; Full force reached duration; 0; 98; 
; either pinky or ring attached duration1,248927; 
; maximal force reached during grab; 50; 
; grasp quality score; 1,5; 1,520721; 
\debugText{didn't start with an initially low force (45,75333)
weaker/secondary fingers were attached for more than 60% of the time (82,1273%)
}
518,9709; Grabbed; 6 Milk ; 0,4130547; Goal Milk;
519,1198; Released; 6 Milk ; 0,3761918; Goal Milk; 0,1488037;
; Full force reached duration; 0; 98; 
; either pinky or ring attached duration0,1640729; 
; maximal force reached during grab; 50; 
519,275; Average force at grab start; 11,21; 0,3; 
; grasp quality score; 0; 0,3161316; 
\debugText{}
519,429; Grabbed; 6 Milk ; 0,4070771; Goal Milk;
519,7185; Average force at grab start; 9,857142; 0,3; 
523,3008; Released; 6 Milk ; 0,00188185; Goal Milk; 3,871765;
; Full force reached duration; 0; 98; 
; either pinky or ring attached duration3,879428; 
; maximal force reached during grab; 44,5; 
; grasp quality score; 0,5; 3,888062; 
\debugText{weaker/secondary fingers were attached for more than 60% of the time (99,77795%)
}
523,6093; Grabbed; 6 Milk ; 0,002153347; Goal Milk;
523,6322; Released; 6 Milk ; 0,002003952; Goal Milk; 0,02294922;
; Full force reached duration; 0; 98; 
; either pinky or ring attached duration0; 
; maximal force reached during grab; 10,65; 
523,8074; Successful Placement; 6 Milk ; 0,001665795; 5,357376; 18,83081; 6; 9,488159; 0; 9,488159; 514,144; 9,342651; 0,7;
523,9089; Average force at grab start; 10,41786; 0,3; 
; grasp quality score; 0; 0,315979; 
\debugText{}
528,6334; Grabbed; 4 Book; 0,431137; Goal Book;
528,9218; Average force at grab start; 92,77828; 0,3; 
536,589; Released; 4 Book; 0,4141859; Goal Book; 7,955627;
; Full force reached duration; 5,643762; 98; 
; either pinky or ring attached duration7,966314; 
; maximal force reached during grab; 100; 
; grasp quality score; 5; 7,976318; 
\debugText{didn't start with an initially low force (92,77828)
could reach full force
could reach full force for more than 300ms (exactly 0,05643762ms)
more than 10% of the time full force was reached (70,75648%)
weaker/secondary fingers were attached for more than 60% of the time (99,87458%)
}
539,3444; Grabbed; 4 Book; 0,4005462; Goal Book;
539,6305; Average force at grab start; 95,06429; 0,3; 
543,6998; Released; 4 Book; 0,02034906; Goal Book; 4,355408;
; Full force reached duration; 4,256661; 98; 
; either pinky or ring attached duration4,366843; 
; maximal force reached during grab; 100; 
; grasp quality score; 5; 4,375732; 
\debugText{didn't start with an initially low force (95,06429)
could reach full force
could reach full force for more than 300ms (exactly 0,04256661ms)
more than 10% of the time full force was reached (97,27883%)
weaker/secondary fingers were attached for more than 60% of the time (99,79685%)
}
544,2733; Successful Placement; 4 Book; 0,008566543; 4,840044; 19,96527; 2; 12,31104; 0; 12,31104; 531,3887; 7,654236; 3,333333;
545,6772; Grabbed; 1 Book; 0,499189; Goal Book;
545,7505; Released; 1 Book; 0,4985054; Goal Book; 0,07330322;
; Full force reached duration; 0; 98; 
; either pinky or ring attached duration0,08392341; 
; maximal force reached during grab; 7,625; 
545,9666; Average force at grab start; 5,66454; 0,3; 
; grasp quality score; 0; 0,3043823; 
\debugText{}
546,1383; Grabbed; 1 Book; 0,4995258; Goal Book;
546,4299; Average force at grab start; 80,54893; 0,3; 
550,7991; Released; 1 Book; 0,03026742; Goal Book; 4,660828;
; Full force reached duration; 4,562316; 98; 
; either pinky or ring attached duration4,671839; 
; maximal force reached during grab; 100; 
; grasp quality score; 5; 4,675659; 
\debugText{didn't start with an initially low force (80,54893)
could reach full force
could reach full force for more than 300ms (exactly 0,04562316ms)
more than 10% of the time full force was reached (97,57589%)
weaker/secondary fingers were attached for more than 60% of the time (99,9183%)
}
551,374; Successful Placement; 1 Book; 0,004907345; 11,43785; 6,599915; 2; 4,734131; 0; 4,734131; 546,065; 1,865784; 2,5;
554,8218; Grabbed; 3 Book; 0,3894874; Goal Book;
555,1296; Average force at grab start; 46,66667; 0,3; 
562,8665; Released; 3 Book; 0,0009533775; Goal Book; 8,044678;
; Full force reached duration; 0; 98; 
; either pinky or ring attached duration0; 
; maximal force reached during grab; 50; 
; grasp quality score; 1; 8,053406; 
\debugText{didn't start with an initially low force (46,66667)
}
563,3049; Grabbed; 3 Book; 0,06470396; Goal Book;
563,5955; Average force at grab start; 79,16071; 0,3; 
565,2881; Released; 3 Book; 0,03166856; Goal Book; 1,983215;
; Full force reached duration; 0,101861; 98; 
; either pinky or ring attached duration0,356478; 
; maximal force reached during grab; 100; 
; grasp quality score; 2; 1,997314; 
\debugText{didn't start with an initially low force (79,16071)
could reach full force
}
565,8448; Successful Placement; 3 Book; 0,0309137; 6,579357; 13,97003; 2; 10,02789; 0,2675171; 9,760376; 555,2602; 3,942139; 1,5;
567,4879; Grabbed; 2 Book; 0,3750789; Goal Book;
567,7736; Average force at grab start; 92,73885; 0,3; 
570,4212; Released; 2 Book; 0,1094207; Goal Book; 2,933289;
; Full force reached duration; 2,932998; 98; 
; either pinky or ring attached duration2,944108; 
; maximal force reached during grab; 100; 
; grasp quality score; 5; 2,95282; 
\debugText{didn't start with an initially low force (92,73885)
could reach full force
could reach full force for more than 300ms (exactly 0,02932998ms)
more than 10% of the time full force was reached (99,3287%)
weaker/secondary fingers were attached for more than 60% of the time (99,70498%)
}
570,7515; Grabbed; 2 Book; 0,08784836; Goal Book;
571,0427; Average force at grab start; 56,24286; 0,3; 
577,4204; Released; 2 Book; 0,1089358; Goal Book; 6,668884;
; Full force reached duration; 0,2662314; 98; 
; either pinky or ring attached duration6,50633; 
; maximal force reached during grab; 100; 
; grasp quality score; 2,5; 6,685669; 
\debugText{didn't start with an initially low force (56,24286)
could reach full force
weaker/secondary fingers were attached for more than 60% of the time (97,31756%)
}
579,4207; Grabbed; 2 Book; 0,3763082; Goal Book;
579,7089; Average force at grab start; 86,91071; 0,3; 
585,2655; Released; 2 Book; 0,0103002; Goal Book; 5,844849;
; Full force reached duration; 5,750298; 98; 
; either pinky or ring attached duration5,855537; 
; maximal force reached during grab; 100; 
; grasp quality score; 5; 5,863525; 
\debugText{didn't start with an initially low force (86,91071)
could reach full force
could reach full force for more than 300ms (exactly 0,05750298ms)
more than 10% of the time full force was reached (98,06895%)
weaker/secondary fingers were attached for more than 60% of the time (99,86376%)
}
585,8635; Successful Placement; 2 Book; 0,006356261; 0,1582587; 19,51819; 3; 15,44702; 5,310364; 10,13666; 569,8185; 4,071167; 4,166667;
591,5312; Grabbed; 8 Milk ; 0,4781348; Goal Milk;
591,8217; Average force at grab start; 32,7176; 0,3; 
595,2869; Released; 8 Milk ; 0,03167587; Goal Milk; 3,755737;
; Full force reached duration; 0; 98; 
; either pinky or ring attached duration3,766301; 
; maximal force reached during grab; 76,45; 
; grasp quality score; 1,5; 3,774292; 
\debugText{didn't start with an initially low force (32,7176)
weaker/secondary fingers were attached for more than 60% of the time (99,78829%)
}
595,9501; Successful Placement; 8 Milk ; 0,03658612; 14,35686; 9,585999; 1; 3,755737; 0; 3,755737; 591,5312; 5,830261; 1,5;
601,7753; Grabbed; 10 Soup; 0,7069865; Goal Soup (B);
602,0638; Average force at grab start; 66,89453; 0,3; 
603,4429; Released; 10 Soup; 0,5164525; Goal Soup (B); 1,667603;
; Full force reached duration; 0,3924655; 98; 
; either pinky or ring attached duration1,582619; 
; maximal force reached during grab; 99,75; 
; grasp quality score; 5; 1,685425; 
\debugText{didn't start with an initially low force (66,89453)
could reach full force
could reach full force for more than 300ms (exactly 0,003924655ms)
more than 10% of the time full force was reached (23,28585%)
weaker/secondary fingers were attached for more than 60% of the time (93,9003%)
}
605,9971; Grabbed; 10 Soup; 0,4690565; Goal Soup (B);
606,2886; Average force at grab start; 84,46428; 0,3; 
609,0259; Released; 10 Soup; 0,02152196; Goal Soup (B); 3,028809;
; Full force reached duration; 0; 98; 
; either pinky or ring attached duration3,034127; 
; maximal force reached during grab; 96,95; 
; grasp quality score; 1,5; 3,046692; 
\debugText{didn't start with an initially low force (84,46428)
weaker/secondary fingers were attached for more than 60% of the time (99,58759%)
}
612,3088; Grabbed; 10 Soup; 0,07663584; Goal Soup (B);
612,5947; Average force at grab start; 75,75358; 0,3; 
615,6198; Released; 10 Soup; 0,07231295; Goal Soup (B); 3,310913;
; Full force reached duration; 0; 98; 
; either pinky or ring attached duration3,322556; 
; maximal force reached during grab; 91,5; 
; grasp quality score; 1,5; 3,329163; 
\debugText{didn't start with an initially low force (75,75358)
weaker/secondary fingers were attached for more than 60% of the time (99,80157%)
}
617,043; Grabbed; 10 Soup; 0,05975544; Goal Soup (B);
617,3518; Average force at grab start; 34,99334; 0,3; 
622,5032; Released; 10 Soup; 0,01605348; Goal Soup (B); 5,460205;
; Full force reached duration; 0; 98; 
; either pinky or ring attached duration5,473152; 
; maximal force reached during grab; 81,45; 
; grasp quality score; 1,5; 5,468262; 
\debugText{didn't start with an initially low force (34,99334)
weaker/secondary fingers were attached for more than 60% of the time (100,0894%)
}
625,4206; Grabbed; 10 Soup; 0,0156193; Goal Soup (B);
625,736; Average force at grab start; 73,69666; 0,3; 
627,8637; Released; 10 Soup; 0,01997263; Goal Soup (B); 2,443115;
; Full force reached duration; 1,972605; 98; 
; either pinky or ring attached duration2,421928; 
; maximal force reached during grab; 100; 
; grasp quality score; 5; 2,451111; 
\debugText{didn't start with an initially low force (73,69666)
could reach full force
could reach full force for more than 300ms (exactly 0,01972605ms)
more than 10% of the time full force was reached (80,478%)
weaker/secondary fingers were attached for more than 60% of the time (98,80939%)
}
628,6157; Successful Placement; 10 Soup; 0,01367945; 4,055737; 32,16486; 5; 15,91064; 7,884155; 8,026489; 611,9531; 16,25421; 2,9;
631,508; Grabbed; 12 Soup; 0,5706922; Goal Soup (B);
631,7965; Average force at grab start; 82,46837; 0,3; 
636,9972; Released; 12 Soup; 0,4813922; Goal Soup (B); 5,489197;
; Full force reached duration; 5,244771; 98; 
; either pinky or ring attached duration5,467175; 
; maximal force reached during grab; 100; 
; grasp quality score; 5; 5,506653; 
\debugText{didn't start with an initially low force (82,46837)
could reach full force
could reach full force for more than 300ms (exactly 0,05244771ms)
more than 10% of the time full force was reached (95,24427%)
weaker/secondary fingers were attached for more than 60% of the time (99,28309%)
}
638,3739; Grabbed; 12 Soup; 0,4086294; Goal Soup (B);
638,6608; Average force at grab start; 72,40357; 0,3; 
639,7073; Released; 12 Soup; 0,5289299; Goal Soup (B); 1,333374;
; Full force reached duration; 0,7258716; 98; 
; either pinky or ring attached duration0,01111111; 
; maximal force reached during grab; 100; 
; grasp quality score; 4,5; 1,350098; 
\debugText{didn't start with an initially low force (72,40357)
could reach full force
could reach full force for more than 300ms (exactly 0,007258716ms)
more than 10% of the time full force was reached (53,76438%)
}
640,0181; Grabbed; 12 Soup; 0,5093349; Goal Soup (B);
640,3068; Average force at grab start; 64,95358; 0,3; 
640,9289; Released; 12 Soup; 0,3364556; Goal Soup (B); 0,9107666;
; Full force reached duration; 0; 98; 
; either pinky or ring attached duration0; 
; maximal force reached during grab; 78,55; 
; grasp quality score; 1; 0,927063; 
\debugText{didn't start with an initially low force (64,95358)
}
642,1519; Grabbed; 12 Soup; 0,3534738; Goal Soup (B);
642,4426; Average force at grab start; 75,62858; 0,3; 
644,7965; Released; 12 Soup; 0,008290801; Goal Soup (B); 2,644592;
; Full force reached duration; 2,110834; 98; 
; either pinky or ring attached duration0,3596799; 
; maximal force reached during grab; 100; 
; grasp quality score; 4,5; 2,661865; 
\debugText{didn't start with an initially low force (75,62858)
could reach full force
could reach full force for more than 300ms (exactly 0,02110834ms)
more than 10% of the time full force was reached (79,29906%)
}
649,9758; Grabbed; 12 Soup; 0,001887031; Goal Soup (B);
650,2872; Average force at grab start; 33,79667; 0,3; 
656,3748; Released; 12 Soup; 0,01692543; Goal Soup (B); 6,398926;
; Full force reached duration; 0; 98; 
; either pinky or ring attached duration6,155273; 
; maximal force reached during grab; 96,15; 
; grasp quality score; 1,5; 6,40625; 
\debugText{didn't start with an initially low force (33,79667)
weaker/secondary fingers were attached for more than 60% of the time (96,08231%)
}
657,4858; Successful Placement; 12 Soup; 0,04120533; 8,637121; 28,36945; 5; 16,77686; 6,303711; 10,47314; 639,5979; 11,59259; 3,3;
659,2847; Grabbed; 9 Soup; 0,4902205; Goal Soup (B);
659,5831; Average force at grab start; 82,77313; 0,3; 
665,9958; Released; 9 Soup; 0,02333108; Goal Soup (B); 6,711121;
; Full force reached duration; 6,223474; 98; 
; either pinky or ring attached duration6,666036; 
; maximal force reached during grab; 100; 
; grasp quality score; 5; 6,727722; 
\debugText{didn't start with an initially low force (82,77313)
could reach full force
could reach full force for more than 300ms (exactly 0,06223474ms)
more than 10% of the time full force was reached (92,50491%)
weaker/secondary fingers were attached for more than 60% of the time (99,08311%)
}
667,6409; Grabbed; 9 Soup; 0,04609183; Goal Soup (B);
667,9534; Average force at grab start; 80,97; 0,3; 
670,2403; Released; 9 Soup; 0,006853803; Goal Soup (B); 2,599426;
; Full force reached duration; 2,377659; 98; 
; either pinky or ring attached duration2,577796; 
; maximal force reached during grab; 100; 
; grasp quality score; 5; 2,605469; 
\debugText{didn't start with an initially low force (80,97)
could reach full force
could reach full force for more than 300ms (exactly 0,02377659ms)
more than 10% of the time full force was reached (91,25647%)
weaker/secondary fingers were attached for more than 60% of the time (98,93788%)
}
670,9694; Successful Placement; 9 Soup; 0,0229634; 14,69945; 12,98297; 2; 9,310547; 6,546387; 2,76416; 660,9297; 3,672424; 5;
672,5286; Grabbed; 11 Soup; 0,4966432; Goal Soup (B);
672,8148; Average force at grab start; 88,8648; 0,3; 
674,3074; Released; 11 Soup; 0,1908561; Goal Soup (B); 1,778809;
; Full force reached duration; 1,622499; 98; 
; either pinky or ring attached duration1,789084; 
; maximal force reached during grab; 100; 
; grasp quality score; 5; 1,794434; 
\debugText{didn't start with an initially low force (88,8648)
could reach full force
could reach full force for more than 300ms (exactly 0,016225ms)
more than 10% of the time full force was reached (90,41847%)
weaker/secondary fingers were attached for more than 60% of the time (99,70186%)
}
675,929; Grabbed; 11 Soup; 0,1920397; Goal Soup (B);
676,2195; Average force at grab start; 95; 0,3; 
677,5298; Released; 11 Soup; 0,2819556; Goal Soup (B); 1,600891;
; Full force reached duration; 1,483678; 98; 
; either pinky or ring attached duration1,611801; 
; maximal force reached during grab; 100; 
; grasp quality score; 5; 1,616821; 
\debugText{didn't start with an initially low force (95)
could reach full force
could reach full force for more than 300ms (exactly 0,01483678ms)
more than 10% of the time full force was reached (91,76511%)
weaker/secondary fingers were attached for more than 60% of the time (99,68947%)
}
683,5536; Grabbed; 11 Soup; 1,720738; Goal Soup (B);
683,8519; Average force at grab start; 95,26316; 0,3; 
691,0508; Released; 11 Soup; 0,006609126; Goal Soup (B); 7,497131;
; Full force reached duration; 7,050357; 98; 
; either pinky or ring attached duration7,501112; 
; maximal force reached during grab; 100; 
; grasp quality score; 5; 7,505005; 
\debugText{didn't start with an initially low force (95,26316)
could reach full force
could reach full force for more than 300ms (exactly 0,07050357ms)
more than 10% of the time full force was reached (93,94208%)
weaker/secondary fingers were attached for more than 60% of the time (99,94813%)
}
691,7426; Successful Placement; 11 Soup; 0,006902928; 5,24035; 20,27246; 3; 10,87683; 0; 10,87683; 680,174; 9,39563; 5;
691,7433;Task finishedB ;Binary;
691,7439; Task changed; A ;Binary;
697,1621; Grabbed; 13 Soup; 
697,4556; Average force at grab start; 81,30238; 0,3; 
710,0947; Released; 13 Soup;  12,93262;
; Full force reached duration; 8,794689; 98; 
; either pinky or ring attached duration12,93394; 
; maximal force reached during grab; 100; 
; grasp quality score; 5; 12,94897; 
\debugText{didn't start with an initially low force (81,30238)
could reach full force
could reach full force for more than 300ms (exactly 0,08794689ms)
more than 10% of the time full force was reached (67,91804%)
weaker/secondary fingers were attached for more than 60% of the time (99,88388%)
}
711,8719; Grabbed; 13 Soup; 
712,1631; Average force at grab start; 36,43929; 0,3; 
715,25; Released; 13 Soup;  3,378052;
; Full force reached duration; 2,021461; 98; 
; either pinky or ring attached duration3,389273; 
; maximal force reached during grab; 99,75; 
; grasp quality score; 5; 3,393005; 
\debugText{didn't start with an initially low force (36,43929)
could reach full force
could reach full force for more than 300ms (exactly 0,02021461ms)
more than 10% of the time full force was reached (59,57731%)
weaker/secondary fingers were attached for more than 60% of the time (99,89001%)
}
716,6497; Grabbed; 13 Soup; 
716,9597; Average force at grab start; 58,64667; 0,3; 
720,495; Released; 13 Soup;  3,845276;
; Full force reached duration; 0; 98; 
; either pinky or ring attached duration3,85456; 
; maximal force reached during grab; 82,8; 
; grasp quality score; 1,5; 3,859741; 
\debugText{didn't start with an initially low force (58,64667)
weaker/secondary fingers were attached for more than 60% of the time (99,86575%)
}
722,4053; Grabbed; 13 Soup; 
722,6979; Average force at grab start; 69,37857; 0,3; 
728,0501; Released; 13 Soup;  5,644836;
; Full force reached duration; 0; 98; 
; either pinky or ring attached duration5,655365; 
; maximal force reached during grab; 91,55; 
; grasp quality score; 1,5; 5,659363; 
\debugText{didn't start with an initially low force (69,37857)
weaker/secondary fingers were attached for more than 60% of the time (99,92935%)
}
728,6509; Successful Placement; 13 Soup; 0,01305154; 0,6355037; 36,40771; 4; 25,80078; 21,9422; 3,858582; 702,2493; 10,60693; 3,25;
734,4714; Grabbed; 14 Soup; 
734,7632; Average force at grab start; 69,75923; 0,3; 
740,3381; Released; 14 Soup;  5,866638;
; Full force reached duration; 0; 98; 
; either pinky or ring attached duration5,87764; 
; maximal force reached during grab; 96,05; 
; grasp quality score; 1,5; 5,881042; 
\debugText{didn't start with an initially low force (69,75923)
weaker/secondary fingers were attached for more than 60% of the time (99,94214%)
}
740,9392; Successful Placement; 14 Soup; 0,007666619; 8,135595; 11,78772; 1; 5,866638; 4,887878; 0,9787598; 734,4714; 5,921082; 1,5;
743,2495; Grabbed; 15 Soup; 
743,5417; Average force at grab start; 28,81786; 0,3; 
748,1824; Released; 15 Soup;  4,932922;
; Full force reached duration; 2,087907; 98; 
; either pinky or ring attached duration4,944503; 
; maximal force reached during grab; 100; 
; grasp quality score; 4; 4,947571; 
\debugText{could reach full force
could reach full force for more than 300ms (exactly 0,02087907ms)
more than 10% of the time full force was reached (42,20064%)
weaker/secondary fingers were attached for more than 60% of the time (99,93799%)
}
748,8461; Successful Placement; 15 Soup; 0,01146053; 15,18529; 7,406311; 1; 4,932922; 3,472229; 1,460693; 743,2495; 2,473389; 4;
751,0268; Grabbed; 16 Soup; 
751,3347; Average force at grab start; 38,60889; 0,3; 
756,6713; Released; 16 Soup;  5,644531;
; Full force reached duration; 2,022589; 98; 
; either pinky or ring attached duration5,655592; 
; maximal force reached during grab; 100; 
; grasp quality score; 5; 5,658813; 
\debugText{didn't start with an initially low force (38,60889)
could reach full force
could reach full force for more than 300ms (exactly 0,02022589ms)
more than 10% of the time full force was reached (35,74228%)
weaker/secondary fingers were attached for more than 60% of the time (99,94308%)
}
757,2929; Successful Placement; 16 Soup; 0,003817339; 0; 7,946106; 1; 5,644531; 3,47229; 2,172241; 751,0268; 2,301575; 5;
759,1389; Grabbed; 17 Soup; 
759,4465; Average force at grab start; 53,53851; 0,3; 
763,9155; Released; 17 Soup;  4,776672;
; Full force reached duration; 0,0397917; 98; 
; either pinky or ring attached duration4,78942; 
; maximal force reached during grab; 99,3; 
; grasp quality score; 2,5; 4,780212; 
\debugText{didn't start with an initially low force (53,53851)
could reach full force
weaker/secondary fingers were attached for more than 60% of the time (100,1926%)
}
765,1801; Grabbed; 17 Soup; 
765,4707; Average force at grab start; 49,56429; 0,3; 
767,3819; Released; 17 Soup;  2,201843;
; Full force reached duration; 0; 98; 
; either pinky or ring attached duration2,211779; 
; maximal force reached during grab; 78,85; 
; grasp quality score; 1,5; 2,213745; 
\debugText{didn't start with an initially low force (49,56429)
weaker/secondary fingers were attached for more than 60% of the time (99,91118%)
}
768,4252; Grabbed; 17 Soup; 
768,7163; Average force at grab start; 33,42857; 0,3; 
771,6708; Released; 17 Soup;  3,245605;
; Full force reached duration; 0; 98; 
; either pinky or ring attached duration0,2555231; 
; maximal force reached during grab; 92,75; 
; grasp quality score; 1; 3,257751; 
\debugText{didn't start with an initially low force (33,42857)
}
771,9788; Grabbed; 17 Soup; 
772,2698; Average force at grab start; 48,05714; 0,3; 
772,2917; Released; 17 Soup;  0,3129883;
; Full force reached duration; 0; 98; 
; either pinky or ring attached duration0,121414; 
; maximal force reached during grab; 50; 
; grasp quality score; 1; 0,3228149; 
\debugText{didn't start with an initially low force (48,05714)
}
772,9162; Successful Placement; 17 Soup; 0,02102897; 18,7428; 15,12268; 4; 10,53711; 2,907959; 7,62915; 761,7546; 4,585571; 1,5;
774,8489; Grabbed; 18 Soup; 
775,1583; Average force at grab start; 16,6313; 0,3; 
776,9367; Released; 18 Soup;  2,08783;
; Full force reached duration; 0; 98; 
; either pinky or ring attached duration0,3834867; 
; maximal force reached during grab; 56,9; 
; grasp quality score; 0; 2,090942; 
\debugText{}
778,1141; Grabbed; 18 Soup; 
778,4051; Average force at grab start; 43,42142; 0,3; 
779,8698; Released; 18 Soup;  1,755615;
; Full force reached duration; 0; 98; 
; either pinky or ring attached duration1,768011; 
; maximal force reached during grab; 74,8; 
; grasp quality score; 1,5; 1,768616; 
\debugText{didn't start with an initially low force (43,42142)
weaker/secondary fingers were attached for more than 60% of the time (99,96581%)
}
780,8471; Grabbed; 18 Soup; 
781,1589; Average force at grab start; 47,24666; 0,3; 
782,498; Released; 18 Soup;  1,65094;
; Full force reached duration; 0; 98; 
; either pinky or ring attached duration1,612623; 
; maximal force reached during grab; 88,8; 
; grasp quality score; 1,5; 1,663086; 
\debugText{didn't start with an initially low force (47,24666)
weaker/secondary fingers were attached for more than 60% of the time (96,96568%)
}
783,825; Grabbed; 18 Soup; 
784,1346; Average force at grab start; 32,42333; 0,3; 
791,1808; Released; 18 Soup;  7,355835;
; Full force reached duration; 0,8899193; 98; 
; either pinky or ring attached duration7,368213; 
; maximal force reached during grab; 98,8; 
; grasp quality score; 5; 7,368103; 
\debugText{didn't start with an initially low force (32,42333)
could reach full force
could reach full force for more than 300ms (exactly 0,008899193ms)
more than 10% of the time full force was reached (12,078%)
weaker/secondary fingers were attached for more than 60% of the time (100,0015%)
}
792,8699; Grabbed; 18 Soup; 
793,1779; Average force at grab start; 53,82; 0,3; 
795,426; Released; 18 Soup;  2,556091;
; Full force reached duration; 0; 98; 
; either pinky or ring attached duration2,566994; 
; maximal force reached during grab; 83,55; 
; grasp quality score; 1,5; 2,568665; 
\debugText{didn't start with an initially low force (53,82)
weaker/secondary fingers were attached for more than 60% of the time (99,93497%)
}
796,5814; Grabbed; 18 Soup; 
796,8889; Average force at grab start; 12,95333; 0,3; 
798,1813; Released; 18 Soup;  1,599915;
; Full force reached duration; 0; 98; 
; either pinky or ring attached duration1,00903; 
; maximal force reached during grab; 52,4; 
; grasp quality score; 0,5; 1,601929; 
\debugText{weaker/secondary fingers were attached for more than 60% of the time (62,98841%)
}
798,8271; Successful Placement; 18 Soup; 0,006208088; 19,11728; 25,41028; 6; 17,00623; 5,298401; 11,70782; 781,1751; 8,404053; 1,666667;
798,8277;Task finishedA ;Binary;
removed records of first attempt at condition 2;
insert second, successful attempt of condition 2;
41,69955; Task changed; B ;Fixed;
45,56617; Grabbed; 3 Book; 0,3985564; Goal Book;
45,85047; Average force at grab start; 52,74433; 0,3; 
51,80988; Released; 3 Book; 0,1934279; Goal Book; 6,24371;
; Full force reached duration; 0,0223892; 98; 
; either pinky or ring attached duration5,139623; 
; maximal force reached during grab; 98,35; 
; grasp quality score; 2,5; 6,261131; 
\debugText{didn't start with an initially low force (52,74433)
could reach full force
weaker/secondary fingers were attached for more than 60% of the time (82,08777%)
}
53,40862; Grabbed; 3 Book; 0,3617671; Goal Book;
53,72096; Average force at grab start; 75,9; 0,3; 
58,69718; Released; 3 Book; 0,03376642; Goal Book; 5,288567;
; Full force reached duration; 4,865699; 98; 
; either pinky or ring attached duration0; 
; maximal force reached during grab; 100; 
; grasp quality score; 4,5; 5,295219; 
\debugText{didn't start with an initially low force (75,9)
could reach full force
could reach full force for more than 300ms (exactly 0,04865699ms)
more than 10% of the time full force was reached (91,88853%)
}
59,65528; Successful Placement; 3 Book; 0,01265686; 17,61798; 59,15461; 2; 11,53228; 0; 11,53228; 47,16491; 47,62233; 3,5;
61,65195; Grabbed; 1 Book; 0,5007766; Goal Book;
61,93721; Average force at grab start; 92,85714; 0,3; 
67,31908; Released; 1 Book; 0,01829634; Goal Book; 5,66713;
; Full force reached duration; 5,666528; 98; 
; either pinky or ring attached duration5,677639; 
; maximal force reached during grab; 100; 
; grasp quality score; 5; 5,682823; 
\debugText{didn't start with an initially low force (92,85714)
could reach full force
could reach full force for more than 300ms (exactly 0,05666528ms)
more than 10% of the time full force was reached (99,71326%)
weaker/secondary fingers were attached for more than 60% of the time (99,90878%)
}
67,89307; Successful Placement; 1 Book; 0,001649443; 7,749692; 7,737091; 1; 5,66713; 0; 5,66713; 61,65195; 2,069962; 5;
72,896; Grabbed; 12 Soup; 0,5679189; Goal Soup (B);
73,18633; Average force at grab start; 56,80209; 0,3; 
75,07419; Released; 12 Soup; 0,5464572; Goal Soup (B); 2,178192;
; Full force reached duration; 0,8224739; 98; 
; either pinky or ring attached duration1,977544; 
; maximal force reached during grab; 100; 
; grasp quality score; 5; 2,193764; 
\debugText{didn't start with an initially low force (56,80209)
could reach full force
could reach full force for more than 300ms (exactly 0,00822474ms)
more than 10% of the time full force was reached (37,49146%)
weaker/secondary fingers were attached for more than 60% of the time (90,14391%)
}
76,99162; Grabbed; 12 Soup; 0,5348169; Goal Soup (B);
77,30372; Average force at grab start; 88,69001; 0,3; 
78,01612; Released; 12 Soup; 0,5151945; Goal Soup (B); 1,024498;
; Full force reached duration; 0,6847834; 98; 
; either pinky or ring attached duration1,035704; 
; maximal force reached during grab; 100; 
; grasp quality score; 5; 1,036034; 
\debugText{didn't start with an initially low force (88,69001)
could reach full force
could reach full force for more than 300ms (exactly 0,006847834ms)
more than 10% of the time full force was reached (66,09664%)
weaker/secondary fingers were attached for more than 60% of the time (99,96823%)
}
79,52933; Grabbed; 12 Soup; 0,5173946; Goal Soup (B);
79,81859; Average force at grab start; 73,62858; 0,3; 
83,35221; Released; 12 Soup; 0,002686579; Goal Soup (B); 3,822884;
; Full force reached duration; 0,3122418; 98; 
; either pinky or ring attached duration3,833141; 
; maximal force reached during grab; 99,15; 
; grasp quality score; 4; 3,83886; 
\debugText{didn't start with an initially low force (73,62858)
could reach full force
could reach full force for more than 300ms (exactly 0,003122418ms)
weaker/secondary fingers were attached for more than 60% of the time (99,85104%)
}
83,92904; Successful Placement; 12 Soup; 0,001967477; 2,052058; 15,53524; 3; 7,025574; 0; 7,025574; 76,32664; 8,509666; 4,666667;
85,32846; Grabbed; 9 Soup; 0,4906093; Goal Soup (B);
85,61964; Average force at grab start; 1,020238; 0,3; 
88,5738; Released; 9 Soup; 0,01460045; Goal Soup (B); 3,245338;
; Full force reached duration; 0; 98; 
; either pinky or ring attached duration1,888784; 
; maximal force reached during grab; 70,2; 
; grasp quality score; 0; 3,260147; 
\debugText{}
89,17493; Successful Placement; 9 Soup; 0,01731819; 11,21455; 4,74527; 1; 3,245338; 0; 3,245338; 85,32846; 1,499931; 0;
94,61736; Grabbed; 4 Book; 0,4394947; Goal Book;
94,90619; Average force at grab start; 92,85714; 0,3; 
95,86274; Released; 4 Book; 0,4401085; Goal Book; 1,245384;
; Full force reached duration; 1,244079; 98; 
; either pinky or ring attached duration1,25519; 
; maximal force reached during grab; 100; 
; grasp quality score; 5; 1,260231; 
\debugText{didn't start with an initially low force (92,85714)
could reach full force
could reach full force for more than 300ms (exactly 0,01244079ms)
more than 10% of the time full force was reached (98,7183%)
weaker/secondary fingers were attached for more than 60% of the time (99,59998%)
}
99,50594; Grabbed; 4 Book; 0,4278072; Goal Book;
99,79722; Average force at grab start; 100; 0,3; 
100,4395; Released; 4 Book; 0,4148034; Goal Book; 0,9335556;
; Full force reached duration; 0,9447641; 98; 
; either pinky or ring attached duration0,9447641; 
; maximal force reached during grab; 100; 
; grasp quality score; 5; 0,9485397; 
\debugText{didn't start with an initially low force (100)
could reach full force
could reach full force for more than 300ms (exactly 0,009447642ms)
more than 10% of the time full force was reached (99,60196%)
weaker/secondary fingers were attached for more than 60% of the time (99,60196%)
}
102,1055; Grabbed; 4 Book; 0,4175327; Goal Book;
102,4144; Average force at grab start; 100; 0,3; 
104,7955; Released; 4 Book; 0,01543283; Goal Book; 2,69001;
; Full force reached duration; 2,699823; 98; 
; either pinky or ring attached duration2,699823; 
; maximal force reached during grab; 100; 
; grasp quality score; 5; 2,704185; 
\debugText{didn't start with an initially low force (100)
could reach full force
could reach full force for more than 300ms (exactly 0,02699823ms)
more than 10% of the time full force was reached (99,83869%)
weaker/secondary fingers were attached for more than 60% of the time (99,83869%)
}
105,3311; Successful Placement; 4 Book; 0,005843404; 2,381166; 15,65557; 3; 4,86895; 0; 4,86895; 99,92658; 10,78662; 5;
108,0839; Grabbed; 11 Soup; 0,5165473; Goal Soup (B);
108,3747; Average force at grab start; 92,85714; 0,3; 
110,4621; Released; 11 Soup; 0,3495236; Goal Soup (B); 2,37822;
; Full force reached duration; 1,955677; 98; 
; either pinky or ring attached duration2,333119; 
; maximal force reached during grab; 100; 
; grasp quality score; 5; 2,392792; 
\debugText{didn't start with an initially low force (92,85714)
could reach full force
could reach full force for more than 300ms (exactly 0,01955677ms)
more than 10% of the time full force was reached (81,73203%)
weaker/secondary fingers were attached for more than 60% of the time (97,50615%)
}
111,9505; Grabbed; 11 Soup; 0,3251364; Goal Soup (B);
112,2592; Average force at grab start; 100; 0,3; 
113,3062; Released; 11 Soup; 0,406247; Goal Soup (B); 1,355705;
; Full force reached duration; 1,366463; 98; 
; either pinky or ring attached duration0,1835253; 
; maximal force reached during grab; 100; 
; grasp quality score; 4,5; 1,370224; 
\debugText{didn't start with an initially low force (100)
could reach full force
could reach full force for more than 300ms (exactly 0,01366463ms)
more than 10% of the time full force was reached (99,72552%)
}
114,8612; Grabbed; 11 Soup; 0,404643; Goal Soup (B);
115,1511; Average force at grab start; 97,14286; 0,3; 
116,8391; Released; 11 Soup; 0,004426751; Goal Soup (B); 1,977905;
; Full force reached duration; 1,717802; 98; 
; either pinky or ring attached duration1,933841; 
; maximal force reached during grab; 100; 
; grasp quality score; 5; 1,992355; 
\debugText{didn't start with an initially low force (97,14286)
could reach full force
could reach full force for more than 300ms (exactly 0,01717802ms)
more than 10% of the time full force was reached (86,21966%)
weaker/secondary fingers were attached for more than 60% of the time (97,06304%)
}
121,5505; Grabbed; 11 Soup; 0,007821945; Goal Soup (B);
121,8585; Average force at grab start; 100; 0,3; 
122,9508; Released; 11 Soup; 0,02993478; Goal Soup (B); 1,400276;
; Full force reached duration; 1,411043; 98; 
; either pinky or ring attached duration1,377001; 
; maximal force reached during grab; 100; 
; grasp quality score; 5; 1,414864; 
\debugText{didn't start with an initially low force (100)
could reach full force
could reach full force for more than 300ms (exactly 0,01411043ms)
more than 10% of the time full force was reached (99,73%)
weaker/secondary fingers were attached for more than 60% of the time (97,32396%)
}
123,7042; Successful Placement; 11 Soup; 0,0448661; 2,672068; 17,8724; 4; 7,112106; 0; 7,112106; 115,8387; 10,76029; 4,875;
125,5719; Grabbed; 6 Milk ; 0,5191132; Goal Milk;
125,863; Average force at grab start; 84,46845; 0,3; 
127,75; Released; 6 Milk ; 0,5424979; Goal Milk; 2,178101;
; Full force reached duration; 1,906219; 98; 
; either pinky or ring attached duration2,100169; 
; maximal force reached during grab; 100; 
; grasp quality score; 5; 2,192078; 
\debugText{didn't start with an initially low force (84,46845)
could reach full force
could reach full force for more than 300ms (exactly 0,01906219ms)
more than 10% of the time full force was reached (86,95947%)
weaker/secondary fingers were attached for more than 60% of the time (95,80724%)
}
129,0613; Grabbed; 6 Milk ; 0,5126679; Goal Milk;
129,3709; Average force at grab start; 80,86333; 0,3; 
130,2613; Released; 6 Milk ; 0,4742981; Goal Milk; 1,199921;
; Full force reached duration; 0; 98; 
; either pinky or ring attached duration0; 
; maximal force reached during grab; 93,75; 
; grasp quality score; 1; 1,214279; 
\debugText{didn't start with an initially low force (80,86333)
}
131,3287; Grabbed; 6 Milk ; 0,4819442; Goal Milk;
131,6391; Average force at grab start; 79,79333; 0,3; 
133,4831; Released; 6 Milk ; 0,01880792; Goal Milk; 2,154327;
; Full force reached duration; 2,002009; 98; 
; either pinky or ring attached duration2,006418; 
; maximal force reached during grab; 100; 
; grasp quality score; 5; 2,158546; 
\debugText{didn't start with an initially low force (79,79333)
could reach full force
could reach full force for more than 300ms (exactly 0,02002009ms)
more than 10% of the time full force was reached (92,748%)
weaker/secondary fingers were attached for more than 60% of the time (92,95225%)
}
134,105; Successful Placement; 6 Milk ; 0,009777627; 5,717245; 9,90023; 3; 5,532349; 0; 5,532349; 127,9507; 4,367882; 3,666667;
135,6383; Grabbed; 5 Milk; 0,5547158; Goal Milk;
135,9329; Average force at grab start; 50,32619; 0,3; 
138,4164; Released; 5 Milk; 0,008388883; Goal Milk; 2,778107;
; Full force reached duration; 0; 98; 
; either pinky or ring attached duration2,532778; 
; maximal force reached during grab; 86; 
; grasp quality score; 1,5; 2,792068; 
\debugText{didn't start with an initially low force (50,32619)
weaker/secondary fingers were attached for more than 60% of the time (90,7133%)
}
139,014; Successful Placement; 5 Milk; 0,008864291; 10,54331; 4,408173; 1; 2,778107; 0; 2,778107; 135,6383; 1,630066; 1,5;
140,4397; Grabbed; 7 Milk ; 0,4477207; Goal Milk;
140,7475; Average force at grab start; 66,02509; 0,3; 
142,8164; Released; 7 Milk ; 0,4022093; Goal Milk; 2,376678;
; Full force reached duration; 0; 98; 
; either pinky or ring attached duration0; 
; maximal force reached during grab; 85,35; 
; grasp quality score; 1; 2,38089; 
\debugText{didn't start with an initially low force (66,02509)
}
144,2606; Grabbed; 7 Milk ; 0,4165323; Goal Milk;
144,5518; Average force at grab start; 52,79642; 0,3; 
146,2609; Released; 7 Milk ; 0,01203717; Goal Milk; 2,000275;
; Full force reached duration; 0; 98; 
; either pinky or ring attached duration0; 
; maximal force reached during grab; 69,25; 
; grasp quality score; 1; 2,014084; 
\debugText{didn't start with an initially low force (52,79642)
}
147,5731; Grabbed; 7 Milk ; 0,02313695; Goal Milk;
147,8856; Average force at grab start; 56,39667; 0,3; 
149,3721; Released; 7 Milk ; 0,03242027; Goal Milk; 1,798996;
; Full force reached duration; 0; 98; 
; either pinky or ring attached duration1,717025; 
; maximal force reached during grab; 73,45; 
; grasp quality score; 1,5; 1,802994; 
\debugText{didn't start with an initially low force (56,39667)
weaker/secondary fingers were attached for more than 60% of the time (95,23188%)
}
150,7732; Grabbed; 7 Milk ; 0,03835582; Goal Milk;
151,0813; Average force at grab start; 78,34; 0,3; 
153,0381; Released; 7 Milk ; 0,01722534; Goal Milk; 2,264893;
; Full force reached duration; 2,018101; 98; 
; either pinky or ring attached duration2,172739; 
; maximal force reached during grab; 100; 
; grasp quality score; 5; 2,269073; 
\debugText{didn't start with an initially low force (78,34)
could reach full force
could reach full force for more than 300ms (exactly 0,02018101ms)
more than 10% of the time full force was reached (88,93943%)
weaker/secondary fingers were attached for more than 60% of the time (95,75445%)
}
153,7034; Successful Placement; 7 Milk ; 0,007807974; 1,843921; 14,18877; 4; 8,440842; 0; 8,440842; 144,5972; 5,747925; 2,125;
157,8153; Grabbed; 2 Book; 0,3702887; Goal Book;
158,124; Average force at grab start; 91,43278; 0,3; 
159,3937; Released; 2 Book; 0,3460603; Goal Book; 1,578354;
; Full force reached duration; 0,833712; 98; 
; either pinky or ring attached duration1,589329; 
; maximal force reached during grab; 100; 
; grasp quality score; 5; 1,591293; 
\debugText{didn't start with an initially low force (91,43278)
could reach full force
could reach full force for more than 300ms (exactly 0,00833712ms)
more than 10% of the time full force was reached (52,3921%)
weaker/secondary fingers were attached for more than 60% of the time (99,87658%)
}
160,8609; Grabbed; 2 Book; 0,4563205; Goal Book;
161,1726; Average force at grab start; 80,31667; 0,3; 
163,1268; Released; 2 Book; 0,02769905; Goal Book; 2,26593;
; Full force reached duration; 2,088034; 98; 
; either pinky or ring attached duration2,278445; 
; maximal force reached during grab; 100; 
; grasp quality score; 5; 2,268784; 
\debugText{didn't start with an initially low force (80,31667)
could reach full force
could reach full force for more than 300ms (exactly 0,02088034ms)
more than 10% of the time full force was reached (92,0332%)
weaker/secondary fingers were attached for more than 60% of the time (100,4258%)
}
163,6794; Successful Placement; 2 Book; 0,01183991; 3,296828; 9,475464; 2; 3,844284; 0; 3,844284; 159,2825; 5,63118; 5;
165,4605; Grabbed; 8 Milk ; 0,4811836; Goal Milk;
165,7689; Average force at grab start; 55,7; 0,3; 
167,4597; Released; 8 Milk ; 0,02338936; Goal Milk; 1,99913;
; Full force reached duration; 0; 98; 
; either pinky or ring attached duration0,617131; 
; maximal force reached during grab; 85,1; 
; grasp quality score; 1; 2,013092; 
\debugText{didn't start with an initially low force (55,7)
}
168,08; Successful Placement; 8 Milk ; 0,0246281; 4,149428; 3,899673; 1; 1,99913; 0; 1,99913; 165,4605; 1,900543; 1;
170,0598; Grabbed; 10 Soup; 0,7020755; Goal Soup (B);
170,3685; Average force at grab start; 86,96019; 0,3; 
171,2369; Released; 10 Soup; 0,5156982; Goal Soup (B); 1,177094;
; Full force reached duration; 1,022977; 98; 
; either pinky or ring attached duration1,108749; 
; maximal force reached during grab; 100; 
; grasp quality score; 5; 1,189529; 
\debugText{didn't start with an initially low force (86,96019)
could reach full force
could reach full force for more than 300ms (exactly 0,01022977ms)
more than 10% of the time full force was reached (85,99843%)
weaker/secondary fingers were attached for more than 60% of the time (93,20903%)
}
173,2745; Grabbed; 10 Soup; 0,5047651; Goal Soup (B);
173,5793; Average force at grab start; 96,29474; 0,3; 
176,1595; Released; 10 Soup; 0,02108938; Goal Soup (B); 2,88504;
; Full force reached duration; 1,600615; 98; 
; either pinky or ring attached duration2,888914; 
; maximal force reached during grab; 99,3; 
; grasp quality score; 5; 2,890503; 
\debugText{didn't start with an initially low force (96,29474)
could reach full force
could reach full force for more than 300ms (exactly 0,01600615ms)
more than 10% of the time full force was reached (55,37497%)
weaker/secondary fingers were attached for more than 60% of the time (99,94503%)
}
176,7582; Successful Placement; 10 Soup; 0,02112787; 17,26544; 8,177582; 2; 4,062134; 0; 4,062134; 172,0974; 4,115448; 5;
176,7591;Task finishedB ;Fixed;
176,7596; Task changed; A ;Fixed;
180,7367; Grabbed; 13 Soup; 
181,0455; Average force at grab start; 61,93473; 0,3; 
185,6715; Released; 13 Soup;  4,934784;
; Full force reached duration; 0; 98; 
; either pinky or ring attached duration4,912749; 
; maximal force reached during grab; 89,15; 
; grasp quality score; 1,5; 4,94664; 
\debugText{didn't start with an initially low force (61,93473)
weaker/secondary fingers were attached for more than 60% of the time (99,31487%)
}
186,3618; Successful Placement; 13 Soup; 0,009739226; 13,86265; 9,102798; 1; 4,934784; 0; 4,934784; 180,7367; 4,168015; 1,5;
189,6728; Grabbed; 14 Soup; 
189,9813; Average force at grab start; 65,58752; 0,3; 
193,3369; Released; 14 Soup;  3,664185;
; Full force reached duration; 0,2004941; 98; 
; either pinky or ring attached duration3,678447; 
; maximal force reached during grab; 98,45; 
; grasp quality score; 2,5; 3,667984; 
\debugText{didn't start with an initially low force (65,58752)
could reach full force
weaker/secondary fingers were attached for more than 60% of the time (100,2852%)
}
194,0223; Successful Placement; 14 Soup; 0,01358106; 3,841623; 7,159698; 1; 3,664185; 0; 3,664185; 189,6728; 3,495514; 2,5;
196,1589; Grabbed; 15 Soup; 
196,4691; Average force at grab start; 62,005; 0,3; 
199,3823; Released; 15 Soup;  3,22345;
; Full force reached duration; 2,492933; 98; 
; either pinky or ring attached duration3,233211; 
; maximal force reached during grab; 100; 
; grasp quality score; 5; 3,235275; 
\debugText{didn't start with an initially low force (62,005)
could reach full force
could reach full force for more than 300ms (exactly 0,02492933ms)
more than 10% of the time full force was reached (77,05473%)
weaker/secondary fingers were attached for more than 60% of the time (99,93619%)
}
199,9379; Successful Placement; 15 Soup; 0,004092964; 4,682351; 5,414764; 1; 3,22345; 0; 3,22345; 196,1589; 2,191315; 5;
201,9585; Grabbed; 16 Soup; 
202,267; Average force at grab start; 90,65139; 0,3; 
204,8703; Released; 16 Soup;  2,911804;
; Full force reached duration; 1,830925; 98; 
; either pinky or ring attached duration2,922; 
; maximal force reached during grab; 100; 
; grasp quality score; 5; 2,923553; 
\debugText{didn't start with an initially low force (90,65139)
could reach full force
could reach full force for more than 300ms (exactly 0,01830925ms)
more than 10% of the time full force was reached (62,62671%)
weaker/secondary fingers were attached for more than 60% of the time (99,94687%)
}
205,7117; Successful Placement; 16 Soup; 0,003855552; 16,55575; 5,273285; 1; 2,911804; 0; 2,911804; 201,9585; 2,361481; 5;
207,537; Grabbed; 17 Soup; 
207,8269; Average force at grab start; 91,18392; 0,3; 
209,6484; Released; 17 Soup;  2,111359;
; Full force reached duration; 1,554654; 98; 
; either pinky or ring attached duration2,0883; 
; maximal force reached during grab; 100; 
; grasp quality score; 5; 2,123444; 
\debugText{didn't start with an initially low force (91,18392)
could reach full force
could reach full force for more than 300ms (exactly 0,01554654ms)
more than 10% of the time full force was reached (73,21381%)
weaker/secondary fingers were attached for more than 60% of the time (98,34499%)
}
212,8678; Grabbed; 17 Soup; 
213,165; Average force at grab start; 68,3075; 0,3; 
219,0475; Released; 17 Soup;  6,179779;
; Full force reached duration; 0,01111111; 98; 
; either pinky or ring attached duration6,156936; 
; maximal force reached during grab; 98,75; 
; grasp quality score; 2,5; 6,18985; 
\debugText{didn't start with an initially low force (68,3075)
could reach full force
weaker/secondary fingers were attached for more than 60% of the time (99,46826%)
}
220,1137; Grabbed; 17 Soup; 
220,4049; Average force at grab start; 79,28929; 0,3; 
221,5287; Released; 17 Soup;  1,414993;
; Full force reached duration; 0; 98; 
; either pinky or ring attached duration1,257768; 
; maximal force reached during grab; 90,15; 
; grasp quality score; 1,5; 1,436844; 
\debugText{didn't start with an initially low force (79,28929)
weaker/secondary fingers were attached for more than 60% of the time (87,53688%)
}
223,4426; Grabbed; 17 Soup; 
223,7547; Average force at grab start; 81,4375; 0,3; 
228,6917; Released; 17 Soup;  5,249115;
; Full force reached duration; 4,29393; 98; 
; either pinky or ring attached duration5,251606; 
; maximal force reached during grab; 100; 
; grasp quality score; 5; 5,255859; 
\debugText{didn't start with an initially low force (81,4375)
could reach full force
could reach full force for more than 300ms (exactly 0,0429393ms)
more than 10% of the time full force was reached (81,69796%)
weaker/secondary fingers were attached for more than 60% of the time (99,91907%)
}
230,0041; Grabbed; 17 Soup; 
230,3113; Average force at grab start; 51,71; 0,3; 
231,4921; Released; 17 Soup;  1,488037;
; Full force reached duration; 0,01111111; 98; 
; either pinky or ring attached duration0; 
; maximal force reached during grab; 100; 
; grasp quality score; 2; 1,489456; 
\debugText{didn't start with an initially low force (51,71)
could reach full force
}
233,3588; Grabbed; 17 Soup; 
233,6681; Average force at grab start; 77,35667; 0,3; 
234,9805; Released; 17 Soup;  1,621719;
; Full force reached duration; 0,044709; 98; 
; either pinky or ring attached duration1,622009; 
; maximal force reached during grab; 98,15; 
; grasp quality score; 2,5; 1,633774; 
\debugText{didn't start with an initially low force (77,35667)
could reach full force
weaker/secondary fingers were attached for more than 60% of the time (99,27988%)
}
235,6896; Successful Placement; 17 Soup; 0,005573135; 11,57676; 29,4771; 6; 18,065; 0; 18,065; 216,9155; 11,41209; 3,083333;
237,8481; Grabbed; 18 Soup; 
238,1636; Average force at grab start; 79,39555; 0,3; 
240,9809; Released; 18 Soup;  3,132721;
; Full force reached duration; 2,288038; 98; 
; either pinky or ring attached duration3,144141; 
; maximal force reached during grab; 100; 
; grasp quality score; 5; 3,14447; 
\debugText{didn't start with an initially low force (79,39555)
could reach full force
could reach full force for more than 300ms (exactly 0,02288038ms)
more than 10% of the time full force was reached (72,76386%)
weaker/secondary fingers were attached for more than 60% of the time (99,98954%)
}
243,1807; Successful Placement; 18 Soup; 0,005894044; 18,65185; 6,990524; 1; 3,132721; 0; 3,132721; 237,8481; 3,857803; 5;
243,1814;Task finishedA ;Fixed;