106,1894; Grabbed; Soup (5); 0,6462105; Goal Soup (B);
106,4934; Average force at grab start; 39,99762; 0,3; 
114,5437; Released; Soup (5); 0,5489758; Goal Soup (B); 8,354279;
; Full force reached duration; 0; 98; 
; either pinky or ring attached duration8,366163; 
; maximal force reached during grab; 90,05; 
; grasp quality score; 1,5; 8,36734; 
\debugText{didn't start with an initially low force (39,99762)
weaker/secondary fingers were attached for more than 60% of the time (99,98594%)
}
124,9184; Grabbed; Soup (5); 0,6018467; Goal Soup (B);
125,2291; Average force at grab start; 43,79667; 0,3; 
127,2089; Released; Soup (5); 0,593051; Goal Soup (B); 2,290581;
; Full force reached duration; 0; 98; 
; either pinky or ring attached duration2,223612; 
; maximal force reached during grab; 77,3; 
; grasp quality score; 1,5; 2,301598; 
\debugText{didn't start with an initially low force (43,79667)
weaker/secondary fingers were attached for more than 60% of the time (96,61166%)
}
128,4756; Grabbed; Book (5); 0,9344296; Goal Book;
128,7901; Average force at grab start; 58,05666; 0,3; 
133,1852; Released; Book (5); 0,7398782; Goal Book; 4,709549;
; Full force reached duration; 4,046247; 98; 
; either pinky or ring attached duration4,567123; 
; maximal force reached during grab; 100; 
; grasp quality score; 5; 4,722473; 
\debugText{didn't start with an initially low force (58,05666)
could reach full force
could reach full force for more than 300ms (exactly 0,04046248ms)
more than 10% of the time full force was reached (85,68069%)
weaker/secondary fingers were attached for more than 60% of the time (96,7104%)
}
139,074; Grabbed; Book (5); 0,7481304; Goal Book;
139,3604; Average force at grab start; 18,80714; 0,3; 
139,6044; Released; Book (5); 0,7800182; Goal Book; 0,5303802;
; Full force reached duration; 0; 98; 
; either pinky or ring attached duration0; 
; maximal force reached during grab; 50; 
; grasp quality score; 0; 0,5527039; 
\debugText{}
157,7068; Grabbed; Milk (5); 0,7750975; Goal Milk;
157,9935; Average force at grab start; 47,39832; 0,3; 
161,7746; Released; Milk (5); 0,439208; Goal Milk; 4,067886;
; Full force reached duration; 0; 98; 
; either pinky or ring attached duration0,01111111; 
; maximal force reached during grab; 66,05; 
; grasp quality score; 1; 4,089249; 
\debugText{didn't start with an initially low force (47,39832)
}
167,6175; Grabbed; Book (4); 0,4455874; Goal Book;
167,9038; Average force at grab start; 20,68214; 0,3; 
170,4178; Released; Book (4); 0,4334458; Goal Book; 2,800339;
; Full force reached duration; 0; 98; 
; either pinky or ring attached duration2,810777; 
; maximal force reached during grab; 53; 
; grasp quality score; 0,5; 2,821472; 
\debugText{weaker/secondary fingers were attached for more than 60% of the time (99,62094%)
}
177,751; Grabbed; Soup (4); 0,765222; Goal Soup (B);
178,0374; Average force at grab start; 48,63373; 0,3; 
190,2398; Released; Soup (4); 0,7634338; Goal Soup (B); 12,48878;
; Full force reached duration; 0; 98; 
; either pinky or ring attached duration2,009291; 
; maximal force reached during grab; 61,8; 
; grasp quality score; 1; 12,50964; 
\debugText{didn't start with an initially low force (48,63373)
}
194,1291; Grabbed; Soup (4); 0,7952111; Goal Soup (B);
194,4375; Average force at grab start; 35,92667; 0,3; 
194,7457; Released; Soup (4); 0,798179; Goal Soup (B); 0,6166229;
; Full force reached duration; 0; 98; 
; either pinky or ring attached duration0,01111111; 
; maximal force reached during grab; 49,65; 
; grasp quality score; 1; 0,6272583; 
\debugText{didn't start with an initially low force (35,92667)
}
195,5451; Grabbed; Soup (4); 0,7994043; Goal Soup (B);
195,8378; Average force at grab start; 28,87143; 0,3; 
195,968; Released; Soup (4); 0,7994843; Goal Soup (B); 0,4229279;
; Full force reached duration; 0; 98; 
; either pinky or ring attached duration0,01111111; 
; maximal force reached during grab; 35,4; 
; grasp quality score; 0; 0,438736; 
\debugText{}
211,0614; Grabbed; Soup (4); 0,8184285; Goal Soup (B);
211,3491; Average force at grab start; 53,27143; 0,3; 
216,2825; Released; Soup (4); 0,7947168; Goal Soup (B); 5,221176;
; Full force reached duration; 0; 98; 
; either pinky or ring attached duration5,233424; 
; maximal force reached during grab; 68,85; 
; grasp quality score; 1,5; 5,241608; 
\debugText{didn't start with an initially low force (53,27143)
weaker/secondary fingers were attached for more than 60% of the time (99,84386%)
}
218,2851; Grabbed; Soup (4); 0,9117215; Goal Soup (B);
218,5919; Average force at grab start; 42,40667; 0,3; 
237,1694; Released; Soup (4); 0,8250191; Goal Soup (B); 18,88429;
; Full force reached duration; 0; 98; 
; either pinky or ring attached duration18,8174; 
; maximal force reached during grab; 90,3; 
; grasp quality score; 1,5; 18,89549; 
\debugText{didn't start with an initially low force (42,40667)
weaker/secondary fingers were attached for more than 60% of the time (99,58672%)
}
242,0819; Grabbed; Soup (4); 0,8535277; Goal Soup (B);
242,3951; Average force at grab start; 77,62667; 0,3; 
247,3925; Released; Soup (4); 0,222585; Goal Soup (B); 5,310684;
; Full force reached duration; 4,907949; 98; 
; either pinky or ring attached duration5,264613; 
; maximal force reached during grab; 100; 
; grasp quality score; 5; 5,318481; 
\debugText{didn't start with an initially low force (77,62667)
could reach full force
could reach full force for more than 300ms (exactly 0,04907949ms)
more than 10% of the time full force was reached (92,28102%)
weaker/secondary fingers were attached for more than 60% of the time (98,98714%)
}
249,3274; Grabbed; Soup (4); 0,4298849; Goal Soup (B);
249,6144; Average force at grab start; 40,7; 0,3; 
253,4617; Released; Soup (4); 0,832896; Goal Soup (B); 4,134323;
; Full force reached duration; 0; 98; 
; either pinky or ring attached duration0,1459604; 
; maximal force reached during grab; 76,35; 
; grasp quality score; 1; 4,153198; 
\debugText{didn't start with an initially low force (40,7)
}
291,2592; Grabbed; Soup (4); 0,8187396; Goal Soup (B);
291,5453; Average force at grab start; 50,63929; 0,3; 
295,8137; Released; Soup (4); 0,5354085; Goal Soup (B); 4,554535;
; Full force reached duration; 0; 98; 
; either pinky or ring attached duration4,478386; 
; maximal force reached during grab; 82,15; 
; grasp quality score; 1,5; 4,572876; 
\debugText{didn't start with an initially low force (50,63929)
weaker/secondary fingers were attached for more than 60% of the time (97,93369%)
}
298,3033; Grabbed; Soup (4); 0,5305465; Goal Soup (B);
298,5886; Average force at grab start; 43,65; 0,3; 
303,8807; Released; Soup (4); 0,821246; Goal Soup (B); 5,577484;
; Full force reached duration; 0; 98; 
; either pinky or ring attached duration5,577429; 
; maximal force reached during grab; 84,7; 
; grasp quality score; 1,5; 5,595764; 
\debugText{didn't start with an initially low force (43,65)
weaker/secondary fingers were attached for more than 60% of the time (99,67233%)
}
314,7462; Grabbed; Soup (4); 0,8542493; Goal Soup (B);
315,0332; Average force at grab start; 53,77857; 0,3; 
320,3028; Released; Soup (4); 0,8352212; Goal Soup (B); 5,556641;
; Full force reached duration; 0; 98; 
; either pinky or ring attached duration2,145824; 
; maximal force reached during grab; 89,15; 
; grasp quality score; 1; 5,57312; 
\debugText{didn't start with an initially low force (53,77857)
}
321,3677; Grabbed; Soup (4); 0,9483712; Goal Soup (B);
321,6777; Average force at grab start; 58,16333; 0,3; 
321,9417; Released; Soup (4); 0,8318985; Goal Soup (B); 0,5739746;
; Full force reached duration; 0; 98; 
; either pinky or ring attached duration0,4980464; 
; maximal force reached during grab; 82,85; 
; grasp quality score; 1,5; 0,5788269; 
\debugText{didn't start with an initially low force (58,16333)
weaker/secondary fingers were attached for more than 60% of the time (86,04411%)
}
422,3457; Task changed; B ;Binary;
440,1382; Grabbed; 9 Soup; 0,4906081; Goal Soup (B);
440,4273; Average force at grab start; 34,45831; 0,3; 
446,0099; Released; 9 Soup; 0,05220796; Goal Soup (B); 5,871643;
; Full force reached duration; 0; 98; 
; either pinky or ring attached duration5,659049; 
; maximal force reached during grab; 56,65; 
; grasp quality score; 1,5; 5,891296; 
\debugText{didn't start with an initially low force (34,45831)
weaker/secondary fingers were attached for more than 60% of the time (96,05778%)
}
446,763; Successful Placement; 9 Soup; 0,05515961; 8,874063; 446,2624; 18; 91,9661; 15,16559; 76,80051; 354,0438; 354,2963; 1,527778;
457,9432; Grabbed; 1 Book; 0,4620117; Goal Book;
458,2516; Average force at grab start; 11,47598; 0,3; 
463,9438; Released; 1 Book; 0,01273178; Goal Book; 6,000641;
; Full force reached duration; 0; 98; 
; either pinky or ring attached duration6,010339; 
; maximal force reached during grab; 67,1; 
; grasp quality score; 0,5; 6,00296; 
\debugText{weaker/secondary fingers were attached for more than 60% of the time (100,1229%)
}
464,4958; Successful Placement; 1 Book; 0,02181841; 14,53683; 17,23215; 1; 6,000641; 0; 6,000641; 457,9432; 11,23151; 0,5;
471,9163; Grabbed; 11 Soup; 0,6466084; Goal Soup (B);
472,2169; Average force at grab start; 95; 0,3; 
475,3652; Released; 11 Soup; 0,04066907; Goal Soup (B); 3,448914;
; Full force reached duration; 3,196204; 98; 
; either pinky or ring attached duration3,250447; 
; maximal force reached during grab; 100; 
; grasp quality score; 5; 3,457855; 
\debugText{didn't start with an initially low force (95)
could reach full force
could reach full force for more than 300ms (exactly 0,03196204ms)
more than 10% of the time full force was reached (92,43314%)
weaker/secondary fingers were attached for more than 60% of the time (94,00183%)
}
477,7411; Grabbed; 11 Soup; 0,1366664; Goal Soup (B);
478,0518; Average force at grab start; 52,66667; 0,3; 
479,3412; Released; 11 Soup; 0,03369788; Goal Soup (B); 1,600098;
; Full force reached duration; 1,180377; 98; 
; either pinky or ring attached duration1,223377; 
; maximal force reached during grab; 100; 
; grasp quality score; 5; 1,611572; 
\debugText{didn't start with an initially low force (52,66667)
could reach full force
could reach full force for more than 300ms (exactly 0,01180377ms)
more than 10% of the time full force was reached (73,24384%)
weaker/secondary fingers were attached for more than 60% of the time (75,91202%)
}
485,6526; Grabbed; 11 Soup; 0,03554469; Goal Soup (B);
485,963; Average force at grab start; 79,33334; 0,3; 
487,1636; Released; 11 Soup; 0,007902076; Goal Soup (B); 1,511047;
; Full force reached duration; 1,201854; 98; 
; either pinky or ring attached duration1,466491; 
; maximal force reached during grab; 100; 
; grasp quality score; 5; 1,522919; 
\debugText{didn't start with an initially low force (79,33334)
could reach full force
could reach full force for more than 300ms (exactly 0,01201854ms)
more than 10% of the time full force was reached (78,91782%)
weaker/secondary fingers were attached for more than 60% of the time (96,29475%)
}
491,8799; Grabbed; 11 Soup; 0,02209755; Goal Soup (B);
492,1902; Average force at grab start; 62,89474; 0,3; 
495,7305; Released; 11 Soup; 0,02110578; Goal Soup (B); 3,850586;
; Full force reached duration; 0; 98; 
; either pinky or ring attached duration3,859783; 
; maximal force reached during grab; 85; 
; grasp quality score; 1,5; 3,856293; 
\debugText{didn't start with an initially low force (62,89474)
weaker/secondary fingers were attached for more than 60% of the time (100,0905%)
}
497,4195; Grabbed; 11 Soup; 0,02045563; Goal Soup (B);
497,7275; Average force at grab start; 82; 0,3; 
499,3306; Released; 11 Soup; 0,008012706; Goal Soup (B); 1,911102;
; Full force reached duration; 1,731692; 98; 
; either pinky or ring attached duration1,921464; 
; maximal force reached during grab; 100; 
; grasp quality score; 5; 1,922607; 
\debugText{didn't start with an initially low force (82)
could reach full force
could reach full force for more than 300ms (exactly 0,01731692ms)
more than 10% of the time full force was reached (90,07%)
weaker/secondary fingers were attached for more than 60% of the time (99,94055%)
}
503,2849; Grabbed; 11 Soup; 0,006451212; Goal Soup (B);
503,5943; Average force at grab start; 89; 0,3; 
505,418; Released; 11 Soup; 0,01278631; Goal Soup (B); 2,133148;
; Full force reached duration; 1,865813; 98; 
; either pinky or ring attached duration0; 
; maximal force reached during grab; 100; 
; grasp quality score; 4,5; 2,143829; 
\debugText{didn't start with an initially low force (89)
could reach full force
could reach full force for more than 300ms (exactly 0,01865813ms)
more than 10% of the time full force was reached (87,03177%)
}
506,262; Successful Placement; 11 Soup; 0,01310055; 20,11212; 41,26556; 6; 14,4549; 5,114899; 9,339996; 490,9631; 26,81067; 4,333333;
514,0851; Grabbed; 4 Book; 0,4171922; Goal Book;
514,3949; Average force at grab start; 93,33334; 0,3; 
515,0633; Released; 4 Book; 0,4525182; Goal Book; 0,9781494;
; Full force reached duration; 0,349906; 98; 
; either pinky or ring attached duration0,9844847; 
; maximal force reached during grab; 100; 
; grasp quality score; 5; 0,9841614; 
\debugText{didn't start with an initially low force (93,33334)
could reach full force
could reach full force for more than 300ms (exactly 0,00349906ms)
more than 10% of the time full force was reached (35,55373%)
weaker/secondary fingers were attached for more than 60% of the time (100,0329%)
}
517,5735; Grabbed; 4 Book; 0,4893906; Goal Book;
517,8824; Average force at grab start; 87,89; 0,3; 
521,0625; Released; 4 Book; 0,01406952; Goal Book; 3,489014;
; Full force reached duration; 0; 98; 
; either pinky or ring attached duration3,499888; 
; maximal force reached during grab; 97,15; 
; grasp quality score; 1,5; 3,49942; 
\debugText{didn't start with an initially low force (87,89)
weaker/secondary fingers were attached for more than 60% of the time (100,0134%)
}
521,6385; Successful Placement; 4 Book; 0,008361788; 2,030585; 14,87579; 2; 4,467163; 0,4019775; 4,065186; 516,5953; 10,40863; 3,25;
524,9506; Grabbed; 10 Soup; 0,7138927; Goal Soup (B);
525,2393; Average force at grab start; 61,47797; 0,3; 
528,7738; Released; 10 Soup; 0,005386234; Goal Soup (B); 3,823181;
; Full force reached duration; 0; 98; 
; either pinky or ring attached duration3,832687; 
; maximal force reached during grab; 85,7; 
; grasp quality score; 1,5; 3,843689; 
\debugText{didn't start with an initially low force (61,47797)
weaker/secondary fingers were attached for more than 60% of the time (99,71376%)
}
532,3981; Grabbed; 10 Soup; 0,1048308; Goal Soup (B);
532,7059; Average force at grab start; 57,08667; 0,3; 
535,6393; Released; 10 Soup; 0,002861829; Goal Soup (B); 3,241272;
; Full force reached duration; 0; 98; 
; either pinky or ring attached duration3,255674; 
; maximal force reached during grab; 71,2; 
; grasp quality score; 1,5; 3,253967; 
\debugText{didn't start with an initially low force (57,08667)
weaker/secondary fingers were attached for more than 60% of the time (100,0525%)
}
536,2593; Successful Placement; 10 Soup; 0,003594992; 9,301937; 14,12024; 2; 7,064453; 0,08917236; 6,975281; 528,5749; 7,055786; 1,5;
548,1069; Grabbed; 7 Milk ; 0,4842865; Goal Milk;
548,392; Average force at grab start; 41,71806; 0,3; 
551,218; Released; 7 Milk ; 0,128558; Goal Milk; 3,111084;
; Full force reached duration; 0; 98; 
; either pinky or ring attached duration3,122515; 
; maximal force reached during grab; 78,65; 
; grasp quality score; 1,5; 3,132507; 
\debugText{didn't start with an initially low force (41,71806)
weaker/secondary fingers were attached for more than 60% of the time (99,68102%)
}
552,8179; Grabbed; 7 Milk ; 0,1378646; Goal Milk;
553,1269; Average force at grab start; 34,01; 0,3; 
555,5961; Released; 7 Milk ; 0,01178786; Goal Milk; 2,778198;
; Full force reached duration; 0; 98; 
; either pinky or ring attached duration2,788988; 
; maximal force reached during grab; 64,95; 
; grasp quality score; 1,5; 2,788086; 
\debugText{didn't start with an initially low force (34,01)
weaker/secondary fingers were attached for more than 60% of the time (100,0324%)
}
556,1948; Successful Placement; 7 Milk ; 0,00530843; 2,116648; 19,43463; 2; 5,889282; 0; 5,889282; 549,7068; 13,54535; 1,5;
559,2411; Grabbed; 12 Soup; 0,5664707; Goal Soup (B);
559,5471; Average force at grab start; 55,97032; 0,3; 
562,5504; Released; 12 Soup; 0,07260431; Goal Soup (B); 3,309326;
; Full force reached duration; 0; 98; 
; either pinky or ring attached duration3,322295; 
; maximal force reached during grab; 63,9; 
; grasp quality score; 1,5; 3,320313; 
\debugText{didn't start with an initially low force (55,97032)
weaker/secondary fingers were attached for more than 60% of the time (100,0597%)
}
568,9042; Grabbed; 12 Soup; 0,264389; Goal Soup (B);
569,1971; Average force at grab start; 57,32857; 0,3; 
572,2621; Released; 12 Soup; 0,02327485; Goal Soup (B); 3,35791;
; Full force reached duration; 0; 98; 
; either pinky or ring attached duration3,344079; 
; maximal force reached during grab; 96; 
; grasp quality score; 1,5; 3,37677; 
\debugText{didn't start with an initially low force (57,32857)
weaker/secondary fingers were attached for more than 60% of the time (99,0319%)
}
574,1948; Grabbed; 12 Soup; 0,02907204; Goal Soup (B);
574,4792; Average force at grab start; 58,19643; 0,3; 
575,379; Released; 12 Soup; 0,008785873; Goal Soup (B); 1,184143;
; Full force reached duration; 0; 98; 
; either pinky or ring attached duration1,085065; 
; maximal force reached during grab; 93,55; 
; grasp quality score; 1,5; 1,200317; 
\debugText{didn't start with an initially low force (58,19643)
weaker/secondary fingers were attached for more than 60% of the time (90,39813%)
}
575,9911; Successful Placement; 12 Soup; 0,008506152; 5,357376; 19,29559; 3; 7,851379; 3,976501; 3,874878; 567,5276; 11,44421; 1,5;
578,9065; Grabbed; 2 Book; 0,3745002; Goal Book;
579,1934; Average force at grab start; 63,49554; 0,3; 
581,2572; Released; 2 Book; 0,06225324; Goal Book; 2,350708;
; Full force reached duration; 0,5793828; 98; 
; either pinky or ring attached duration2,363112; 
; maximal force reached during grab; 99,55; 
; grasp quality score; 5; 2,371704; 
\debugText{didn't start with an initially low force (63,49554)
could reach full force
could reach full force for more than 300ms (exactly 0,005793828ms)
more than 10% of the time full force was reached (24,42896%)
weaker/secondary fingers were attached for more than 60% of the time (99,63771%)
}
582,9497; Grabbed; 2 Book; 0,1107598; Goal Book;
583,2367; Average force at grab start; 81,90714; 0,3; 
584,7499; Released; 2 Book; 0,007584521; Goal Book; 1,800171;
; Full force reached duration; 1,621258; 98; 
; either pinky or ring attached duration1,811694; 
; maximal force reached during grab; 100; 
; grasp quality score; 5; 1,819763; 
\debugText{didn't start with an initially low force (81,90714)
could reach full force
could reach full force for more than 300ms (exactly 0,01621258ms)
more than 10% of the time full force was reached (89,09173%)
weaker/secondary fingers were attached for more than 60% of the time (99,5566%)
}
585,3235; Successful Placement; 2 Book; 0,003605633; 1,796185; 8,831543; 2; 4,150879; 2,013977; 2,136902; 580,599; 4,680664; 5;
587,7479; Grabbed; 6 Milk ; 0,5190347; Goal Milk;
588,0372; Average force at grab start; 83,46637; 0,3; 
590,2395; Released; 6 Milk ; 0,1404759; Goal Milk; 2,491577;
; Full force reached duration; 2,064249; 98; 
; either pinky or ring attached duration2,389446; 
; maximal force reached during grab; 100; 
; grasp quality score; 5; 2,508423; 
\debugText{didn't start with an initially low force (83,46637)
could reach full force
could reach full force for more than 300ms (exactly 0,02064249ms)
more than 10% of the time full force was reached (82,29272%)
weaker/secondary fingers were attached for more than 60% of the time (95,2569%)
}
591,4609; Grabbed; 6 Milk ; 0,148992; Goal Milk;
591,7736; Average force at grab start; 85,52333; 0,3; 
593,8165; Released; 6 Milk ; 0,1311335; Goal Milk; 2,355652;
; Full force reached duration; 2,078573; 98; 
; either pinky or ring attached duration2,345493; 
; maximal force reached during grab; 100; 
; grasp quality score; 5; 2,364624; 
\debugText{didn't start with an initially low force (85,52333)
could reach full force
could reach full force for more than 300ms (exactly 0,02078573ms)
more than 10% of the time full force was reached (87,90289%)
weaker/secondary fingers were attached for more than 60% of the time (99,19095%)
}
595,0176; Grabbed; 6 Milk ; 0,1313674; Goal Milk;
595,3287; Average force at grab start; 64,56667; 0,3; 
596,2607; Released; 6 Milk ; 0,0445191; Goal Milk; 1,243103;
; Full force reached duration; 0,9555903; 98; 
; either pinky or ring attached duration1,143459; 
; maximal force reached during grab; 100; 
; grasp quality score; 5; 1,252625; 
\debugText{didn't start with an initially low force (64,56667)
could reach full force
could reach full force for more than 300ms (exactly 0,009555903ms)
more than 10% of the time full force was reached (76,28705%)
weaker/secondary fingers were attached for more than 60% of the time (91,28503%)
}
598,2159; Grabbed; 6 Milk ; 0,05536233; Goal Milk;
598,5334; Average force at grab start; 71,36667; 0,3; 
600,4387; Released; 6 Milk ; 0,02293584; Goal Milk; 2,222717;
; Full force reached duration; 0; 98; 
; either pinky or ring attached duration2,233925; 
; maximal force reached during grab; 95,45; 
; grasp quality score; 1,5; 2,231445; 
\debugText{didn't start with an initially low force (71,36667)
weaker/secondary fingers were attached for more than 60% of the time (100,1111%)
}
601,2156; Successful Placement; 6 Milk ; 0,02524293; 6,535409; 15,39154; 4; 8,313049; 5,118835; 3,194214; 592,1256; 7,078491; 4,125;
604,1298; Grabbed; 8 Milk ; 0,4853123; Goal Milk;
604,4364; Average force at grab start; 55,29213; 0,3; 
606,9489; Released; 8 Milk ; 0,01282632; Goal Milk; 2,819092;
; Full force reached duration; 0; 98; 
; either pinky or ring attached duration0,01111111; 
; maximal force reached during grab; 77,05; 
; grasp quality score; 1; 2,8302; 
\debugText{didn't start with an initially low force (55,29213)
}
607,6387; Successful Placement; 8 Milk ; 0,01273978; 6,99296; 5,922241; 1; 2,819092; 0; 2,819092; 604,1298; 3,103149; 1;
609,3958; Grabbed; 5 Milk; 0,5596906; Goal Milk;
609,7021; Average force at grab start; 56,17454; 0,3; 
611,9937; Released; 5 Milk; 0,01106056; Goal Milk; 2,597961;
; Full force reached duration; 0; 98; 
; either pinky or ring attached duration2,610497; 
; maximal force reached during grab; 78,1; 
; grasp quality score; 1,5; 2,608582; 
\debugText{didn't start with an initially low force (56,17454)
weaker/secondary fingers were attached for more than 60% of the time (100,0734%)
}
612,5908; Successful Placement; 5 Milk; 0,01178288; 8,036591; 4,451233; 1; 2,597961; 0; 2,597961; 609,3958; 1,853271; 1,5;
615,9037; Grabbed; 3 Book; 0,4084165; Goal Book;
616,1913; Average force at grab start; 35,45655; 0,3; 
618,8383; Released; 3 Book; 0,02529893; Goal Book; 2,934509;
; Full force reached duration; 0; 98; 
; either pinky or ring attached duration0; 
; maximal force reached during grab; 86,35; 
; grasp quality score; 1; 2,953247; 
\debugText{didn't start with an initially low force (35,45655)
}
619,6108; Successful Placement; 3 Book; 0,02258832; 8,917043; 6,518799; 1; 2,934509; 1,088501; 1,846008; 615,9037; 3,58429; 1;
619,6118;Task finishedB ;Binary;
619,6124; Task changed; A ;Binary;
624,2394; Grabbed; 13 Soup; 
624,5458; Average force at grab start; 81,011; 0,3; 
630,1496; Released; 13 Soup;  5,910217;
; Full force reached duration; 0,3119667; 98; 
; either pinky or ring attached duration5,923489; 
; maximal force reached during grab; 99,3; 
; grasp quality score; 4; 5,919983; 
\debugText{didn't start with an initially low force (81,011)
could reach full force
could reach full force for more than 300ms (exactly 0,003119667ms)
weaker/secondary fingers were attached for more than 60% of the time (100,0592%)
}
630,769; Successful Placement; 13 Soup; 0,005080905; 8,106755; 10,65735; 1; 5,910217; 5,732361; 0,1778564; 624,2394; 4,747131; 4;
633,9287; Grabbed; 14 Soup; 
634,2357; Average force at grab start; 67,57577; 0,3; 
637,259; Released; 14 Soup;  3,330322;
; Full force reached duration; 0; 98; 
; either pinky or ring attached duration3,344612; 
; maximal force reached during grab; 89,55; 
; grasp quality score; 1,5; 3,340271; 
\debugText{didn't start with an initially low force (67,57577)
weaker/secondary fingers were attached for more than 60% of the time (100,13%)
}
637,9025; Successful Placement; 14 Soup; 0,01903163; 6,733827; 6,632935; 1; 3,330322; 2,289001; 1,041321; 633,9287; 3,302612; 1,5;
640,6608; Grabbed; 15 Soup; 
640,9679; Average force at grab start; 57,58926; 0,3; 
645,1477; Released; 15 Soup;  4,486938;
; Full force reached duration; 0; 98; 
; either pinky or ring attached duration4,499162; 
; maximal force reached during grab; 70,35; 
; grasp quality score; 1,5; 4,495544; 
\debugText{didn't start with an initially low force (57,58926)
weaker/secondary fingers were attached for more than 60% of the time (100,0805%)
}
645,8344; Successful Placement; 15 Soup; 0,01084578; 14,26568; 7,431274; 1; 4,486938; 0; 4,486938; 640,6608; 2,944336; 1,5;
648,1255; Grabbed; 16 Soup; 
648,413; Average force at grab start; 46,72976; 0,3; 
651,8586; Released; 16 Soup;  3,733093;
; Full force reached duration; 0; 98; 
; either pinky or ring attached duration3,599853; 
; maximal force reached during grab; 84; 
; grasp quality score; 1,5; 3,750793; 
\debugText{didn't start with an initially low force (46,72976)
weaker/secondary fingers were attached for more than 60% of the time (95,97578%)
}
652,4781; Successful Placement; 16 Soup; 0,01139119; 11,7618; 6,1427; 1; 3,733093; 1,890564; 1,842529; 648,1255; 2,409607; 1,5;
655,2841; Grabbed; 17 Soup; 
655,5908; Average force at grab start; 40,01921; 0,3; 
658,4377; Released; 17 Soup;  3,153625;
; Full force reached duration; 0; 98; 
; either pinky or ring attached duration3,167968; 
; maximal force reached during grab; 60,95; 
; grasp quality score; 1,5; 3,163391; 
\debugText{didn't start with an initially low force (40,01921)
weaker/secondary fingers were attached for more than 60% of the time (100,1447%)
}
659,034; Successful Placement; 17 Soup; 0,01612547; 13,79206; 6,055359; 1; 3,153625; 0; 3,153625; 655,2841; 2,901733; 1,5;
661,3268; Grabbed; 18 Soup; 
661,6342; Average force at grab start; 53,58519; 0,3; 
664,1707; Released; 18 Soup;  2,843811;
; Full force reached duration; 0; 98; 
; either pinky or ring attached duration2,854538; 
; maximal force reached during grab; 70,9; 
; grasp quality score; 1,5; 2,85144; 
\debugText{didn't start with an initially low force (53,58519)
weaker/secondary fingers were attached for more than 60% of the time (100,1086%)
}
667,3696; Grabbed; 18 Soup; 
667,655; Average force at grab start; 50,05357; 0,3; 
667,7868; Released; 18 Soup;  0,4171753;
; Full force reached duration; 0; 98; 
; either pinky or ring attached duration0,4285705; 
; maximal force reached during grab; 55,25; 
; grasp quality score; 1,5; 0,4344482; 
\debugText{didn't start with an initially low force (50,05357)
weaker/secondary fingers were attached for more than 60% of the time (98,64708%)
}
670,0369; Grabbed; 18 Soup; 
670,3438; Average force at grab start; 76,03667; 0,3; 
671,5688; Released; 18 Soup;  1,531982;
; Full force reached duration; 1,183509; 98; 
; either pinky or ring attached duration1,476606; 
; maximal force reached during grab; 100; 
; grasp quality score; 5; 1,539368; 
\debugText{didn't start with an initially low force (76,03667)
could reach full force
could reach full force for more than 300ms (exactly 0,01183509ms)
more than 10% of the time full force was reached (76,88277%)
weaker/secondary fingers were attached for more than 60% of the time (95,9229%)
}
672,2582; Successful Placement; 18 Soup; 0,006442632; 6,456569; 12,72363; 3; 4,792969; 1,329895; 3,463074; 666,7759; 7,930664; 2,666667;
672,259;Task finishedA ;Binary;
1094,52; Task changed; B ;Fixed;
1147,6; Grabbed; 9 Soup; 0,4906104; Goal Soup (B);
1147,91; Average force at grab start; 39,28; 0,3; 
1150,778; Released; 9 Soup; 0,009518199; Goal Soup (B); 3,178101;
; Full force reached duration; 0; 98; 
; either pinky or ring attached duration3,164312; 
; maximal force reached during grab; 66,05; 
; grasp quality score; 1,5; 3,181763; 
\debugText{didn't start with an initially low force (39,28)
weaker/secondary fingers were attached for more than 60% of the time (99,45154%)
}
1151,338; Successful Placement; 9 Soup; 0,002929129; 2,7429; 478,5792; 1; 3,178101; 0; 3,178101; 1147,6; 475,4011; 1,5;
1153,066; Grabbed; 1 Book; 0,4794939; Goal Book;
1153,355; Average force at grab start; 79,03214; 0,3; 
1156,688; Released; 1 Book; 0,02187295; Goal Book; 3,621826;
; Full force reached duration; 3,442614; 98; 
; either pinky or ring attached duration3,63246; 
; maximal force reached during grab; 100; 
; grasp quality score; 5; 3,635864; 
\debugText{didn't start with an initially low force (79,03214)
could reach full force
could reach full force for more than 300ms (exactly 0,03442614ms)
more than 10% of the time full force was reached (94,6849%)
weaker/secondary fingers were attached for more than 60% of the time (99,90636%)
}
1157,244; Successful Placement; 1 Book; 0,01234269; 1,680466; 5,404907; 1; 3,621826; 0; 3,621826; 1153,066; 1,783081; 5;
1160,776; Grabbed; 11 Soup; 0,5118853; Goal Soup (B);
1161,065; Average force at grab start; 80,35714; 0,3; 
1163,754; Released; 11 Soup; 0,03706753; Goal Soup (B); 2,977051;
; Full force reached duration; 2,556777; 98; 
; either pinky or ring attached duration2,84419; 
; maximal force reached during grab; 100; 
; grasp quality score; 5; 2,990845; 
\debugText{didn't start with an initially low force (80,35714)
could reach full force
could reach full force for more than 300ms (exactly 0,02556776ms)
more than 10% of the time full force was reached (85,48677%)
weaker/secondary fingers were attached for more than 60% of the time (95,09655%)
}
1165,421; Grabbed; 11 Soup; 0,03388137; Goal Soup (B);
1165,712; Average force at grab start; 86,07143; 0,3; 
1167,244; Released; 11 Soup; 0,004429332; Goal Soup (B); 1,822876;
; Full force reached duration; 1,710453; 98; 
; either pinky or ring attached duration1,833349; 
; maximal force reached during grab; 100; 
; grasp quality score; 5; 1,83606; 
\debugText{didn't start with an initially low force (86,07143)
could reach full force
could reach full force for more than 300ms (exactly 0,01710453ms)
more than 10% of the time full force was reached (93,15891%)
weaker/secondary fingers were attached for more than 60% of the time (99,85239%)
}
1167,843; Successful Placement; 11 Soup; 0,003795961; 19,7059; 10,09814; 2; 4,799927; 0; 4,799927; 1162,444; 5,298218; 5;
1171,598; Grabbed; 4 Book; 0,4312001; Goal Book;
1171,909; Average force at grab start; 97,53667; 0,3; 
1174,512; Released; 4 Book; 0,02445029; Goal Book; 2,913208;
; Full force reached duration; 2,822623; 98; 
; either pinky or ring attached duration2,922084; 
; maximal force reached during grab; 100; 
; grasp quality score; 5; 2,925781; 
\debugText{didn't start with an initially low force (97,53667)
could reach full force
could reach full force for more than 300ms (exactly 0,02822623ms)
more than 10% of the time full force was reached (96,47416%)
weaker/secondary fingers were attached for more than 60% of the time (99,87363%)
}
1175,152; Successful Placement; 4 Book; 0,006222069; 9,298483; 6,808105; 1; 2,913208; 0; 2,913208; 1171,598; 3,894897; 5;
1177,845; Grabbed; 10 Soup; 0,7184888; Goal Soup (B);
1178,152; Average force at grab start; 63,48334; 0,3; 
1181,087; Released; 10 Soup; 0,004386214; Goal Soup (B); 3,241333;
; Full force reached duration; 0; 98; 
; either pinky or ring attached duration0,1027306; 
; maximal force reached during grab; 82,1; 
; grasp quality score; 1; 3,246094; 
\debugText{didn't start with an initially low force (63,48334)
}
1181,64; Successful Placement; 10 Soup; 0,001747318; 3,784963; 5,987671; 1; 3,241333; 0; 3,241333; 1177,845; 2,746338; 1;
1183; Grabbed; 7 Milk ; 0,4462698; Goal Milk;
1183,313; Average force at grab start; 58,49667; 0,3; 
1185,265; Released; 7 Milk ; 0,1873151; Goal Milk; 2,265381;
; Full force reached duration; 0; 98; 
; either pinky or ring attached duration2,278921; 
; maximal force reached during grab; 71,75; 
; grasp quality score; 1,5; 2,268555; 
\debugText{didn't start with an initially low force (58,49667)
weaker/secondary fingers were attached for more than 60% of the time (100,457%)
}
1186,665; Grabbed; 7 Milk ; 0,1870258; Goal Milk;
1186,974; Average force at grab start; 56,61666; 0,3; 
1187,906; Released; 7 Milk ; 0,01407811; Goal Milk; 1,240723;
; Full force reached duration; 0; 98; 
; either pinky or ring attached duration0,01111111; 
; maximal force reached during grab; 63,6; 
; grasp quality score; 1; 1,243042; 
\debugText{didn't start with an initially low force (56,61666)
}
1188,95; Grabbed; 7 Milk ; 0,007577243; Goal Milk;
1189,263; Average force at grab start; 57,14667; 0,3; 
1190,531; Released; 7 Milk ; 0,02061958; Goal Milk; 1,580811;
; Full force reached duration; 0; 98; 
; either pinky or ring attached duration1,056933; 
; maximal force reached during grab; 74,9; 
; grasp quality score; 1,5; 1,590088; 
\debugText{didn't start with an initially low force (57,14667)
weaker/secondary fingers were attached for more than 60% of the time (66,4701%)
}
1191,128; Successful Placement; 7 Milk ; 0,01659319; 9,68686; 8,987549; 3; 5,086914; 0; 5,086914; 1185,444; 3,900635; 1,333333;
1193,045; Grabbed; 12 Soup; 0,5628886; Goal Soup (B);
1193,352; Average force at grab start; 56,96333; 0,3; 
1195,066; Released; 12 Soup; 0,02363843; Goal Soup (B); 2,021118;
; Full force reached duration; 0; 98; 
; either pinky or ring attached duration2,033283; 
; maximal force reached during grab; 79,85; 
; grasp quality score; 1,5; 2,024536; 
\debugText{didn't start with an initially low force (56,96333)
weaker/secondary fingers were attached for more than 60% of the time (100,432%)
}
1197,353; Grabbed; 12 Soup; 0,008580206; Goal Soup (B);
1197,662; Average force at grab start; 21; 0,3; 
1199,553; Released; 12 Soup; 0,008516056; Goal Soup (B); 2,199707;
; Full force reached duration; 0; 98; 
; either pinky or ring attached duration1,739317; 
; maximal force reached during grab; 82,5; 
; grasp quality score; 0,5; 2,212402; 
\debugText{weaker/secondary fingers were attached for more than 60% of the time (78,61665%)
}
1200,174; Successful Placement; 12 Soup; 0,008105515; 10,14183; 8,545288; 2; 4,220825; 0; 4,220825; 1195,332; 4,324463; 1;
1202,086; Grabbed; 2 Book; 0,3740871; Goal Book;
1202,395; Average force at grab start; 94,91; 0,3; 
1203,352; Released; 2 Book; 0,08687975; Goal Book; 1,265991;
; Full force reached duration; 1,176693; 98; 
; either pinky or ring attached duration1,276995; 
; maximal force reached during grab; 100; 
; grasp quality score; 5; 1,278198; 
\debugText{didn't start with an initially low force (94,91)
could reach full force
could reach full force for more than 300ms (exactly 0,01176693ms)
more than 10% of the time full force was reached (92,05872%)
weaker/secondary fingers were attached for more than 60% of the time (99,9059%)
}
1203,974; Successful Placement; 2 Book; 0,01371236; 9,662642; 3,299438; 1; 1,265991; 0; 1,265991; 1202,086; 2,033447; 5;
1205,868; Grabbed; 6 Milk ; 0,519967; Goal Milk;
1206,174; Average force at grab start; 68,44666; 0,3; 
1208,063; Released; 6 Milk ; 0,09080786; Goal Milk; 2,195557;
; Full force reached duration; 0,9556951; 98; 
; either pinky or ring attached duration2,210435; 
; maximal force reached during grab; 99,6; 
; grasp quality score; 5; 2,200317; 
\debugText{didn't start with an initially low force (68,44666)
could reach full force
could reach full force for more than 300ms (exactly 0,009556951ms)
more than 10% of the time full force was reached (43,43442%)
weaker/secondary fingers were attached for more than 60% of the time (100,4598%)
}
1209,242; Grabbed; 6 Milk ; 0,07603444; Goal Milk;
1209,553; Average force at grab start; 69,7; 0,3; 
1210,376; Released; 6 Milk ; 0,02055932; Goal Milk; 1,133911;
; Full force reached duration; 0,843841; 98; 
; either pinky or ring attached duration0,9203885; 
; maximal force reached during grab; 100; 
; grasp quality score; 5; 1,146606; 
\debugText{didn't start with an initially low force (69,7)
could reach full force
could reach full force for more than 300ms (exactly 0,008438409ms)
more than 10% of the time full force was reached (73,59464%)
weaker/secondary fingers were attached for more than 60% of the time (80,27065%)
}
1211,508; Grabbed; 6 Milk ; 0,03245331; Goal Milk;
1211,818; Average force at grab start; 79,19001; 0,3; 
1212,574; Released; 6 Milk ; 0,01777663; Goal Milk; 1,066528;
; Full force reached duration; 0,8879288; 98; 
; either pinky or ring attached duration1,010973; 
; maximal force reached during grab; 100; 
; grasp quality score; 5; 1,077637; 
\debugText{didn't start with an initially low force (79,19001)
could reach full force
could reach full force for more than 300ms (exactly 0,008879288ms)
more than 10% of the time full force was reached (82,39594%)
weaker/secondary fingers were attached for more than 60% of the time (93,8139%)
}
1213,241; Successful Placement; 6 Milk ; 0,009469199; 6,185762; 8,765869; 3; 4,395996; 0; 4,395996; 1208,178; 4,369873; 5;
1214,75; Grabbed; 8 Milk ; 0,4854125; Goal Milk;
1215,038; Average force at grab start; 56,59643; 0,3; 
1216,752; Released; 8 Milk ; 0,006699554; Goal Milk; 2,002441;
; Full force reached duration; 0; 98; 
; either pinky or ring attached duration2,013286; 
; maximal force reached during grab; 83,3; 
; grasp quality score; 1,5; 2,022583; 
\debugText{didn't start with an initially low force (56,59643)
weaker/secondary fingers were attached for more than 60% of the time (99,54034%)
}
1217,351; Successful Placement; 8 Milk ; 0,006655134; 0,2564085; 3,609131; 1; 2,002441; 0; 2,002441; 1214,75; 1,606689; 1,5;
1218,642; Grabbed; 5 Milk; 0,5596952; Goal Milk;
1218,951; Average force at grab start; 66,88334; 0,3; 
1220,774; Released; 5 Milk; 0,01056081; Goal Milk; 2,13208;
; Full force reached duration; 0; 98; 
; either pinky or ring attached duration2,143945; 
; maximal force reached during grab; 81,85; 
; grasp quality score; 1,5; 2,133667; 
\debugText{didn't start with an initially low force (66,88334)
weaker/secondary fingers were attached for more than 60% of the time (100,4817%)
}
1221,417; Successful Placement; 5 Milk; 0,004540836; 8,580792; 3,565186; 1; 2,13208; 0; 2,13208; 1218,642; 1,433105; 1,5;
1222,886; Grabbed; 3 Book; 0,3997902; Goal Book;
1223,197; Average force at grab start; 37,10334; 0,3; 
1225,152; Released; 3 Book; 0,1439246; Goal Book; 2,265747;
; Full force reached duration; 0; 98; 
; either pinky or ring attached duration2,276537; 
; maximal force reached during grab; 73,95; 
; grasp quality score; 1,5; 2,266968; 
\debugText{didn't start with an initially low force (37,10334)
weaker/secondary fingers were attached for more than 60% of the time (100,4221%)
}
1225,883; Successful Placement; 3 Book; 0,07244887; 2,943598; 3,966064; 1; 2,265747; 0; 2,265747; 1222,886; 1,700317; 1,5;
1225,884;Task finishedB ;Fixed;
1225,885; Task changed; A ;Fixed;
1228,532; Grabbed; 13 Soup; 
1228,84; Average force at grab start; 53,01333; 0,3; 
1231,509; Released; 13 Soup;  2,977173;
; Full force reached duration; 0; 98; 
; either pinky or ring attached duration2,987696; 
; maximal force reached during grab; 68,7; 
; grasp quality score; 1,5; 2,97937; 
\debugText{didn't start with an initially low force (53,01333)
weaker/secondary fingers were attached for more than 60% of the time (100,2794%)
}
1232,127; Successful Placement; 13 Soup; 0,01013023; 7,922423; 5,742554; 1; 2,977173; 0; 2,977173; 1228,532; 2,765381; 1,5;
1234,219; Grabbed; 14 Soup; 
1234,529; Average force at grab start; 58,35333; 0,3; 
1236,864; Released; 14 Soup;  2,645752;
; Full force reached duration; 0; 98; 
; either pinky or ring attached duration2,653285; 
; maximal force reached during grab; 77,25; 
; grasp quality score; 1,5; 2,656982; 
\debugText{didn't start with an initially low force (58,35333)
weaker/secondary fingers were attached for more than 60% of the time (99,86085%)
}
1237,463; Successful Placement; 14 Soup; 0,009227131; 7,234941; 4,835693; 1; 2,645752; 0; 2,645752; 1234,219; 2,189941; 1,5;
1239,398; Grabbed; 15 Soup; 
1239,707; Average force at grab start; 52,91; 0,3; 
1241,931; Released; 15 Soup;  2,532471;
; Full force reached duration; 0; 98; 
; either pinky or ring attached duration2,545581; 
; maximal force reached during grab; 73,45; 
; grasp quality score; 1,5; 2,544678; 
\debugText{didn't start with an initially low force (52,91)
weaker/secondary fingers were attached for more than 60% of the time (100,0355%)
}
1242,531; Successful Placement; 15 Soup; 0,01206293; 16,09363; 4,567261; 1; 2,532471; 0; 2,532471; 1239,398; 2,03479; 1,5;
1244,844; Grabbed; 16 Soup; 
1245,148; Average force at grab start; 64,08667; 0,3; 
1247,485; Released; 16 Soup;  2,641235;
; Full force reached duration; 0; 98; 
; either pinky or ring attached duration2,654377; 
; maximal force reached during grab; 91,45; 
; grasp quality score; 1,5; 2,644165; 
\debugText{didn't start with an initially low force (64,08667)
weaker/secondary fingers were attached for more than 60% of the time (100,3862%)
}
1248,218; Successful Placement; 16 Soup; 0,004344722; 13,44375; 5,186157; 1; 2,641235; 0; 2,641235; 1244,844; 2,544922; 1,5;
1250,418; Grabbed; 17 Soup; 
1250,706; Average force at grab start; 56,63214; 0,3; 
1253,13; Released; 17 Soup;  2,71167;
; Full force reached duration; 0; 98; 
; either pinky or ring attached duration0,01111111; 
; maximal force reached during grab; 72,8; 
; grasp quality score; 1; 2,733521; 
\debugText{didn't start with an initially low force (56,63214)
}
1253,685; Successful Placement; 17 Soup; 0,003366588; 12,14876; 4,966431; 1; 2,71167; 0; 2,71167; 1250,418; 2,254761; 1;
1255,841; Grabbed; 18 Soup; 
1256,15; Average force at grab start; 58,43999; 0,3; 
1258,463; Released; 18 Soup;  2,621948;
; Full force reached duration; 0; 98; 
; either pinky or ring attached duration2,63286; 
; maximal force reached during grab; 66,9; 
; grasp quality score; 1,5; 2,633545; 
\debugText{didn't start with an initially low force (58,43999)
weaker/secondary fingers were attached for more than 60% of the time (99,97399%)
}
1259,082; Successful Placement; 18 Soup; 0,008386304; 5,223589; 4,89624; 1; 2,621948; 0; 2,621948; 1255,841; 2,274292; 1,5;
1259,082;Task finishedA ;Fixed;
