67,34511; Grabbed; Book (4); 0,4991227; Goal Book;
67,62859; Average force at grab start; 46,42857; 0,3; 
73,03403; Released; Book (4); 1,333504; Goal Book; 5,688919;
; Full force reached duration; 0; 98; 
; either pinky or ring attached duration5,700199; 
; maximal force reached during grab; 50; 
; grasp quality score; 1,5; 5,709892; 
\debugText{didn't start with an initially low force (46,42857)
weaker/secondary fingers were attached for more than 60% of the time (99,83024%)
}
86,87383; Grabbed; Soup (4); 0,7928562; Goal Soup (B);
87,16029; Average force at grab start; 38,08839; 0,3; 
88,85271; Released; Soup (4); 1,197433; Goal Soup (B); 1,978882;
; Full force reached duration; 0; 98; 
; either pinky or ring attached duration0; 
; maximal force reached during grab; 67,9; 
; grasp quality score; 1; 1,998299; 
\debugText{didn't start with an initially low force (38,08839)
}
92,98991; Grabbed; Soup (4); 1,597411; Goal Soup (B);
93,30026; Average force at grab start; 62,93948; 0,3; 
105,0525; Released; Soup (4); 1,064503; Goal Soup (B); 12,06258;
; Full force reached duration; 0; 98; 
; either pinky or ring attached duration4,288271; 
; maximal force reached during grab; 81; 
; grasp quality score; 1; 12,06443; 
\debugText{didn't start with an initially low force (62,93948)
}
107,4926; Grabbed; Soup (4); 1,319261; Goal Soup (B);
107,7866; Average force at grab start; 29,98947; 0,3; 
113,0956; Released; Soup (4); 1,222479; Goal Soup (B); 5,602997;
; Full force reached duration; 0; 98; 
; either pinky or ring attached duration5,468955; 
; maximal force reached during grab; 67; 
; grasp quality score; 0,5; 5,618858; 
\debugText{weaker/secondary fingers were attached for more than 60% of the time (97,33213%)
}
117,563; Grabbed; Milk (5); 0,8511413; Goal Milk;
117,8729; Average force at grab start; 16,47452; 0,3; 
121,8076; Released; Milk (5); 1,032109; Goal Milk; 4,244545;
; Full force reached duration; 0; 98; 
; either pinky or ring attached duration0,01111111; 
; maximal force reached during grab; 46,85; 
; grasp quality score; 0; 4,252258; 
\debugText{}
124,126; Grabbed; Milk (5); 1,525997; Goal Milk;
124,4255; Average force at grab start; 34,00882; 0,3; 
134,985; Released; Milk (5); 1,159685; Goal Milk; 10,85902;
; Full force reached duration; 0; 98; 
; either pinky or ring attached duration0; 
; maximal force reached during grab; 63,7; 
; grasp quality score; 1; 10,8633; 
\debugText{didn't start with an initially low force (34,00882)
}
148,2957; Grabbed; Milk (4); 0,3721208; Goal Milk;
148,6029; Average force at grab start; 27,50196; 0,3; 
157,517; Released; Milk (4); 1,042855; Goal Milk; 9,221283;
; Full force reached duration; 0; 98; 
; either pinky or ring attached duration5,566131; 
; maximal force reached during grab; 79,65; 
; grasp quality score; 0,5; 9,22876; 
\debugText{weaker/secondary fingers were attached for more than 60% of the time (60,31289%)
}
159,6221; Grabbed; Milk (4); 1,359758; Goal Milk;
159,9236; Average force at grab start; 46,68422; 0,3; 
165,639; Released; Milk (4); 0,8464154; Goal Milk; 6,016907;
; Full force reached duration; 0; 98; 
; either pinky or ring attached duration4,227501; 
; maximal force reached during grab; 69,8; 
; grasp quality score; 1,5; 6,028809; 
\debugText{didn't start with an initially low force (46,68422)
weaker/secondary fingers were attached for more than 60% of the time (70,12167%)
}
170,517; Grabbed; Milk (4); 1,433248; Goal Milk;
170,8215; Average force at grab start; 25,24737; 0,3; 
193,5489; Released; Milk (4); 0,1631392; Goal Milk; 23,03188;
; Full force reached duration; 8,665205; 98; 
; either pinky or ring attached duration22,87681; 
; maximal force reached during grab; 100; 
; grasp quality score; 4; 23,03868; 
\debugText{could reach full force
could reach full force for more than 300ms (exactly 0,08665205ms)
more than 10% of the time full force was reached (37,61155%)
weaker/secondary fingers were attached for more than 60% of the time (99,29739%)
}
194,904; Grabbed; Milk (4); 0,3819013; Goal Milk;
195,1907; Average force at grab start; 22,39643; 0,3; 
212,149; Released; Milk (4); 0,02884932; Goal Milk; 17,24504;
; Full force reached duration; 0; 98; 
; either pinky or ring attached duration0,01111111; 
; maximal force reached during grab; 64,05; 
; grasp quality score; 0; 17,26097; 
\debugText{}
215,4381; Grabbed; Milk (4); 0,0323089; Goal Milk;
215,747; Average force at grab start; 38,96667; 0,3; 
218,3722; Released; Milk (4); 0,0210646; Goal Milk; 2,934128;
; Full force reached duration; 0; 98; 
; either pinky or ring attached duration0,01111111; 
; maximal force reached during grab; 69,5; 
; grasp quality score; 1; 2,939606; 
\debugText{didn't start with an initially low force (38,96667)
}
220,1719; Grabbed; Milk (4); 0,14576; Goal Milk;
220,4788; Average force at grab start; 42,73; 0,3; 
222,7041; Released; Milk (4); 0,08261461; Goal Milk; 2,532196;
; Full force reached duration; 0; 98; 
; either pinky or ring attached duration0; 
; maximal force reached during grab; 68,45; 
; grasp quality score; 1; 2,53833; 
\debugText{didn't start with an initially low force (42,73)
}
224,4153; Grabbed; Milk (4); 0,0849105; Goal Milk;
224,7252; Average force at grab start; 48,59334; 0,3; 
227,5258; Released; Milk (4); 0,03377477; Goal Milk; 3,11058;
; Full force reached duration; 0; 98; 
; either pinky or ring attached duration0; 
; maximal force reached during grab; 77,2; 
; grasp quality score; 1; 3,115814; 
\debugText{didn't start with an initially low force (48,59334)
}
228,7257; Grabbed; Milk (4); 0,03403221; Goal Milk;
229,0346; Average force at grab start; 29,27667; 0,3; 
230,282; Released; Milk (4); 0,01051644; Goal Milk; 1,556259;
; Full force reached duration; 0; 98; 
; either pinky or ring attached duration0; 
; maximal force reached during grab; 40,45; 
; grasp quality score; 0; 1,560486; 
\debugText{}
231,0998; Grabbed; Milk (4); 0,0129166; Goal Milk;
231,4121; Average force at grab start; 32,33666; 0,3; 
232,6363; Released; Milk (4); 0,01250003; Goal Milk; 1,536575;
; Full force reached duration; 0; 98; 
; either pinky or ring attached duration0,01111111; 
; maximal force reached during grab; 48,2; 
; grasp quality score; 1; 1,54866; 
\debugText{didn't start with an initially low force (32,33666)
}
233,2586; Successful Placement; Milk (4); 0,01924168; 12,80515; 232,758; 15; 107,6218; 23,91079; 83,71101; 125,0145; 125,1362; 1;
256,7464; Grabbed; Book (5); 0,8874568; Goal Book;
257,0571; Average force at grab start; 2,874444; 0,3; 
258,88; Released; Book (5); 0,9200044; Goal Book; 2,133636;
; Full force reached duration; 0; 98; 
; either pinky or ring attached duration2,144615; 
; maximal force reached during grab; 22,1; 
; grasp quality score; 0,5; 2,147263; 
\debugText{weaker/secondary fingers were attached for more than 60% of the time (99,87672%)
}
262,172; Task changed; A ;Binary;
270,7237; Grabbed; 13 Soup; 
271,034; Average force at grab start; 46,70667; 0,3; 
275,3904; Released; 13 Soup;  4,666687;
; Full force reached duration; 0; 98; 
; either pinky or ring attached duration0,01111111; 
; maximal force reached during grab; 56,55; 
; grasp quality score; 1; 4,680023; 
\debugText{didn't start with an initially low force (46,70667)
}
276,1244; Successful Placement; 13 Soup; 0,05275342; 2,912856; 42,36519; 2; 6,800323; 0; 6,800323; 268,59; 35,56487; 0,75;
282,4237; Grabbed; 14 Soup; 
282,7116; Average force at grab start; 11,3237; 0,3; 
286,7799; Released; 14 Soup;  4,356262;
; Full force reached duration; 0; 98; 
; either pinky or ring attached duration0,01111111; 
; maximal force reached during grab; 58,45; 
; grasp quality score; 0; 4,374817; 
\debugText{}
288,0242; Grabbed; 14 Soup; 
288,3129; Average force at grab start; 69,57143; 0,3; 
289,5356; Released; 14 Soup;  1,511444;
; Full force reached duration; 0; 98; 
; either pinky or ring attached duration0,01111111; 
; maximal force reached during grab; 81,15; 
; grasp quality score; 1; 1,530792; 
\debugText{didn't start with an initially low force (69,57143)
}
290,5317; Grabbed; 14 Soup; 
290,8446; Average force at grab start; 56,01667; 0,3; 
292,4688; Released; 14 Soup;  1,937103;
; Full force reached duration; 0; 98; 
; either pinky or ring attached duration0,01111111; 
; maximal force reached during grab; 69,65; 
; grasp quality score; 1; 1,941803; 
\debugText{didn't start with an initially low force (56,01667)
}
293,507; Grabbed; 14 Soup; 
293,8006; Average force at grab start; 50,65; 0,3; 
296,492; Released; 14 Soup;  2,985016;
; Full force reached duration; 0; 98; 
; either pinky or ring attached duration2,949933; 
; maximal force reached during grab; 63,85; 
; grasp quality score; 1,5; 2,997833; 
\debugText{didn't start with an initially low force (50,65)
weaker/secondary fingers were attached for more than 60% of the time (98,40218%)
}
300,8186; Grabbed; 14 Soup; 
301,133; Average force at grab start; 44,75417; 0,3; 
302,6661; Released; 14 Soup;  1,847504;
; Full force reached duration; 0; 98; 
; either pinky or ring attached duration0; 
; maximal force reached during grab; 65,15; 
; grasp quality score; 1; 1,860962; 
\debugText{didn't start with an initially low force (44,75417)
}
303,7752; Grabbed; 14 Soup; 
304,0877; Average force at grab start; 15,61; 0,3; 
306,1357; Released; 14 Soup;  2,360413;
; Full force reached duration; 0; 98; 
; either pinky or ring attached duration0; 
; maximal force reached during grab; 52,1; 
; grasp quality score; 0; 2,364105; 
\debugText{}
306,799; Successful Placement; 14 Soup; 0,0291678; 9,399226; 30,17395; 6; 14,99774; 1,245514; 13,75223; 291,1379; 15,17621; 0,75;
313,0407; Grabbed; 15 Soup; 
313,3452; Average force at grab start; 2,889744; 0,3; 
316,7948; Released; 15 Soup;  3,754089;
; Full force reached duration; 0; 98; 
; either pinky or ring attached duration0,01111111; 
; maximal force reached during grab; 28,4; 
; grasp quality score; 0; 3,767487; 
\debugText{}
317,4472; Successful Placement; 15 Soup; 0,003479559; 10,54115; 10,14761; 1; 3,754089; 0; 3,754089; 313,0407; 6,393524; 0;
319,758; Grabbed; 16 Soup; 
320,0644; Average force at grab start; 15,59704; 0,3; 
322,3756; Released; 16 Soup;  2,617676;
; Full force reached duration; 0; 98; 
; either pinky or ring attached duration0,01111111; 
; maximal force reached during grab; 42,95; 
; grasp quality score; 0; 2,625732; 
\debugText{}
323,0429; Successful Placement; 16 Soup; 0,03808299; 3,387239; 5,094971; 1; 2,617676; 0; 2,617676; 319,758; 2,477295; 0;
325,2181; Grabbed; 17 Soup; 
325,4863; Average force at grab start; 25,29371; 0,3; 
328,0232; Released; 17 Soup;  2,805023;
; Full force reached duration; 0; 98; 
; either pinky or ring attached duration0,01111111; 
; maximal force reached during grab; 39,85; 
; grasp quality score; 0; 2,840118; 
\debugText{}
328,5985; Successful Placement; 17 Soup; 0,005559294; 8,847537; 5,054932; 1; 2,805023; 0; 2,805023; 325,2181; 2,249908; 0;
330,6628; Grabbed; 18 Soup; 
330,9596; Average force at grab start; 0,2490741; 0,3; 
333,3955; Released; 18 Soup;  2,732758;
; Full force reached duration; 0; 98; 
; either pinky or ring attached duration0; 
; maximal force reached during grab; 2; 
; grasp quality score; 0; 2,745575; 
\debugText{}
336,2092; Grabbed; 18 Soup; 
336,5; Average force at grab start; 46,91428; 0,3; 
339,9444; Released; 18 Soup;  3,735199;
; Full force reached duration; 0; 98; 
; either pinky or ring attached duration0,01111111; 
; maximal force reached during grab; 74,75; 
; grasp quality score; 1; 3,750641; 
\debugText{didn't start with an initially low force (46,91428)
}
340,6972; Successful Placement; 18 Soup; 0,002109034; 6,102154; 11,59796; 2; 6,467957; 0; 6,467957; 333,4764; 5,130005; 0,5;
340,698;Task finishedA ;Binary;
340,6987; Task changed; B ;Binary;
357,9678; Grabbed; 5 Milk; 0,559165; Goal Milk;
358,275; Average force at grab start; 49,42037; 0,3; 
360,6335; Released; 5 Milk; 0,03303039; Goal Milk; 2,665649;
; Full force reached duration; 0; 98; 
; either pinky or ring attached duration0,01111111; 
; maximal force reached during grab; 64,9; 
; grasp quality score; 1; 2,672668; 
\debugText{didn't start with an initially low force (49,42037)
}
362,6104; Grabbed; 5 Milk; 0,03700047; Goal Milk;
362,8983; Average force at grab start; 16,98571; 0,3; 
364,166; Released; 5 Milk; 0,02453808; Goal Milk; 1,555603;
; Full force reached duration; 0; 98; 
; either pinky or ring attached duration1,21774; 
; maximal force reached during grab; 42,75; 
; grasp quality score; 0,5; 1,572052; 
\debugText{weaker/secondary fingers were attached for more than 60% of the time (77,46179%)
}
365,3656; Grabbed; 5 Milk; 0,06940492; Goal Milk;
365,6526; Average force at grab start; 14,70357; 0,3; 
367,6326; Released; 5 Milk; 0,03968935; Goal Milk; 2,267059;
; Full force reached duration; 0; 98; 
; either pinky or ring attached duration0,01111111; 
; maximal force reached during grab; 30,35; 
; grasp quality score; 0; 2,283112; 
\debugText{}
370,6554; Grabbed; 5 Milk; 0,05290303; Goal Milk;
370,963; Average force at grab start; 40,71; 0,3; 
372,5438; Released; 5 Milk; 0,01576234; Goal Milk; 1,888397;
; Full force reached duration; 0; 98; 
; either pinky or ring attached duration0,01111111; 
; maximal force reached during grab; 66,35; 
; grasp quality score; 1; 1,89389; 
\debugText{didn't start with an initially low force (40,71)
}
374,8543; Grabbed; 5 Milk; 0,01658142; Goal Milk;
375,1408; Average force at grab start; 18,075; 0,3; 
378,2546; Released; 5 Milk; 0,05555946; Goal Milk; 3,400299;
; Full force reached duration; 0; 98; 
; either pinky or ring attached duration0,01111111; 
; maximal force reached during grab; 60,2; 
; grasp quality score; 0; 3,416382; 
\debugText{}
380,7879; Grabbed; 5 Milk; 0,05773019; Goal Milk;
381,0786; Average force at grab start; 2,964285; 0,3; 
382,209; Released; 5 Milk; 0,02734805; Goal Milk; 1,421173;
; Full force reached duration; 0; 98; 
; either pinky or ring attached duration1,432806; 
; maximal force reached during grab; 20,15; 
; grasp quality score; 0,5; 1,437408; 
\debugText{weaker/secondary fingers were attached for more than 60% of the time (99,67979%)
}
386,6104; Grabbed; 5 Milk; 0,1710303; Goal Milk;
386,9179; Average force at grab start; 41,23333; 0,3; 
390,2774; Released; 5 Milk; 0,02105303; Goal Milk; 3,667053;
; Full force reached duration; 0; 98; 
; either pinky or ring attached duration0; 
; maximal force reached during grab; 55,2; 
; grasp quality score; 1; 3,682861; 
\debugText{didn't start with an initially low force (41,23333)
}
391,0058; Successful Placement; 5 Milk; 0,01265725; 14,11132; 49,80789; 7; 16,86523; 0; 16,86523; 373,4122; 32,94266; 0,5714286;
393,722; Grabbed; 6 Milk ; 0,5196101; Goal Milk;
394,0308; Average force at grab start; 18,40973; 0,3; 
396,4763; Released; 6 Milk ; 0,1086327; Goal Milk; 2,754303;
; Full force reached duration; 0; 98; 
; either pinky or ring attached duration0,01111111; 
; maximal force reached during grab; 45,9; 
; grasp quality score; 0; 2,760223; 
\debugText{}
397,6764; Grabbed; 6 Milk ; 0,1077843; Goal Milk;
397,9842; Average force at grab start; 27,42; 0,3; 
398,9855; Released; 6 Milk ; 0,03729798; Goal Milk; 1,309143;
; Full force reached duration; 0; 98; 
; either pinky or ring attached duration0,0640163; 
; maximal force reached during grab; 63,45; 
; grasp quality score; 0; 1,313477; 
\debugText{}
405,3437; Grabbed; 6 Milk ; 0,2407956; Goal Milk;
405,6501; Average force at grab start; 26,4; 0,3; 
406,8542; Released; 6 Milk ; 0,09212925; Goal Milk; 1,510529;
; Full force reached duration; 0; 98; 
; either pinky or ring attached duration0; 
; maximal force reached during grab; 45,85; 
; grasp quality score; 0; 1,5159; 
\debugText{}
408,5656; Grabbed; 6 Milk ; 0,07768317; Goal Milk;
408,8722; Average force at grab start; 37,12333; 0,3; 
410,7875; Released; 6 Milk ; 0,009537794; Goal Milk; 2,221893;
; Full force reached duration; 0; 98; 
; either pinky or ring attached duration0; 
; maximal force reached during grab; 57,6; 
; grasp quality score; 1; 2,226807; 
\debugText{didn't start with an initially low force (37,12333)
}
411,8751; Successful Placement; 6 Milk ; 0,01430023; 5,506137; 20,36856; 4; 7,795868; 0; 7,795868; 402,9916; 12,57269; 0,25;
412,9654; Grabbed; 1 Book; 0,5006971; Goal Book;
413,2632; Average force at grab start; 88,14465; 0,3; 
415,6544; Released; 1 Book; 0,008511948; Goal Book; 2,688934;
; Full force reached duration; 2,576887; 98; 
; either pinky or ring attached duration2,689318; 
; maximal force reached during grab; 100; 
; grasp quality score; 5; 2,704834; 
\debugText{didn't start with an initially low force (88,14465)
could reach full force
could reach full force for more than 300ms (exactly 0,02576887ms)
more than 10% of the time full force was reached (95,2697%)
weaker/secondary fingers were attached for more than 60% of the time (99,42637%)
}
416,2515; Successful Placement; 1 Book; 0,01082603; 7,867159; 3,875885; 1; 2,688934; 0; 2,688934; 412,9654; 1,186951; 5;
419,4317; Grabbed; 8 Milk ; 0,4676582; Goal Milk;
419,7423; Average force at grab start; 56,35043; 0,3; 
421,9427; Released; 8 Milk ; 0,009273361; Goal Milk; 2,511047;
; Full force reached duration; 0; 98; 
; either pinky or ring attached duration0,01111111; 
; maximal force reached during grab; 79,8; 
; grasp quality score; 1; 2,515503; 
\debugText{didn't start with an initially low force (56,35043)
}
422,5609; Successful Placement; 8 Milk ; 0,01035128; 0,6549129; 5,808746; 1; 2,511047; 0; 2,511047; 419,4317; 3,297699; 1;
423,8988; Grabbed; 3 Book; 0,3986968; Goal Book;
424,2068; Average force at grab start; 42,40715; 0,3; 
426,5388; Released; 3 Book; 0,05870861; Goal Book; 2,640015;
; Full force reached duration; 0; 98; 
; either pinky or ring attached duration0,01111111; 
; maximal force reached during grab; 63,25; 
; grasp quality score; 1; 2,644745; 
\debugText{didn't start with an initially low force (42,40715)
}
427,1833; Grabbed; 3 Book; 0,06541817; Goal Book;
427,4954; Average force at grab start; 47,24; 0,3; 
428,898; Released; 3 Book; 0,01117712; Goal Book; 1,714722;
; Full force reached duration; 0; 98; 
; either pinky or ring attached duration1,445872; 
; maximal force reached during grab; 50,7; 
; grasp quality score; 1,5; 1,726318; 
\debugText{didn't start with an initially low force (47,24)
weaker/secondary fingers were attached for more than 60% of the time (83,75466%)
}
429,4715; Successful Placement; 3 Book; 0,00967583; 5,697077; 6,409943; 2; 4,354736; 0; 4,354736; 424,5432; 2,055206; 1,25;
431,9876; Grabbed; 10 Soup; 0,7149087; Goal Soup (B);
432,306; Average force at grab start; 74,05752; 0,3; 
435,6082; Released; 10 Soup; 0,02783829; Goal Soup (B); 3,620636;
; Full force reached duration; 0; 98; 
; either pinky or ring attached duration0; 
; maximal force reached during grab; 90,1; 
; grasp quality score; 1; 3,625366; 
\debugText{didn't start with an initially low force (74,05752)
}
436,7198; Grabbed; 10 Soup; 0,04672082; Goal Soup (B);
436,9396; Successful Placement; 10 Soup; 0,03264747; 21,61506; 6,967499; 2; 3,620636; 0,5254211; 3,095215; 431,9876; 3,346863; 1;
436,9412; Released; 10 Soup; 0,037626; Goal Soup (B); 0,221405;
; Full force reached duration; 0; 98; 
; either pinky or ring attached duration0; 
; maximal force reached during grab; 70,7; 
437,0298; Average force at grab start; 55,52666; 0,3; 
; grasp quality score; 1; 0,3117676; 
\debugText{didn't start with an initially low force (55,52666)
}
438,742; Grabbed; 4 Book; 0,4305705; Goal Book;
439,05; Average force at grab start; 7,611111; 0,3; 
440,4306; Released; 4 Book; 0,04040982; Goal Book; 1,688599;
; Full force reached duration; 0; 98; 
; either pinky or ring attached duration0,05151851; 
; maximal force reached during grab; 50; 
; grasp quality score; 0; 1,703217; 
\debugText{}
441,3811; Grabbed; 4 Book; 0,04742604; Goal Book;
441,673; Average force at grab start; 0,5714286; 0,3; 
444,0087; Released; 4 Book; 0,1169788; Goal Book; 2,627625;
; Full force reached duration; 0; 98; 
; either pinky or ring attached duration2,404518; 
; maximal force reached during grab; 4,4; 
; grasp quality score; 0,5; 2,648041; 
\debugText{weaker/secondary fingers were attached for more than 60% of the time (90,80366%)
}
445,8301; Grabbed; 4 Book; 0,1339428; Goal Book;
445,8529; Released; 4 Book; 0,1352581; Goal Book; 0,02276611;
; Full force reached duration; 0; 98; 
; either pinky or ring attached duration0,03222011; 
; maximal force reached during grab; 21,25; 
446,1187; Average force at grab start; 19,825; 0,3; 
; grasp quality score; 0; 0,3005676; 
\debugText{}
446,1616; Grabbed; 4 Book; 0,1357317; Goal Book;
446,2347; Released; 4 Book; 0,1345293; Goal Book; 0,0730896;
; Full force reached duration; 0; 98; 
; either pinky or ring attached duration0,08481431; 
; maximal force reached during grab; 80,4; 
446,4724; Average force at grab start; 72,53667; 0,3; 
; grasp quality score; 1; 0,3205872; 
\debugText{didn't start with an initially low force (72,53667)
}
446,9807; Grabbed; 4 Book; 0,1347218; Goal Book;
447,2721; Average force at grab start; 19,34643; 0,3; 
452,9643; Released; 4 Book; 0,04664719; Goal Book; 5,983612;
; Full force reached duration; 0; 98; 
; either pinky or ring attached duration5,949477; 
; maximal force reached during grab; 81,95; 
; grasp quality score; 0,5; 6,003326; 
\debugText{weaker/secondary fingers were attached for more than 60% of the time (99,10301%)
}
453,6482; Grabbed; 4 Book; 0,03264565; Goal Book;
453,9385; Average force at grab start; 88,91429; 0,3; 
454,9155; Released; 4 Book; 0,0223237; Goal Book; 1,267242;
; Full force reached duration; 1,167487; 98; 
; either pinky or ring attached duration1,159788; 
; maximal force reached during grab; 100; 
; grasp quality score; 5; 1,287964; 
\debugText{didn't start with an initially low force (88,91429)
could reach full force
could reach full force for more than 300ms (exactly 0,01167487ms)
more than 10% of the time full force was reached (90,64591%)
weaker/secondary fingers were attached for more than 60% of the time (90,04818%)
}
455,4496; Successful Placement; 4 Book; 0,01489222; 2,946255; 18,00946; 6; 11,88434; 0; 11,88434; 443,0311; 6,125122; 1,142857;
457,9407; Grabbed; 12 Soup; 0,5671409; Goal Soup (B);
458,249; Average force at grab start; 46,66667; 0,3; 
460,1861; Released; 12 Soup; 0,1315431; Goal Soup (B); 2,245453;
; Full force reached duration; 0; 98; 
; either pinky or ring attached duration0; 
; maximal force reached during grab; 63,2; 
; grasp quality score; 1; 2,258759; 
\debugText{didn't start with an initially low force (46,66667)
}
461,2039; Grabbed; 12 Soup; 0,1443314; Goal Soup (B);
461,5006; Average force at grab start; 63,28215; 0,3; 
462,4946; Released; 12 Soup; 0,01390513; Goal Soup (B); 1,29068;
; Full force reached duration; 0; 98; 
; either pinky or ring attached duration0; 
; maximal force reached during grab; 85,1; 
; grasp quality score; 1; 1,300781; 
\debugText{didn't start with an initially low force (63,28215)
}
463,2929; Grabbed; 12 Soup; 0,01489925; Goal Soup (B);
463,5925; Average force at grab start; 78,24642; 0,3; 
465,0301; Released; 12 Soup; 0,01231992; Goal Soup (B); 1,737152;
; Full force reached duration; 0; 98; 
; either pinky or ring attached duration1,613278; 
; maximal force reached during grab; 94,7; 
; grasp quality score; 1,5; 1,747131; 
\debugText{didn't start with an initially low force (78,24642)
weaker/secondary fingers were attached for more than 60% of the time (92,33865%)
}
466,0255; Grabbed; 12 Soup; 0,0238938; Goal Soup (B);
466,3393; Average force at grab start; 79,32; 0,3; 
468,319; Released; 12 Soup; 0,006277822; Goal Soup (B); 2,293579;
; Full force reached duration; 2,041417; 98; 
; either pinky or ring attached duration0; 
; maximal force reached during grab; 100; 
; grasp quality score; 4,5; 2,302917; 
\debugText{didn't start with an initially low force (79,32)
could reach full force
could reach full force for more than 300ms (exactly 0,02041417ms)
more than 10% of the time full force was reached (88,64484%)
}
469,9196; Grabbed; 12 Soup; 0,03237342; Goal Soup (B);
470,2261; Average force at grab start; 57,21; 0,3; 
471,9854; Released; 12 Soup; 0,01035601; Goal Soup (B); 2,065796;
; Full force reached duration; 0; 98; 
; either pinky or ring attached duration0; 
; maximal force reached during grab; 96,95; 
; grasp quality score; 1; 2,069244; 
\debugText{didn't start with an initially low force (57,21)
}
472,7155; Successful Placement; 12 Soup; 0,008417365; 17,3409; 16,76526; 5; 9,63266; 0,718811; 8,913849; 462,3528; 7,132599; 1,8;
474,6751; Grabbed; 9 Soup; 0,4850115; Goal Soup (B);
474,9833; Average force at grab start; 56,97714; 0,3; 
476,8295; Released; 9 Soup; 0,01378416; Goal Soup (B); 2,154419;
; Full force reached duration; 0; 98; 
; either pinky or ring attached duration2,026318; 
; maximal force reached during grab; 74; 
; grasp quality score; 1,5; 2,157501; 
\debugText{didn't start with an initially low force (56,97714)
weaker/secondary fingers were attached for more than 60% of the time (93,91965%)
}
477,4719; Successful Placement; 9 Soup; 0,01465005; 4,15791; 4,255798; 1; 2,154419; 0; 2,154419; 474,6751; 2,101379; 1,5;
478,7182; Grabbed; 11 Soup; 0,4964066; Goal Soup (B);
479,0087; Average force at grab start; 71,22024; 0,3; 
481,5853; Released; 11 Soup; 0,1692869; Goal Soup (B); 2,867126;
; Full force reached duration; 1,661248; 98; 
; either pinky or ring attached duration0; 
; maximal force reached during grab; 100; 
; grasp quality score; 4,5; 2,880188; 
\debugText{didn't start with an initially low force (71,22024)
could reach full force
could reach full force for more than 300ms (exactly 0,01661248ms)
more than 10% of the time full force was reached (57,67844%)
}
482,4268; Grabbed; 11 Soup; 0,1544724; Goal Soup (B);
482,7385; Average force at grab start; 97; 0,3; 
483,4471; Released; 11 Soup; 0,008927045; Goal Soup (B); 1,020325;
; Full force reached duration; 0,807617; 98; 
; either pinky or ring attached duration0; 
; maximal force reached during grab; 100; 
; grasp quality score; 4,5; 1,031067; 
\debugText{didn't start with an initially low force (97)
could reach full force
could reach full force for more than 300ms (exactly 0,00807617ms)
more than 10% of the time full force was reached (78,32829%)
}
484,4928; Grabbed; 11 Soup; 0,03539414; Goal Soup (B);
484,785; Average force at grab start; 88,92857; 0,3; 
486,4299; Released; 11 Soup; 0,01920054; Goal Soup (B); 1,937103;
; Full force reached duration; 1,838617; 98; 
; either pinky or ring attached duration1,579385; 
; maximal force reached during grab; 100; 
; grasp quality score; 5; 1,947113; 
\debugText{didn't start with an initially low force (88,92857)
could reach full force
could reach full force for more than 300ms (exactly 0,01838617ms)
more than 10% of the time full force was reached (94,42783%)
weaker/secondary fingers were attached for more than 60% of the time (81,1142%)
}
487,0481; Successful Placement; 11 Soup; 0,01949031; 2,101059; 9,075623; 3; 5,824554; 2,345581; 3,478973; 480,6053; 3,251068; 4,666667;
488,2733; Grabbed; 7 Milk ; 0,4389815; Goal Milk;
488,5826; Average force at grab start; 24,08426; 0,3; 
492,3625; Released; 7 Milk ; 0,03070458; Goal Milk; 4,089294;
; Full force reached duration; 0; 98; 
; either pinky or ring attached duration0,01111111; 
; maximal force reached during grab; 40,15; 
; grasp quality score; 0; 4,101563; 
\debugText{}
493,0038; Successful Placement; 7 Milk ; 0,02940976; 15,0493; 5,454865; 1; 4,089294; 0; 4,089294; 488,2733; 1,36557; 0;
495,2731; Grabbed; 2 Book; 0,3758812; Goal Book;
495,583; Average force at grab start; 90,59334; 0,3; 
497,4734; Released; 2 Book; 0,05738451; Goal Book; 2,200287;
; Full force reached duration; 1,615344; 98; 
; either pinky or ring attached duration2,154817; 
; maximal force reached during grab; 100; 
; grasp quality score; 5; 2,212585; 
\debugText{didn't start with an initially low force (90,59334)
could reach full force
could reach full force for more than 300ms (exactly 0,01615344ms)
more than 10% of the time full force was reached (73,0071%)
weaker/secondary fingers were attached for more than 60% of the time (97,38909%)
}
499,0286; Grabbed; 2 Book; 0,08910224; Goal Book;
499,3393; Average force at grab start; 69,97666; 0,3; 
500,3853; Released; 2 Book; 0,00247093; Goal Book; 1,356689;
; Full force reached duration; 0,01111111; 98; 
; either pinky or ring attached duration1,321923; 
; maximal force reached during grab; 100; 
; grasp quality score; 2,5; 1,368896; 
\debugText{didn't start with an initially low force (69,97666)
could reach full force
weaker/secondary fingers were attached for more than 60% of the time (96,56848%)
}
501,0681; Grabbed; 2 Book; 0,02112856; Goal Book;
501,3601; Average force at grab start; 92,12142; 0,3; 
502,0022; Released; 2 Book; 0,08077896; Goal Book; 0,934082;
; Full force reached duration; 0,8339235; 98; 
; either pinky or ring attached duration0,944545; 
; maximal force reached during grab; 100; 
; grasp quality score; 5; 0,9524841; 
\debugText{didn't start with an initially low force (92,12142)
could reach full force
could reach full force for more than 300ms (exactly 0,008339235ms)
more than 10% of the time full force was reached (87,55247%)
weaker/secondary fingers were attached for more than 60% of the time (99,16648%)
}
502,5814; Successful Placement; 2 Book; 0,0245645; 7,240568; 9,07666; 3; 4,491058; 0; 4,491058; 497,5112; 4,585602; 4,166667;
502,5825;Task finishedB ;Binary;
1313,923; Task changed; A ;Fixed;
1337,783; Grabbed; 13 Soup; 
1338,089; Average force at grab start; 78,76334; 0,3; 
1341,292; Released; 13 Soup;  3,508179;
; Full force reached duration; 0; 98; 
; either pinky or ring attached duration3,309094; 
; maximal force reached during grab; 89,7; 
; grasp quality score; 1,5; 3,520996; 
\debugText{didn't start with an initially low force (78,76334)
weaker/secondary fingers were attached for more than 60% of the time (93,98175%)
}
1341,845; Successful Placement; 13 Soup; 0,009179198; 2,409595; 838,7623; 1; 3,508179; 0; 3,508179; 1337,783; 835,2542; 1,5;
1343,979; Grabbed; 14 Soup; 
1344,291; Average force at grab start; 46,06667; 0,3; 
1346,115; Released; 14 Soup;  2,135498;
; Full force reached duration; 0; 98; 
; either pinky or ring attached duration1,982049; 
; maximal force reached during grab; 77,1; 
; grasp quality score; 1,5; 2,143066; 
\debugText{didn't start with an initially low force (46,06667)
weaker/secondary fingers were attached for more than 60% of the time (92,48661%)
}
1346,733; Successful Placement; 14 Soup; 0,01251869; 5,714916; 4,387573; 1; 2,135498; 0; 2,135498; 1343,979; 2,252075; 1,5;
1347,821; Grabbed; 15 Soup; 
1348,112; Average force at grab start; 45,235; 0,3; 
1349,594; Released; 15 Soup;  1,773193;
; Full force reached duration; 0; 98; 
; either pinky or ring attached duration1,744681; 
; maximal force reached during grab; 60,55; 
; grasp quality score; 1,5; 1,789307; 
\debugText{didn't start with an initially low force (45,235)
weaker/secondary fingers were attached for more than 60% of the time (97,506%)
}
1350,265; Successful Placement; 15 Soup; 0,01910424; 1,619751; 3,031494; 1; 1,773193; 0; 1,773193; 1347,821; 1,258301; 1,5;
1351,515; Grabbed; 16 Soup; 
1351,823; Average force at grab start; 53,17; 0,3; 
1353,494; Released; 16 Soup;  1,978394;
; Full force reached duration; 0; 98; 
; either pinky or ring attached duration1,990995; 
; maximal force reached during grab; 65,75; 
; grasp quality score; 1,5; 1,987915; 
\debugText{didn't start with an initially low force (53,17)
weaker/secondary fingers were attached for more than 60% of the time (100,1549%)
}
1354,113; Successful Placement; 16 Soup; 0,008177244; 11,17772; 3,346802; 1; 1,978394; 0; 1,978394; 1351,515; 1,368408; 1,5;
1356,005; Grabbed; 17 Soup; 
1356,312; Average force at grab start; 57,42333; 0,3; 
1358,805; Released; 17 Soup;  2,800659;
; Full force reached duration; 0; 98; 
; either pinky or ring attached duration2,321988; 
; maximal force reached during grab; 82,95; 
; grasp quality score; 1,5; 2,811157; 
\debugText{didn't start with an initially low force (57,42333)
weaker/secondary fingers were attached for more than 60% of the time (82,59901%)
}
1359,402; Successful Placement; 17 Soup; 0,01020441; 8,056741; 4,78833; 1; 2,800659; 0; 2,800659; 1356,005; 1,987671; 1,5;
1360,825; Grabbed; 18 Soup; 
1361,112; Average force at grab start; 63,22143; 0,3; 
1363,181; Released; 18 Soup;  2,355957;
; Full force reached duration; 0; 98; 
; either pinky or ring attached duration0,01111111; 
; maximal force reached during grab; 83,95; 
; grasp quality score; 1; 2,375977; 
\debugText{didn't start with an initially low force (63,22143)
}
1363,824; Successful Placement; 18 Soup; 0,008120986; 9,210856; 3,921509; 1; 2,355957; 0; 2,355957; 1360,825; 1,565552; 1;
1363,825;Task finishedA ;Fixed;
1363,825; Task changed; B ;Fixed;
1367,555; Grabbed; 5 Milk; 0,547767; Goal Milk;
1367,868; Average force at grab start; 48,44333; 0,3; 
1370,092; Released; 5 Milk; 0,08452098; Goal Milk; 2,536987;
; Full force reached duration; 0; 98; 
; either pinky or ring attached duration2,194392; 
; maximal force reached during grab; 70,45; 
; grasp quality score; 1,5; 2,54248; 
\debugText{didn't start with an initially low force (48,44333)
weaker/secondary fingers were attached for more than 60% of the time (86,30909%)
}
1371,292; Grabbed; 5 Milk; 0,09071171; Goal Milk;
1371,602; Average force at grab start; 19,22; 0,3; 
1372,692; Released; 5 Milk; 0,01986752; Goal Milk; 1,399658;
; Full force reached duration; 0; 98; 
; either pinky or ring attached duration0; 
; maximal force reached during grab; 32,55; 
; grasp quality score; 0; 1,408813; 
\debugText{}
1373,422; Successful Placement; 5 Milk; 0,01646999; 19,88214; 9,097412; 2; 3,936646; 0; 3,936646; 1368,755; 5,160767; 0,75;
1374,714; Grabbed; 6 Milk ; 0,5168564; Goal Milk;
1375,023; Average force at grab start; 49,22333; 0,3; 
1376,914; Released; 6 Milk ; 0,2476234; Goal Milk; 2,200195;
; Full force reached duration; 0; 98; 
; either pinky or ring attached duration0; 
; maximal force reached during grab; 78,4; 
; grasp quality score; 1; 2,208862; 
\debugText{didn't start with an initially low force (49,22333)
}
1377,82; Grabbed; 6 Milk ; 0,1854737; Goal Milk;
1378,111; Average force at grab start; 36,18571; 0,3; 
1378,42; Released; 6 Milk ; 0,2236382; Goal Milk; 0,6000977;
; Full force reached duration; 0; 98; 
; either pinky or ring attached duration0; 
; maximal force reached during grab; 54,15; 
; grasp quality score; 1; 0,6149902; 
\debugText{didn't start with an initially low force (36,18571)
}
1379,176; Grabbed; 6 Milk ; 0,2104475; Goal Milk;
1379,49; Average force at grab start; 22,10333; 0,3; 
1381,604; Released; 6 Milk ; 0,01027316; Goal Milk; 2,42749;
; Full force reached duration; 0; 98; 
; either pinky or ring attached duration0; 
; maximal force reached during grab; 27,35; 
; grasp quality score; 0; 2,431396; 
\debugText{}
1382,222; Successful Placement; 6 Milk ; 0,00636827; 2,749171; 8,298828; 3; 5,227783; 0; 5,227783; 1376,376; 3,071045; 0,6666667;
1383,07; Grabbed; 1 Book; 0,4971908; Goal Book;
1383,38; Average force at grab start; 99,81667; 0,3; 
1385,936; Released; 1 Book; 0,003383114; Goal Book; 2,865723;
; Full force reached duration; 2,500438; 98; 
; either pinky or ring attached duration2,570155; 
; maximal force reached during grab; 100; 
; grasp quality score; 5; 2,875244; 
\debugText{didn't start with an initially low force (99,81667)
could reach full force
could reach full force for more than 300ms (exactly 0,02500438ms)
more than 10% of the time full force was reached (86,96438%)
weaker/secondary fingers were attached for more than 60% of the time (89,38911%)
}
1386,488; Successful Placement; 1 Book; 0,003050771; 1,256146; 3,765015; 1; 2,865723; 0; 2,865723; 1383,07; 0,899292; 5;
1388,937; Grabbed; 8 Milk ; 0,4671318; Goal Milk;
1389,247; Average force at grab start; 24,82; 0,3; 
1391,157; Released; 8 Milk ; 0,009663602; Goal Milk; 2,220703;
; Full force reached duration; 0; 98; 
; either pinky or ring attached duration0,1430364; 
; maximal force reached during grab; 55,4; 
; grasp quality score; 0; 2,230225; 
\debugText{}
1391,777; Successful Placement; 8 Milk ; 0,005855806; 3,952706; 4,788818; 1; 2,220703; 0; 2,220703; 1388,937; 2,568115; 0;
1394,136; Grabbed; 3 Book; 0,4098701; Goal Book;
1394,444; Average force at grab start; 34,49; 0,3; 
1396,469; Released; 3 Book; 0,09321903; Goal Book; 2,332886;
; Full force reached duration; 0; 98; 
; either pinky or ring attached duration0; 
; maximal force reached during grab; 50; 
; grasp quality score; 1; 2,342163; 
\debugText{didn't start with an initially low force (34,49)
}
1397,645; Grabbed; 3 Book; 0,4937331; Goal Book;
1397,936; Average force at grab start; 32,25; 0,3; 
1399,404; Released; 3 Book; 0,00960303; Goal Book; 1,758789;
; Full force reached duration; 0,0433396; 98; 
; either pinky or ring attached duration1,767625; 
; maximal force reached during grab; 98,65; 
; grasp quality score; 2,5; 1,775879; 
\debugText{didn't start with an initially low force (32,25)
could reach full force
weaker/secondary fingers were attached for more than 60% of the time (99,53521%)
}
1399,933; Successful Placement; 3 Book; 0,01237865; 4,146597; 7,654785; 2; 4,091675; 0; 4,091675; 1395,312; 3,56311; 1,75;
1401,824; Grabbed; 10 Soup; 0,7081327; Goal Soup (B);
1402,135; Average force at grab start; 72,52; 0,3; 
1403,713; Released; 10 Soup; 0,03111585; Goal Soup (B); 1,889038;
; Full force reached duration; 0; 98; 
; either pinky or ring attached duration0,4663787; 
; maximal force reached during grab; 91,75; 
; grasp quality score; 1; 1,897217; 
\debugText{didn't start with an initially low force (72,52)
}
1405,271; Grabbed; 10 Soup; 0,1755491; Goal Soup (B);
1405,579; Average force at grab start; 62,29333; 0,3; 
1406,625; Released; 10 Soup; 0,2215622; Goal Soup (B); 1,353394;
; Full force reached duration; 0; 98; 
; either pinky or ring attached duration0; 
; maximal force reached during grab; 85,9; 
; grasp quality score; 1; 1,36377; 
\debugText{didn't start with an initially low force (62,29333)
}
1407,668; Grabbed; 10 Soup; 0,2185077; Goal Soup (B);
1407,979; Average force at grab start; 38,08; 0,3; 
1408,2; Released; 10 Soup; 0,163504; Goal Soup (B); 0,5322266;
; Full force reached duration; 0; 98; 
; either pinky or ring attached duration0; 
; maximal force reached during grab; 69,2; 
; grasp quality score; 1; 0,5386963; 
\debugText{didn't start with an initially low force (38,08)
}
1409,153; Grabbed; 10 Soup; 0,21801; Goal Soup (B);
1409,444; Average force at grab start; 60,025; 0,3; 
1410,219; Released; 10 Soup; 0,01986112; Goal Soup (B); 1,066284;
; Full force reached duration; 0; 98; 
; either pinky or ring attached duration0,9440029; 
; maximal force reached during grab; 82,4; 
; grasp quality score; 1,5; 1,080933; 
\debugText{didn't start with an initially low force (60,025)
weaker/secondary fingers were attached for more than 60% of the time (87,33226%)
}
1415,269; Grabbed; 10 Soup; 0,01697712; Goal Soup (B);
1415,576; Average force at grab start; 50,03666; 0,3; 
1418,246; Released; 10 Soup; 0,03556563; Goal Soup (B); 2,97644;
; Full force reached duration; 0; 98; 
; either pinky or ring attached duration0,01111111; 
; maximal force reached during grab; 74,6; 
; grasp quality score; 1; 2,984985; 
\debugText{didn't start with an initially low force (50,03666)
}
1418,999; Successful Placement; 10 Soup; 0,03711094; 8,582526; 18,56531; 5; 7,817383; 0; 7,817383; 1410,428; 10,74792; 1,1;
1420,203; Grabbed; 4 Book; 0,4368793; Goal Book;
1420,488; Average force at grab start; 50,17857; 0,3; 
1421,574; Released; 4 Book; 0,2343156; Goal Book; 1,371704;
; Full force reached duration; 0,01111111; 98; 
; either pinky or ring attached duration1,309942; 
; maximal force reached during grab; 100; 
; grasp quality score; 2,5; 1,391602; 
\debugText{didn't start with an initially low force (50,17857)
could reach full force
weaker/secondary fingers were attached for more than 60% of the time (94,13197%)
}
1422,843; Grabbed; 4 Book; 0,2331413; Goal Book;
1423,133; Average force at grab start; 10,2; 0,3; 
1424,669; Released; 4 Book; 0,1243709; Goal Book; 1,825806;
; Full force reached duration; 0; 98; 
; either pinky or ring attached duration1,553505; 
; maximal force reached during grab; 26,1; 
; grasp quality score; 0,5; 1,840942; 
\debugText{weaker/secondary fingers were attached for more than 60% of the time (84,38641%)
}
1425,375; Grabbed; 4 Book; 0,1256017; Goal Book;
1425,665; Average force at grab start; 51,79285; 0,3; 
1426,53; Released; 4 Book; 0,02934962; Goal Book; 1,155273;
; Full force reached duration; 0; 98; 
; either pinky or ring attached duration1,167251; 
; maximal force reached during grab; 69,55; 
; grasp quality score; 1,5; 1,169312; 
\debugText{didn't start with an initially low force (51,79285)
weaker/secondary fingers were attached for more than 60% of the time (99,82374%)
}
1427,132; Successful Placement; 4 Book; 0,01441792; 5,203466; 7,631958; 3; 4,352783; 0; 4,352783; 1422,177; 3,279175; 1,5;
1429,868; Grabbed; 12 Soup; 0,5674178; Goal Soup (B);
1430,158; Average force at grab start; 41,49643; 0,3; 
1431,623; Released; 12 Soup; 0,05684479; Goal Soup (B); 1,755371;
; Full force reached duration; 0; 98; 
; either pinky or ring attached duration1,477466; 
; maximal force reached during grab; 54,85; 
; grasp quality score; 1,5; 1,77356; 
\debugText{didn't start with an initially low force (41,49643)
weaker/secondary fingers were attached for more than 60% of the time (83,30515%)
}
1432,669; Successful Placement; 12 Soup; 0,03873859; 15,93752; 5,036255; 1; 1,755371; 0; 1,755371; 1429,868; 3,280884; 1,5;
1433,869; Grabbed; 9 Soup; 0,4818418; Goal Soup (B);
1434,177; Average force at grab start; 75,56999; 0,3; 
1435,557; Released; 9 Soup; 0,02240176; Goal Soup (B); 1,687866;
; Full force reached duration; 0; 98; 
; either pinky or ring attached duration1,494031; 
; maximal force reached during grab; 88,15; 
; grasp quality score; 1,5; 1,696289; 
\debugText{didn't start with an initially low force (75,56999)
weaker/secondary fingers were attached for more than 60% of the time (88,07646%)
}
1436,176; Successful Placement; 9 Soup; 0,01914239; 5,897647; 3,00647; 1; 1,687866; 0; 1,687866; 1433,869; 1,318604; 1,5;
1437,135; Grabbed; 11 Soup; 0,5156602; Goal Soup (B);
1437,421; Average force at grab start; 100; 0,3; 
1439,957; Released; 11 Soup; 0,1536911; Goal Soup (B); 2,821777;
; Full force reached duration; 2,835196; 98; 
; either pinky or ring attached duration0; 
; maximal force reached during grab; 100; 
; grasp quality score; 4,5; 2,840454; 
\debugText{didn't start with an initially low force (100)
could reach full force
could reach full force for more than 300ms (exactly 0,02835196ms)
more than 10% of the time full force was reached (99,8149%)
}
1440,53; Grabbed; 11 Soup; 0,1413123; Goal Soup (B);
1440,843; Average force at grab start; 95; 0,3; 
1442,088; Released; 11 Soup; 0,03322097; Goal Soup (B); 1,557251;
; Full force reached duration; 1,387654; 98; 
; either pinky or ring attached duration0; 
; maximal force reached during grab; 100; 
; grasp quality score; 4,5; 1,560303; 
\debugText{didn't start with an initially low force (95)
could reach full force
could reach full force for more than 300ms (exactly 0,01387654ms)
more than 10% of the time full force was reached (88,93493%)
}
1442,641; Grabbed; 11 Soup; 0,03716273; Goal Soup (B);
1442,954; Average force at grab start; 93,66666; 0,3; 
1444,246; Released; 11 Soup; 0,01548327; Goal Soup (B); 1,604614;
; Full force reached duration; 1,484251; 98; 
; either pinky or ring attached duration0; 
; maximal force reached during grab; 100; 
; grasp quality score; 4,5; 1,607422; 
\debugText{didn't start with an initially low force (93,66666)
could reach full force
could reach full force for more than 300ms (exactly 0,01484251ms)
more than 10% of the time full force was reached (92,33736%)
}
1444,798; Successful Placement; 11 Soup; 0,01515124; 13,46171; 8,121216; 3; 5,983643; 0; 5,983643; 1438,262; 2,137573; 4,5;
1446,001; Grabbed; 7 Milk ; 0,4381664; Goal Milk;
1446,31; Average force at grab start; 47,64; 0,3; 
1449,689; Released; 7 Milk ; 0,08721552; Goal Milk; 3,687866;
; Full force reached duration; 0; 98; 
; either pinky or ring attached duration0; 
; maximal force reached during grab; 63,1; 
; grasp quality score; 1; 3,695313; 
\debugText{didn't start with an initially low force (47,64)
}
1450,552; Grabbed; 7 Milk ; 0,1259558; Goal Milk;
1450,843; Average force at grab start; 47,88572; 0,3; 
1452,622; Released; 7 Milk ; 0,01851492; Goal Milk; 2,070313;
; Full force reached duration; 0; 98; 
; either pinky or ring attached duration0,01111111; 
; maximal force reached during grab; 81,65; 
; grasp quality score; 1; 2,084106; 
\debugText{didn't start with an initially low force (47,88572)
}
1453,576; Successful Placement; 7 Milk ; 0,01822808; 11,40043; 8,277222; 2; 5,758179; 0; 5,758179; 1446,864; 2,519043; 1;
1454,467; Grabbed; 2 Book; 0,3716711; Goal Book;
1454,755; Average force at grab start; 77,625; 0,3; 
1456,6; Released; 2 Book; 0,1325534; Goal Book; 2,132935;
; Full force reached duration; 0,01111111; 98; 
; either pinky or ring attached duration2,009398; 
; maximal force reached during grab; 100; 
; grasp quality score; 2,5; 2,149658; 
\debugText{didn't start with an initially low force (77,625)
could reach full force
weaker/secondary fingers were attached for more than 60% of the time (93,47523%)
}
1457,664; Grabbed; 2 Book; 0,04562476; Goal Book;
1457,954; Average force at grab start; 57,88214; 0,3; 
1458,506; Released; 2 Book; 0,02873815; Goal Book; 0,8424072;
; Full force reached duration; 0; 98; 
; either pinky or ring attached duration0,8545798; 
; maximal force reached during grab; 84,4; 
; grasp quality score; 1,5; 0,8568115; 
\debugText{didn't start with an initially low force (57,88214)
weaker/secondary fingers were attached for more than 60% of the time (99,73953%)
}
1459,131; Successful Placement; 2 Book; 0,02010502; 0,2406626; 5,054443; 2; 2,975342; 0; 2,975342; 1455,531; 2,079102; 2;
1459,132;Task finishedB ;Fixed;
