%YAML 1.1
%TAG !u! tag:unity3d.com,2011:
--- !u!1045 &1
EditorBuildSettings:
  m_ObjectHideFlags: 0
  serializedVersion: 2
  m_Scenes:
  - enabled: 1
    path: Assets/Scenes/My room.unity
    guid: afdcb113ffd5a4353ad88f0dd03743af
  m_configObjects:
    Unity.XR.Oculus.Settings: {fileID: 11400000, guid: 8fccb80e6c9a84389a75f2c1ed4d786d, type: 2}
    Unity.XR.OpenVR.Settings: {fileID: 11400000, guid: e0e72c748941e9844a41150d06ab09ca, type: 2}
    com.unity.input.settings: {fileID: 11400000, guid: 11995c14bcc27424091143c20d21fe59, type: 2}
    com.unity.xr.management.loader_settings: {fileID: 11400000, guid: d3134b6f939114be9b8d6dbeff42d453, type: 2}
    com.unity.xr.openxr.settings4: {fileID: 11400000, guid: 2b485d7676a7d4b3eba3a764bd60d013, type: 2}
