16,23066; Task changed; A ;Fixed;
17,97987; Grabbed; 13 Soup; 
18,27561; Average force at grab start; 52,49444; 0,3; 
19,91129; Released; 13 Soup;  1,931423;
; Full force reached duration; 0; 98; 
; either pinky or ring attached duration0; 
; maximal force reached during grab; 63,1; 
; grasp quality score; 1; 1,938119; 
\debugText{didn't start with an initially low force (52,49444)
}
20,5363; Successful Placement; 13 Soup; 0,00669208; 0,3189808; 20,03566; 1; 1,931423; 0; 1,931423; 17,97987; 18,10423; 1;
21,61428; Grabbed; 14 Soup; 
21,91901; Average force at grab start; 76,01117; 0,3; 
24,03376; Released; 14 Soup;  2,419479;
; Full force reached duration; 2,146318; 98; 
; either pinky or ring attached duration2,260356; 
; maximal force reached during grab; 100; 
; grasp quality score; 5; 2,428821; 
\debugText{didn't start with an initially low force (76,01117)
could reach full force
could reach full force for more than 300ms (exactly 0,02146318ms)
more than 10% of the time full force was reached (88,36872%)
weaker/secondary fingers were attached for more than 60% of the time (93,06395%)
}
24,57993; Successful Placement; 14 Soup; 0,002748839; 0,2093567; 3,542965; 1; 2,419479; 0; 2,419479; 21,61428; 1,123486; 5;
25,91146; Grabbed; 15 Soup; 
26,21699; Average force at grab start; 49,96812; 0,3; 
28,57135; Released; 15 Soup;  2,659897;
; Full force reached duration; 0; 98; 
; either pinky or ring attached duration2,497882; 
; maximal force reached during grab; 65; 
; grasp quality score; 1,5; 2,666214; 
\debugText{didn't start with an initially low force (49,96812)
weaker/secondary fingers were attached for more than 60% of the time (93,68649%)
}
29,16071; Successful Placement; 15 Soup; 0,01181063; 0,8775892; 4,080191; 1; 2,659897; 0; 2,659897; 25,91146; 1,420294; 1,5;
31,00778; Grabbed; 16 Soup; 
31,30179; Average force at grab start; 45,33518; 0,3; 
33,83607; Released; 16 Soup;  2,828285;
; Full force reached duration; 0; 98; 
; either pinky or ring attached duration2,622143; 
; maximal force reached during grab; 59,3; 
; grasp quality score; 1,5; 2,841713; 
\debugText{didn't start with an initially low force (45,33518)
weaker/secondary fingers were attached for more than 60% of the time (92,27332%)
}
34,5124; Successful Placement; 16 Soup; 0,01377146; 4,078641; 4,851143; 1; 2,828285; 0; 2,828285; 31,00778; 2,022858; 1,5;
36,35391; Grabbed; 17 Soup; 
36,65155; Average force at grab start; 68,77743; 0,3; 
38,82863; Released; 17 Soup;  2,47472;
; Full force reached duration; 0; 98; 
; either pinky or ring attached duration0,0869474; 
; maximal force reached during grab; 77,55; 
; grasp quality score; 1; 2,479122; 
\debugText{didn't start with an initially low force (68,77743)
}
39,42203; Successful Placement; 17 Soup; 0,01628908; 10,56002; 4,409035; 1; 2,47472; 0; 2,47472; 36,35391; 1,934315; 1;
41,31623; Grabbed; 18 Soup; 
41,61634; Average force at grab start; 48,65044; 0,3; 
43,88849; Released; 18 Soup;  2,572258;
; Full force reached duration; 0; 98; 
; either pinky or ring attached duration2,497054; 
; maximal force reached during grab; 56,7; 
; grasp quality score; 1,5; 2,583607; 
\debugText{didn't start with an initially low force (48,65044)
weaker/secondary fingers were attached for more than 60% of the time (96,64991%)
}
44,48688; Successful Placement; 18 Soup; 0,01493883; 13,15532; 4,563976; 1; 2,572258; 0; 2,572258; 41,31623; 1,991718; 1,5;
44,48749;Task finishedA ;Fixed;
44,48801; Task changed; B ;Fixed;
46,79969; Grabbed; 11 Soup; 0,5172588; Goal Soup (B);
47,10706; Average force at grab start; 90,29401; 0,3; 
48,20469; Released; 11 Soup; 0,03657066; Goal Soup (B); 1,404999;
; Full force reached duration; 1,293992; 98; 
; either pinky or ring attached duration1,29645; 
; maximal force reached during grab; 100; 
; grasp quality score; 5; 1,410511; 
\debugText{didn't start with an initially low force (90,29401)
could reach full force
could reach full force for more than 300ms (exactly 0,01293992ms)
more than 10% of the time full force was reached (91,73922%)
weaker/secondary fingers were attached for more than 60% of the time (91,91352%)
}
50,10388; Grabbed; 11 Soup; 0,1224233; Goal Soup (B);
50,4086; Average force at grab start; 100; 0,3; 
51,17612; Released; 11 Soup; 0,01382279; Goal Soup (B); 1,072235;
; Full force reached duration; 1,056034; 98; 
; either pinky or ring attached duration0,9430145; 
; maximal force reached during grab; 100; 
; grasp quality score; 5; 1,08215; 
\debugText{didn't start with an initially low force (100)
could reach full force
could reach full force for more than 300ms (exactly 0,01056034ms)
more than 10% of the time full force was reached (97,58669%)
weaker/secondary fingers were attached for more than 60% of the time (87,14272%)
}
51,81535; Successful Placement; 11 Soup; 0,01392395; 6,85908; 6,827946; 2; 2,477234; 0; 2,477234; 48,69888; 4,350712; 5;
53,42881; Grabbed; 10 Soup; 0,7189506; Goal Soup (B);
53,72324; Average force at grab start; 47,34183; 0,3; 
54,3933; Released; 10 Soup; 0,4258864; Goal Soup (B); 0,9644928;
; Full force reached duration; 0; 98; 
; either pinky or ring attached duration0; 
; maximal force reached during grab; 61; 
; grasp quality score; 1; 0,9771805; 
\debugText{didn't start with an initially low force (47,34183)
}
55,54996; Grabbed; 10 Soup; 0,4335999; Goal Soup (B);
55,85124; Average force at grab start; 61,84749; 0,3; 
57,1098; Released; 10 Soup; 0,01272038; Goal Soup (B); 1,559845;
; Full force reached duration; 0; 98; 
; either pinky or ring attached duration0,6614008; 
; maximal force reached during grab; 77,1; 
; grasp quality score; 1; 1,570946; 
\debugText{didn't start with an initially low force (61,84749)
}
58,07409; Successful Placement; 10 Soup; 0,01132819; 2,381166; 5,757992; 2; 2,524338; 0; 2,524338; 54,58546; 3,233654; 1;
60,74987; Grabbed; 6 Milk ; 0,5097885; Goal Milk;
61,04671; Average force at grab start; 80,60184; 0,3; 
61,17609; Released; 6 Milk ; 0,4454377; Goal Milk; 0,4262199;
; Full force reached duration; 0; 98; 
; either pinky or ring attached duration0,4380765; 
; maximal force reached during grab; 94,5; 
; grasp quality score; 1,5; 0,4376678; 
\debugText{didn't start with an initially low force (80,60184)
weaker/secondary fingers were attached for more than 60% of the time (100,0934%)
}
63,4345; Grabbed; 6 Milk ; 0,6116493; Goal Milk;
63,74133; Average force at grab start; 82,03333; 0,3; 
65,6144; Released; 6 Milk ; 0,006820625; Goal Milk; 2,179897;
; Full force reached duration; 0; 98; 
; either pinky or ring attached duration1,965001; 
; maximal force reached during grab; 91,8; 
; grasp quality score; 1,5; 2,187222; 
\debugText{didn't start with an initially low force (82,03333)
weaker/secondary fingers were attached for more than 60% of the time (89,84003%)
}
66,2146; Successful Placement; 6 Milk ; 0,005054415; 5,811111; 7,639915; 2; 2,606117; 0; 2,606117; 63,00828; 5,033798; 1,5;
67,3561; Grabbed; 2 Book; 0,3742956; Goal Book;
67,66119; Average force at grab start; 48,82132; 0,3; 
68,4166; Released; 2 Book; 0,1803404; Goal Book; 1,060493;
; Full force reached duration; 0; 98; 
; either pinky or ring attached duration1,073236; 
; maximal force reached during grab; 62; 
; grasp quality score; 1,5; 1,067287; 
\debugText{didn't start with an initially low force (48,82132)
weaker/secondary fingers were attached for more than 60% of the time (100,5574%)
}
73,1514; Grabbed; 2 Book; 0,108927; Goal Book;
73,44337; Average force at grab start; 89,09762; 0,3; 
74,1283; Released; 2 Book; 0,1018798; Goal Book; 0,9769058;
; Full force reached duration; 0,6507524; 98; 
; either pinky or ring attached duration0,942233; 
; maximal force reached during grab; 100; 
; grasp quality score; 5; 0,9900131; 
\debugText{didn't start with an initially low force (89,09762)
could reach full force
could reach full force for more than 300ms (exactly 0,006507524ms)
more than 10% of the time full force was reached (65,7317%)
weaker/secondary fingers were attached for more than 60% of the time (95,17379%)
}
79,37233; Grabbed; 2 Book; 0,1014477; Goal Book;
79,67551; Average force at grab start; 57,40715; 0,3; 
80,24437; Released; 2 Book; 0,02484583; Goal Book; 0,8720398;
; Full force reached duration; 0; 98; 
; either pinky or ring attached duration0,01111111; 
; maximal force reached during grab; 81,9; 
; grasp quality score; 1; 0,8729248; 
\debugText{didn't start with an initially low force (57,40715)
}
80,81224; Successful Placement; 2 Book; 0,01167837; 10,36117; 14,09707; 3; 2,909439; 0; 2,909439; 77,33493; 11,18763; 2,5;
83,49065; Grabbed; 4 Book; 0,4371571; Goal Book;
83,79131; Average force at grab start; 63,95905; 0,3; 
84,55625; Released; 4 Book; 0,2495322; Goal Book; 1,065605;
; Full force reached duration; 0; 98; 
; either pinky or ring attached duration1,079332; 
; maximal force reached during grab; 71,3; 
; grasp quality score; 1,5; 1,074585; 
\debugText{didn't start with an initially low force (63,95905)
weaker/secondary fingers were attached for more than 60% of the time (100,4418%)
}
86,409; Grabbed; 4 Book; 0,2646413; Goal Book;
86,70674; Average force at grab start; 90,75; 0,3; 
87,18398; Released; 4 Book; 0,07926714; Goal Book; 0,7749863;
; Full force reached duration; 0,6808066; 98; 
; either pinky or ring attached duration0,7863153; 
; maximal force reached during grab; 100; 
; grasp quality score; 5; 0,7785568; 
\debugText{didn't start with an initially low force (90,75)
could reach full force
could reach full force for more than 300ms (exactly 0,006808066ms)
more than 10% of the time full force was reached (87,44469%)
weaker/secondary fingers were attached for more than 60% of the time (100,9965%)
}
88,87252; Grabbed; 4 Book; 0,09432787; Goal Book;
89,1713; Average force at grab start; 82,93409; 0,3; 
89,87043; Released; 4 Book; 0,07558655; Goal Book; 0,9979095;
; Full force reached duration; 0,7858527; 98; 
; either pinky or ring attached duration0,9795554; 
; maximal force reached during grab; 100; 
; grasp quality score; 5; 1,009773; 
\debugText{didn't start with an initially low force (82,93409)
could reach full force
could reach full force for more than 300ms (exactly 0,007858527ms)
more than 10% of the time full force was reached (77,82467%)
weaker/secondary fingers were attached for more than 60% of the time (97,00746%)
}
97,27885; Successful Placement; 4 Book; 0,03173656; 11,1738; 15,96597; 3; 2,838501; 0; 2,838501; 87,03193; 13,12747; 3,833333;
101,3691; Grabbed; 3 Book; 0,3713065; Goal Book;
101,663; Average force at grab start; 95; 0,3; 
103,1049; Released; 3 Book; 0,07748662; Goal Book; 1,735794;
; Full force reached duration; 1,488991; 98; 
; either pinky or ring attached duration1,747041; 
; maximal force reached during grab; 100; 
; grasp quality score; 5; 1,744133; 
\debugText{didn't start with an initially low force (95)
could reach full force
could reach full force for more than 300ms (exactly 0,01488991ms)
more than 10% of the time full force was reached (85,37143%)
weaker/secondary fingers were attached for more than 60% of the time (100,1667%)
}
105,3658; Grabbed; 3 Book; 0,1341338; Goal Book;
105,6678; Average force at grab start; 54,83333; 0,3; 
106,5741; Released; 3 Book; 0,1136995; Goal Book; 1,208244;
; Full force reached duration; 0,01111111; 98; 
; either pinky or ring attached duration1,219985; 
; maximal force reached during grab; 100; 
; grasp quality score; 2,5; 1,213196; 
\debugText{didn't start with an initially low force (54,83333)
could reach full force
weaker/secondary fingers were attached for more than 60% of the time (100,5597%)
}
107,9719; Grabbed; 3 Book; 0,1128644; Goal Book;
108,0079; Released; 3 Book; 0,1098381; Goal Book; 0,0359726;
; Full force reached duration; 0; 98; 
; either pinky or ring attached duration0,01111111; 
; maximal force reached during grab; 44,95; 
108,2753; Average force at grab start; 43,95; 0,3; 
; grasp quality score; 1; 0,3132172; 
\debugText{didn't start with an initially low force (43,95)
}
113,9961; Successful Placement; 3 Book; 0,02763511; 3,987803; 16,21645; 3; 2,980011; 0; 2,980011; 105,0279; 13,23643; 2,833333;
116,0966; Grabbed; 12 Soup; 0,5672399; Goal Soup (B);
116,4014; Average force at grab start; 75,90157; 0,3; 
116,6013; Released; 12 Soup; 0,4386565; Goal Soup (B); 0,5046616;
; Full force reached duration; 0,2074994; 98; 
; either pinky or ring attached duration0,4743587; 
; maximal force reached during grab; 100; 
; grasp quality score; 3,5; 0,5074005; 
\debugText{didn't start with an initially low force (75,90157)
could reach full force
more than 10% of the time full force was reached (40,8946%)
weaker/secondary fingers were attached for more than 60% of the time (93,48802%)
}
117,5092; Grabbed; 12 Soup; 0,5199163; Goal Soup (B);
117,8143; Average force at grab start; 88,05238; 0,3; 
119,2778; Released; 12 Soup; 0,01395645; Goal Soup (B); 1,768585;
; Full force reached duration; 0; 98; 
; either pinky or ring attached duration1,780305; 
; maximal force reached during grab; 96,05; 
; grasp quality score; 1,5; 1,772545; 
\debugText{didn't start with an initially low force (88,05238)
weaker/secondary fingers were attached for more than 60% of the time (100,4378%)
}
119,865; Successful Placement; 12 Soup; 0,008521575; 4,747442; 5,368416; 2; 2,273247; 0; 2,273247; 117,0045; 3,095169; 2,5;
120,8622; Grabbed; 7 Milk ; 0,4461774; Goal Milk;
121,1682; Average force at grab start; 67,34196; 0,3; 
122,7928; Released; 7 Milk ; 0,1053565; Goal Milk; 1,930634;
; Full force reached duration; 0; 98; 
; either pinky or ring attached duration0; 
; maximal force reached during grab; 83,6; 
; grasp quality score; 1; 1,931847; 
\debugText{didn't start with an initially low force (67,34196)
}
124,0733; Grabbed; 7 Milk ; 0,08688775; Goal Milk;
124,3721; Average force at grab start; 44,25682; 0,3; 
125,4363; Released; 7 Milk ; 0,01863183; Goal Milk; 1,362991;
; Full force reached duration; 0; 98; 
; either pinky or ring attached duration0; 
; maximal force reached during grab; 51,85; 
; grasp quality score; 1; 1,37558; 
\debugText{didn't start with an initially low force (44,25682)
}
126,3521; Grabbed; 7 Milk ; 0,01420964; Goal Milk;
126,6416; Average force at grab start; 64,93684; 0,3; 
127,9041; Released; 7 Milk ; 0,00791799; Goal Milk; 1,552048;
; Full force reached duration; 0; 98; 
; either pinky or ring attached duration0,1160678; 
; maximal force reached during grab; 90,4; 
; grasp quality score; 1; 1,565826; 
\debugText{didn't start with an initially low force (64,93684)
}
128,6364; Successful Placement; 7 Milk ; 0,006062467; 6,685624; 8,270775; 3; 4,845673; 0; 4,845673; 123,0584; 3,425102; 1;
131,0697; Grabbed; 5 Milk; 0,5597118; Goal Milk;
131,3677; Average force at grab start; 57,17847; 0,3; 
131,6723; Released; 5 Milk; 0,493229; Goal Milk; 0,6026001;
; Full force reached duration; 0; 98; 
; either pinky or ring attached duration0; 
; maximal force reached during grab; 79,05; 
; grasp quality score; 1; 0,6116562; 
\debugText{didn't start with an initially low force (57,17847)
}
132,4752; Grabbed; 5 Milk; 0,5021334; Goal Milk;
132,7749; Average force at grab start; 61,415; 0,3; 
133,6927; Released; 5 Milk; 0,009412738; Goal Milk; 1,217468;
; Full force reached duration; 0; 98; 
; either pinky or ring attached duration1,229237; 
; maximal force reached during grab; 68,85; 
; grasp quality score; 1,5; 1,220879; 
\debugText{didn't start with an initially low force (61,415)
weaker/secondary fingers were attached for more than 60% of the time (100,6846%)
}
134,285; Successful Placement; 5 Milk; 0,01027778; 6,71601; 5,148026; 2; 1,820068; 0; 1,820068; 131,8726; 3,327957; 1,25;
135,374; Grabbed; 8 Milk ; 0,488135; Goal Milk;
135,6864; Average force at grab start; 67,16054; 0,3; 
137,4016; Released; 8 Milk ; 0,02641788; Goal Milk; 2,027512;
; Full force reached duration; 0,7009132; 98; 
; either pinky or ring attached duration0,2603167; 
; maximal force reached during grab; 100; 
; grasp quality score; 4,5; 2,029968; 
\debugText{didn't start with an initially low force (67,16054)
could reach full force
could reach full force for more than 300ms (exactly 0,007009132ms)
more than 10% of the time full force was reached (34,52828%)
}
138,0901; Successful Placement; 8 Milk ; 0,02659661; 19,2274; 3,304474; 1; 2,027512; 0; 2,027512; 135,374; 1,276962; 4,5;
139,7622; Grabbed; 9 Soup; 0,490607; Goal Soup (B);
140,0708; Average force at grab start; 82,14731; 0,3; 
142,5812; Released; 9 Soup; 0,02754426; Goal Soup (B); 2,81897;
; Full force reached duration; 1,680872; 98; 
; either pinky or ring attached duration2,768084; 
; maximal force reached during grab; 100; 
; grasp quality score; 5; 2,820541; 
\debugText{didn't start with an initially low force (82,14731)
could reach full force
could reach full force for more than 300ms (exactly 0,01680872ms)
more than 10% of the time full force was reached (59,59394%)
weaker/secondary fingers were attached for more than 60% of the time (98,14017%)
}
146,6939; Grabbed; 9 Soup; 0,01154915; Goal Soup (B);
146,9974; Average force at grab start; 83,4775; 0,3; 
147,645; Released; 9 Soup; 0,006721674; Goal Soup (B); 0,9511261;
; Full force reached duration; 0,1131942; 98; 
; either pinky or ring attached duration0,1659772; 
; maximal force reached during grab; 99,45; 
; grasp quality score; 3; 0,9620972; 
\debugText{didn't start with an initially low force (83,4775)
could reach full force
more than 10% of the time full force was reached (11,76536%)
}
148,2272; Successful Placement; 9 Soup; 0,005869623; 10,8379; 9,636505; 2; 3,770096; 0; 3,770096; 143,8749; 5,866409; 4;
149,7012; Grabbed; 1 Book; 0,4997334; Goal Book;
150,0053; Average force at grab start; 95,65218; 0,3; 
150,7324; Released; 1 Book; 0,03360386; Goal Book; 1,031158;
; Full force reached duration; 1,031769; 98; 
; either pinky or ring attached duration1,029853; 
; maximal force reached during grab; 100; 
; grasp quality score; 5; 1,037979; 
\debugText{didn't start with an initially low force (95,65218)
could reach full force
could reach full force for more than 300ms (exactly 0,01031769ms)
more than 10% of the time full force was reached (99,40166%)
weaker/secondary fingers were attached for more than 60% of the time (99,21716%)
}
151,3378; Successful Placement; 1 Book; 0,01681118; 15,38481; 2,610138; 1; 1,031158; 0; 1,031158; 149,7012; 1,578979; 5;
151,3384;Task finishedB ;Fixed;
500,0373; Task changed; A ;Binary;
